{
    "version": "4.24.2",
    "description": "Download videos, playlists, channels and subtitles from YouTube, Facebook, Vimeo and other video sites in high quality.",
    "homepage": "https://www.4kdownload.com/products/product-videodownloader",
    "license": {
        "identifier": "Freeware",
        "url": "https://www.4kdownload.com/it/agreement/freeware"
    },
    "architecture": {
        "32bit": {
            "url": "https://dl.4kdownload.com/app/4kvideodownloader_4.24.2.zip",
            "hash": "34085643481b84b94c3955406f656d0aae5e550385d9f2f8ab3c0c3fccbb44c6"
        },
        "64bit": {
            "url": "https://dl.4kdownload.com/app/4kvideodownloader_4.24.2_x64.zip",
            "hash": "e91257a939ebbf90f12eed816af3c0484cbeee776b6c9713d3287e71f8f1e982"
        }
    },
    "extract_dir": "4kvideodownloader",
    "shortcuts": [
        [
            "4kvideodownloader.exe",
            "4K Video Downloader"
        ]
    ],
    "checkver": {
        "regex": "4kvideodownloader_([\\d.]+)_"
    },
    "autoupdate": {
        "architecture": {
            "32bit": {
                "url": "https://dl.4kdownload.com/app/4kvideodownloader_$version.zip"
            },
            "64bit": {
                "url": "https://dl.4kdownload.com/app/4kvideodownloader_$version_x64.zip"
            }
        }
    }
}
