{
  "version": "1.0.79",
  "description": "Unofficial Telegram Desktop.",
  "homepage": "https://64gr.am",
  "license": {
    "identifier": "GPL-3.0-with-OpenSSL-exception",
    "url": "https://github.com/TDesktop-x64/tdesktop/blob/dev/LICENSE"
  },
  "architecture": {
    "64bit": {
      "url": "https://ghproxy.com/https://github.com/TDesktop-x64/tdesktop/releases/download/v1.0.79/64Gram_1.0.79_x64.zip",
      "hash": "df1cdf9af4864c256c6098a84fb3294b1883ba60bb2afb6f16c4f924706409ea"
    }
  },
  "pre_install": "if (Test-Path \"$persist_dir\\log.txt\") { Copy-Item \"$persist_dir\\log.txt\" \"$dir\\\" }",
  "pre_uninstall": "if (Test-Path \"$dir\\log.txt\") { Copy-Item \"$dir\\log.txt\" \"$persist_dir\\\" }",
  "bin": "Telegram.exe",
  "shortcuts": [
    [
      "Telegram.exe",
      "64Gram"
    ]
  ],
  "persist": "tdata",
  "checkver": {
    "url": "https://api.github.com/repos/TDesktop-x64/tdesktop/releases",
    "regex": "(?sm)64Gram v([\\d.]+) Beta.*?releases/download/v([\\d.]+)/(?<file>64Gram_([\\d.]+)(?:.beta)?_x64\\.zip)"
  },
  "autoupdate": {
    "architecture": {
      "64bit": {
        "url": "https://ghproxy.com/https://github.com/TDesktop-x64/tdesktop/releases/download/v$version/$matchFile"
      }
    }
  }
}