{
    "homepage": "https://developer.android.com/studio/command-line/aapt2",
    "description": "Android Asset Packaging Tool 2.",
    "license": "Apache-2.0",
    "version": "8.2.0-alpha01-9603961",
    "url": "https://dl.google.com/dl/android/maven2/com/android/tools/build/aapt2/8.2.0-alpha01-9603961/aapt2-8.2.0-alpha01-9603961-windows.jar#/dl.7z",
    "hash": "4c29790aa6fdf3ce15d9ce81471edaa150f38e2b6f29133c90754eb0f3210aac",
    "bin": "aapt2.exe",
    "checkver": {
        "url": "https://dl.google.com/android/maven2/com/android/tools/build/group-index.xml",
        "xpath": "/com.android.tools.build/aapt2/@versions",
        "regex": ",([a-z0-9.-]+)$"
    },
    "autoupdate": {
        "url": "https://dl.google.com/dl/android/maven2/com/android/tools/build/aapt2/$version/aapt2-$version-windows.jar#/dl.7z"
    }
}
