{
  "version": "20230331",
  "description": "ACPICA tools for the development and debug of ACPI tables",
  "homepage": "http://www.acpica.org",
  "license": {
    "identifier": "Intel-ACPI,GPL-2.0-only,BSD-3-Clause",
    "url": "https://acpica.org/sites/acpica/files/licensing.txt"
  },
  "url": "https://acpica.org/sites/acpica/files/iasl-win-20230331.zip",
  "hash": "6aa17fae64baef8f61ded364d3bb139fe227c6bd8703e27daac59b170e2da48a",
  "bin": [
    "acpibin.exe",
    "acpidump.exe",
    "acpiexec.exe",
    "acpihelp.exe",
    "acpisrc.exe",
    "acpixtract.exe",
    "iasl.exe"
  ],
  "env_set": {
    "IASL_PREFIX": "$dir\\"
  },
  "checkver": {
    "url": "https://acpica.org/downloads/binary-tools",
    "regex": "The current release of ACPICA is version <strong>(?<version>[\\d\\.]+)"
  },
  "autoupdate": {
    "url": "https://acpica.org/sites/acpica/files/iasl-win-$version.zip"
  },
  "_from": "okibcn/ScoopMaster"
}