{
  "version": "2.3.1",
  "description": "ADATA SSD Toolbox provides multiple ways for users to obtain disk information and easily change settings.",
  "homepage": "https://www.adata.com.cn/cn/support/consumer?tab=downloads&download=software",
  "depends": "",
  "url0": "https://webapi3.adata.com.cn/storage/support/ADATA_SSDToolBoxSetup.5.2.7.zip",
  "url": "https://ghproxy.com/https://github.com/SayCV/gh-cdn-cvp/releases/download/v1.0.1/adata-ssdtoolbox-v2.3.1.7z",
  "hash": "",
  "extract_dir": "",
  "extract_to": "",
  "bin": [
    [
      "SsdToolBox.exe",
      "adata-ssdtoolbox-v231"
    ]
  ],
  "shortcuts": [
    [
      "SsdToolBox.exe",
      "ADATA SSD Toolbox v2.3.1"
    ]
  ],
  "checkver0": {
    "github": "https://github.com/SayCV/gh-cdn-cvp/releases/tag/v1.0.1",
    "regex": "adata-ssdtoolbox-v([\\d.-]+).7z"
  },
  "autoupdate0": {
    "url": "https://ghproxy.com/https://github.com/SayCV/gh-cdn-cvp/releases/download/v1.0.1/adata-ssdtoolbox-v$version.7z"
  }
}