{
  "version": "1.0.0",
  "license": "",
  "extract_dir": "",
  "url": "https://ghproxy.com/https://github.com/gurkansahinn/altv-cli/releases/download/1.0.0/altv-cli_1.0.0_windows_amd64.tar.gz",
  "depends": "",
  "homepage": "",
  "hash": "",
  "bin": "altv-cli.exe"
}