{
  "version": "18",
  "description": "Shogi AI (with weight file from w1 to w3880).",
  "homepage": "http://www.yss-aya.com/aobazero/",
  "architecture": {
    "64bit": {
      "url": "https://ghproxy.com/https://github.com/kobanium/aobazero/releases/download/v18/aobazero-18-w64-cpu-only.zip",
      "hash": "db2291332248af4baa5a7c63b05a7e27866b4940fbbd36fa8a40d6d19df23759",
      "extract_dir": "aobazero-18-w64-cpu-only"
    }
  }
}