{
    "version": "2.2.40",
    "description": "Apifox = Postman + Swagger + Mock + JMeter",
    "homepage": "https://www.apifox.cn/",
    "license": "Freeware",
    "architecture": {
        "64bit": {
            "url": "http://cdn.apifox.cn/download/2.2.40/Apifox-2.2.40.exe#/dl.7z",
            "hash": "sha512:4013315534bc11e8812a424438e3ed07101fd23b8d1bbd5ff41588e369ab75299924c2fc83e8732357737c1203b882e62377e1d13a7f60ec15ba18d30d5aa3d5",
            "pre_install": [
                "Expand-7zipArchive \"$dir\\`$PLUGINSDIR\\app-64.7z\" \"$dir\" -Removal",
                "Remove-Item \"$dir\\`$PLUGINSDIR\" -Force -Recurse"
            ]
        }
    },
    "shortcuts": [
        [
            "Apifox.exe",
            "Apifox"
        ]
    ],
    "checkver": {
        "url": "http://cdn.apifox.cn/download/latest.yml",
        "regex": "Apifox-([\\d.]+).exe"
    },
    "autoupdate": {
        "architecture": {
            "64bit": {
                "url": "http://cdn.apifox.cn/download/$version/Apifox-$version.exe#/dl.7z",
                "hash": {
                    "url": "http://cdn.apifox.cn/download/latest.yml",
                    "mode": "extract",
                    "regex": "sha512.*?$base64"
                }
            }
        }
    }
}
