{
    "version": "0.1.3",
    "description": "App Flowy. An open-source alternative to Notion. You are in charge of your data and customizations",
    "homepage": "https://www.appflowy.io",
    "license": "AGPL-3.0-only",
    "changelog": "https://github.com/AppFlowy-IO/AppFlowy/releases",
    "url": "https://github.com/AppFlowy-IO/AppFlowy/releases/download/0.1.3/AppFlowy_0.1.3_Windows-x86_64.zip",
    "hash": "0074e55f8ff4915a55a70f578686ada982e24f03230cd302a7e418c1e72257a7",
    "extract_dir": "AppFlowy",
    "shortcuts": [
        [
            "app_flowy.exe",
            "AppFlowy"
        ]
    ],
    "checkver": {
        "url": "https://github.com/AppFlowy-IO/appflowy/releases/latest",
        "regex": "/tag/(?<version>[\\d.]+(_(beta|alpha).\\d+)?)"
    },
    "autoupdate": {
        "url": "https://github.com/AppFlowy-IO/AppFlowy/releases/download/$version/AppFlowy_$version_Windows-x86_64.zip"
    }
}
