{
    "url": "https://www.powershellgallery.com/api/v2/Package/Az.Accounts/2.12.2#/mod.nupkg",
    "description": "Microsoft Azure PowerShell - Accounts credential management cmdlets for Azure Resource Manager in Windows PowerShell and PowerShell Core.  For more information on account credential management, please visit the following: https://docs.microsoft.com/powershell/azure/authenticate-azureps",
    "autoupdate": {
        "hash": {
            "url": "https://www.powershellgallery.com/api/v2/Packages()?$filter=Id eq 'Az.Accounts' and Version eq '$version'",
            "regex": "<d:PackageHash>$base64<.d:PackageHash>"
        },
        "url": "https://www.powershellgallery.com/api/v2/Package/Az.Accounts/$version#/mod.nupkg"
    },
    "version": "2.12.2",
    "psmodule": {
        "name": "Az.Accounts"
    },
    "license": {
        "identifier": "Refer to Webpage",
        "url": "https://aka.ms/azps-license"
    },
    "homepage": "https://www.powershellgallery.com/packages/Az.Accounts",
    "checkver": {
        "url": "https://www.powershellgallery.com/api/v2/Packages()?$filter=Id%20eq%20'Az.Accounts'%20and%20IsLatestVersion%20eq%20true",
        "replace": "${ver}",
        "regex": "(?i)<d:Version>(?<ver>[^<]+)<.d:Version>"
    },
    "hash": "sha512:ee8460532a3e2cfd73059edb7695f64a7eceaa675864b1cb04e9855ba15b3e61e69f2ab059d18b82e963bdca1c9ae6991070f64b91de763f65ae80f4b7d849c5"
}
