{
    "version": "3.9.1",
    "description": "iikira/BaiduPCS-Go 原版基础上集成了分享链接/秒传链接转存功能",
    "homepage": "https://github.com/qjfoidnh/BaiduPCS-Go",
    "license": "Apache-2.0",
    "architecture": {
        "64bit": {
            "url": "https://github.com/qjfoidnh/BaiduPCS-Go/releases/download/v3.9.1/BaiduPCS-Go-v3.9.1-windows-x64.zip",
            "hash": "fba96c088446236c8587a9f117764689334c7aa912eff3b37ef814cb2530a0d4",
            "extract_dir": "BaiduPCS-Go-v3.9.1-windows-x64"
        },
        "32bit": {
            "url": "https://github.com/qjfoidnh/BaiduPCS-Go/releases/download/v3.9.1/BaiduPCS-Go-v3.9.1-windows-x86.zip",
            "hash": "9c9e53c3a42c112913b05da110aa2734c2b1cc71e52918ac27b577e1eba19bd3",
            "extract_dir": "BaiduPCS-Go-v3.9.1-windows-x86"
        }
    },
    "bin": "BaiduPCS-Go.exe",
    "persist": [
        "config",
        "Downloads"
    ],
    "env_set": {
        "BAIDUPCS_GO_CONFIG_DIR": "$dir\\config"
    },
    "checkver": "github",
    "autoupdate": {
        "architecture": {
            "64bit": {
                "url": "https://github.com/qjfoidnh/BaiduPCS-Go/releases/download/v$version/BaiduPCS-Go-v$version-windows-x64.zip",
                "extract_dir": "BaiduPCS-Go-v$version-windows-x64"
            },
            "32bit": {
                "url": "https://github.com/qjfoidnh/BaiduPCS-Go/releases/download/v$version/BaiduPCS-Go-v$version-windows-x86.zip",
                "extract_dir": "BaiduPCS-Go-v$version-windows-x86"
            }
        }
    }
}
