{
    "version": "2.15.0.847",
    "description": "A Text-To-Speech (TTS) program uses various versions of Microsoft Speech API (SAPI).",
    "homepage": "http://www.cross-plus-a.com/bportable.htm",
    "license": "Freeware",
    "url": "http://balabolka.site/balabolka_portable.zip",
    "hash": "5a70457956742bb8034c9b054048e74a847b608037cc70a0a010659ff2d049f3",
    "extract_dir": "Balabolka",
    "pre_install": "if(Test-Path \"$persist_dir\\balabolka.pcfg\") { Copy-Item \"$persist_dir\\balabolka.pcfg\" \"$dir\\balabolka.pcfg\" | Out-Null }",
    "uninstaller": {
        "script": [
            "if(!(Test-Path \"$persist_dir\\\")) { New-Item -Path \"$persist_dir\\\" -ItemType Directory | Out-Null }",
            "if(Test-Path \"$dir\\balabolka.pcfg\") { Copy-Item \"$dir\\balabolka.pcfg\" \"$persist_dir\\balabolka.pcfg\" | Out-Null }"
        ]
    },
    "shortcuts": [
        [
            "balabolka.exe",
            "Balabolka"
        ]
    ],
    "checkver": {
        "url": "http://www.cross-plus-a.com/changelog.txt",
        "regex": "\\d+-\\d+\\d+\\s*v([\\d.]+)"
    },
    "autoupdate": {
        "url": "http://balabolka.site/balabolka_portable.zip"
    }
}
