{
    "version": "1.0.2",
    "description": "A tool for managing secrets on Google Cloud.",
    "homepage": "https://github.com/GoogleCloudPlatform/berglas",
    "license": "Apache-2.0",
    "architecture": {
        "64bit": {
            "url": "https://github.com/GoogleCloudPlatform/berglas/releases/download/v1.0.2/berglas_1.0.2_windows_amd64.zip",
            "hash": "sha512:0057032127e452083b3f726910729e6a065e8c76762a53c4ffb7c052b3bade9d23f44d1c4d226fb8a125d7871380b15badc5a75d02884953aea93b377f93c704"
        }
    },
    "bin": "berglas.exe",
    "checkver": "github",
    "autoupdate": {
        "architecture": {
            "64bit": {
                "url": "https://github.com/GoogleCloudPlatform/berglas/releases/download/v$version/berglas_$version_windows_amd64.zip"
            }
        },
        "hash": {
            "url": "$baseurl/berglas_$version_SHA512SUMS"
        }
    }
}
