{
  "version": "1.2.1",
  "description": "A simple standalone program which automates the installation, removal and maintenance of BetterDiscord.",
  "homepage": "https://github.com/BetterDiscord/Installer",
  "license": "Unknown",
  "url": "https://ghproxy.com/https://github.com/BetterDiscord/Installer/releases/download/v1.2.1/BetterDiscord-Windows.exe",
  "hash": "112f3434ba55ae6cd0378f8df0236717309e6c0df5267bf700872a24230ca961",
  "shortcuts": [
    [
      "BetterDiscord-Windows.exe",
      "BetterDiscord"
    ]
  ],
  "checkver": {
    "github": "https://github.com/BetterDiscord/Installer"
  },
  "autoupdate": {
    "url": "https://ghproxy.com/https://github.com/BetterDiscord/Installer/releases/download/v$version/BetterDiscord-Windows.exe"
  }
}