{
  "version": "5.0.22",
  "homepage": "https://birdfont.org",
  "description": "Birdfont is a free font editor which lets you create vector graphics and export TTF, OTF, EOT and SVG fonts. The editor has good support for both monochrome and color font formats.",
  "license": "GNU GPL",
  "url": "https://birdfont.org/download/birdfont-5.0.22-free.exe#/dl.7z",
  "hash": "c6a251d4c9932a71899bba211e17eaf792379efb4c6f8d66befb3d9f6fd1323e",
  "pre_install": "Remove-Item \"$dir\\uninstall*\" -Force",
  "shortcuts": [
    [
      "birdfont.exe",
      "Birdfont"
    ]
  ],
  "checkver": {
    "url": "https://birdfont.org/purchase.php",
    "regex": "download/birdfont-([\\d.]+)"
  },
  "autoupdate": {
    "url": "https://birdfont.org/download/birdfont-$version-free.exe#/dl.7z"
  }
}