{
  "version": "2.10",
  "description": "BookStack，基于MinDoc，使用Beego开发的在线文档管理系统，功能类似Gitbook和看云。",
  "homepage": "https://github.com/TruthHun/BookStack",
  "license": "Apache-2.0",
  "url": "https://ghproxy.com/https://github.com/TruthHun/BookStack/releases/download/v2.10/BookStack.V2.10_Windows_amd64.zip",
  "hash": "",
  "pre_install": [],
  "post_install": [
    "",
    ""
  ],
  "bin": "BookStack.exe",
  "shortcuts": [
    []
  ],
  "persist": [],
  "checkver": {
    "github": "https://github.com/TruthHun/BookStack"
  },
  "autoupdate": {
    "url": "https://ghproxy.com/https://github.com/TruthHun/BookStack/releases/download/v$version/BookStack.V$version_Windows_amd64.zip"
  },
  "_from": "okibcn/ScoopMaster"
}