{
  "version": "1.14.1",
  "description": "Bundletool",
  "homepage": "https://github.com/google/bundletool",
  "license": "Apache-2.0 license",
  "suggest": {
    "JDK": "java/openjdk"
  },
  "url": "https://ghproxy.com/https://github.com/google/bundletool/releases/download/1.14.1/bundletool-all-1.14.1.jar",
  "hash": "2f78f9c8d059db1c7ea4ac6ffb2527466af03838d150b70f4b77fe7deefca011",
  "bin": [
    [
      "bundletool-all-1.14.0.jar",
      "bundletool"
    ]
  ],
  "checkver": "github",
  "autoupdate": {
    "url": "https://ghproxy.com/https://github.com/google/bundletool/releases/download/$version/bundletool-all-$version.jar"
  },
  "_from": "okibcn/ScoopMaster"
}