{
    "homepage": "https://github.com/chidiwilliams/buzz",
    "description": "Transcribes and translates audio offline on your personal computer.",
    "license": "MIT",
    "version": "0.7.2",
    "url": "https://github.com/chidiwilliams/buzz/releases/download/v0.7.2/Buzz-0.7.2-windows.tar.gz",
    "hash": "b6b74e4fcecdfdd5a860402c48e84ec912bab0275104a0af8cd451640e5edba4",
    "extract_dir": "Buzz",
    "bin": "Buzz.exe",
    "shortcuts": [
        [
            "Buzz.exe",
            "Buzz"
        ]
    ],
    "checkver": "github",
    "autoupdate": {
        "url": "https://github.com/chidiwilliams/buzz/releases/download/v$version/Buzz-$version-windows.tar.gz"
    }
}
