{
    "version": "6.11.10435",
    "description": "CCleaner. Number-one tool for cleaning your PC.",
    "homepage": "https://www.ccleaner.com/ccleaner",
    "license": "Freeware",
    "changelog": "https://www.ccleaner.com/ccleaner/version-history",
    "url": "https://download.ccleaner.com/portable/ccsetup611.zip",
    "hash": "2f297c51ea7140e38c8cfed75c42cd30a7dec792b0dd0e4174f3f2358edcf13c",
    "architecture": {
        "64bit": {
            "bin": [
                [
                    "CCleaner64.exe",
                    "CCleaner"
                ]
            ],
            "shortcuts": [
                [
                    "CCleaner64.exe",
                    "CCleaner"
                ]
            ]
        },
        "32bit": {
            "bin": "CCleaner.exe",
            "shortcuts": [
                [
                    "CCleaner.exe",
                    "CCleaner"
                ]
            ]
        }
    },
    "pre_install": [
        "if(!(Test-Path \"$persist_dir\\ccleaner.ini\")) {",
        "   Set-Content \"$dir\\ccleaner.ini\" (@('[Options]', 'UpdateAuto=0', 'UpdateNotify=0', 'UpdateCheck=0', 'HelpImproveCCleaner=0') -join \"`r`n\") -Encoding ASCII",
        "}",
        "'winapp.ini', 'winreg.ini', 'winsys.ini' | ForEach-Object {",
        "   if(!(Test-Path \"$persist_dir\\$_\")) { New-Item \"$dir\\$_\" | Out-Null }",
        "}"
    ],
    "persist": [
        "ccleaner.ini",
        "winapp.ini",
        "winreg.ini",
        "winsys.ini"
    ],
    "checkver": {
        "url": "https://www.ccleaner.com/ccleaner/release-notes",
        "regex": ">v([\\d.]+)"
    },
    "autoupdate": {
        "url": "https://download.ccleaner.com/portable/ccsetup$majorVersion$minorVersion.zip"
    }
}
