{
  "version": "0.81",
  "description": "Change Timestamp.",
  "homepage": "https://dns-plus.net/ctime.html",
  "url": "https://dns-plus.net/download/ctime081.zip",
  "hash": "82af09dc51ee2b4452de48763203e7dcf122c743993c96f6dab8b8f4c5d2a98e",
  "shortcuts": [
    [
      "ctime.exe",
      "Change Timestamp"
    ]
  ]
}