{
    "version": "1.18.16",
    "description": "Concurrently chat with ChatGPT, Bing Chat, bard, Alpaca, Vincuna, Claude, ChatGLM, MOSS, iFlytek Spark, ERNIE and more, discover the best answers",
    "homepage": "http://chatall.ai",
    "license": "Apache-2.0",
    "architecture": {
        "64bit": {
            "url": "https://github.com/sunner/ChatALL/releases/download/v1.18.16/ChatALL-1.18.16-win-x64.exe#/dl.7z",
            "hash": "sha512:14194931e11408d16a3282c2a0699cb0087fbce6aca86fd03342718b970b1c7d13c73df2e7c360e5c74baced69db3c650fd279df5cd526e71f5a7a44a8c3fff9",
            "pre_install": [
                "Expand-7zipArchive \"$dir\\`$PLUGINSDIR\\app-64.7z\" \"$dir\" -Removal",
                "Remove-Item \"$dir\\`$*\", \"$dir\\Uninst*\" -Recurse"
            ]
        },
        "arm64": {
            "url": "https://github.com/sunner/ChatALL/releases/download/v1.18.16/ChatALL-1.18.16-win-arm64.exe#/dl.7z",
            "hash": "sha512:c42d0f44cdf7016746d369079e3f5513a2910f50561ec6d5f8b3017fa285f58c6b9d33fa2a3a743113ca4cbe6c4b7219c4125ca5bfb68418614f998b99439673",
            "pre_install": [
                "Expand-7zipArchive \"$dir\\`$PLUGINSDIR\\app-arm64.7z\" \"$dir\" -Removal",
                "Remove-Item \"$dir\\`$*\", \"$dir\\Uninst*\" -Recurse"
            ]
        }
    },
    "shortcuts": [
        [
            "chatALL.exe",
            "chatALL"
        ]
    ],
    "checkver": {
        "github": "https://github.com/sunner/ChatALL"
    },
    "autoupdate": {
        "architecture": {
            "64bit": {
                "url": "https://github.com/sunner/ChatALL/releases/download/v$version/ChatALL-$version-win-x64.exe#/dl.7z"
            },
            "arm64": {
                "url": "https://github.com/sunner/ChatALL/releases/download/v$version/ChatALL-$version-win-arm64.exe#/dl.7z"
            }
        },
        "hash": {
            "url": "$baseurl/latest.yml",
            "regex": "$basename\\s+sha512:\\s+$base64"
        }
    }
}
