{
    "version": "4773111451",
    "description": "Chat client for https://twitch.tv",
    "homepage": "https://github.com/SevenTV/chatterino7",
    "license": "MIT",
    "architecture": {
        "64bit": {
            "url": "https://github.com/SevenTV/chatterino7/releases/download/nightly-build/EXPERIMENTAL-chatterino-windows-x86-64-Qt-6.5.0.zip",
            "hash": "b4c75dac0924b1f796f7d374be060b308e8b2f03be85d550e1c4407f61a9c1f4",
            "extract_dir": "Chatterino2",
            "pre_install": [
                "Get-ChildItem \"$dir\\chatterino.exe\" | Rename-Item -NewName { $_.name.Replace('o', 'o7-portable') }",
                "$modes = \"$dir\\modes\"",
                "Invoke-Expression \"'portable' >$(if (Test-Path $modes) { '>' }) $modes\""
            ]
        }
    },
    "persist": [
        "Logs",
        "Misc",
        "Settings"
    ],
    "shortcuts": [
        [
            "chatterino7-portable.exe",
            "Chatterino7-portable"
        ]
    ],
    "bin": "chatterino7-portable.exe",
    "checkver": {
        "url": "https://api.github.com/repositories/342454835/actions/workflows/build.yml/runs?branch=chatterino7&status=success",
        "jsonpath": "$.workflow_runs[0].id"
    },
    "autoupdate": {
        "architecture": {
            "64bit": {
                "url": "https://github.com/SevenTV/chatterino7/releases/download/nightly-build/EXPERIMENTAL-chatterino-windows-x86-64-Qt-6.5.0.zip"
            }
        }
    }
}
