{
    "##": "Modified from 42wim/scoop-bucket",
    "architecture": {
        "32bit": {
            "hash": "7483e65a95410dbb7cfb511209cd62a55bfe9596cc0230949a1fe156b94864b8",
            "url": "https://dl.google.com/release2/chrome/accqbpi5rq2su3yx4qzgu2zdrl4q_109.0.5414.141/109.0.5414.141_chrome_installer.exe#/setup.exe"
        },
        "64bit": {
            "hash": "e778b42e429e706c2c96ad702598e680aaad682820681d0a4b9877cfa2e0f616",
            "url": "https://dl.google.com/release2/chrome/okwuqsvyf2bgppzm2557sokhb4_109.0.5414.141/109.0.5414.141_chrome_installer.exe#/setup.exe"
        }
    },
    "autoupdate": {
        "architecture": {
            "32bit": {
                "hash": {
                    "url": "https://42wim.github.io/chromeupdates/chrome.min.xml",
                    "xpath": "/chromechecker/stable32[version='$version']/sha256"
                },
                "url": "https://dl.google.com/release2/chrome/$match32#/setup.exe"
            },
            "64bit": {
                "hash": {
                    "url": "https://42wim.github.io/chromeupdates/chrome.min.xml",
                    "xpath": "/chromechecker/stable64[version='$version']/sha256"
                },
                "url": "https://dl.google.com/release2/chrome/$match64#/setup.exe"
            }
        }
    },
    "checkver": {
        "regex": "(?sm)<stable32><version>(?<version>[\\d.]+)</version>.+release2/chrome/(?<32>.+exe).+<stable64>.+release2/chrome/(?<64>.+exe).+</stable64>",
        "url": "https://42wim.github.io/chromeupdates/chrome.min.xml"
    },
    "description": "Fast, secure, and free web browser, built for the modern web.",
    "homepage": "https://www.google.com/chrome/",
    "installer": {
        "script": "Invoke-ExternalCommand \"$dir\\setup.exe\" -ArgumentList @('/silent', '/install')"
    },
    "license": {
        "identifier": "Freeware",
        "url": "https://www.google.com/chrome/privacy/eula_text.html"
    },
    "uninstaller": {
        "script": "Invoke-ExternalCommand \"$dir\\setup.exe\" -ArgumentList @('/uninstall') -ContinueExitCodes @{19 = ''} | Out-Null"
    },
    "version": "109.0.5414.141"
}
