{
    "version": "113.0.5672.63",
    "description": "Fast, secure, and free web browser, built for the modern web.",
    "homepage": "https://www.google.com/chrome/beta",
    "license": {
        "identifier": "Freeware",
        "url": "https://www.google.com/chrome/privacy/eula_text.html"
    },
    "architecture": {
        "64bit": {
            "url": "https://dl.google.com/release2/chrome/kh3izh656qcyneaxk63bczq2na_113.0.5672.63/113.0.5672.63_chrome_installer.exe#/dl.7z",
            "hash": "89bba6401f34539f122c426a4c616f3bddfc30c0158bd2ab856c51aa0a11fa9b"
        },
        "32bit": {
            "url": "https://dl.google.com/release2/chrome/adxyzxxfxerfszblqlmlrhof3koq_113.0.5672.63/113.0.5672.63_chrome_installer.exe#/dl.7z",
            "hash": "17818118795534faa981ccae3740787afd9f46b9c9eb38bfdf43b29ed36b73f3"
        }
    },
    "installer": {
        "script": "Expand-7zipArchive \"$dir\\chrome.7z\" -ExtractDir 'Chrome-bin' -Removal"
    },
    "bin": [
        [
            "chrome.exe",
            "chrome-beta",
            "--user-data-dir=\"$dir\\User Data\""
        ],
        [
            "chrome.exe",
            "google-chrome-beta",
            "--user-data-dir=\"$dir\\User Data\""
        ]
    ],
    "shortcuts": [
        [
            "chrome.exe",
            "Google Chrome (Beta)",
            "--user-data-dir=\"$dir\\User Data\""
        ]
    ],
    "persist": "User Data",
    "checkver": {
        "url": "https://scoopinstaller.github.io/UpdateTracker/googlechrome/chrome.min.xml",
        "regex": "(?sm)<beta32><version>(?<version>[\\d.]+)</version>.+release2/chrome/(?<32>[\\w-]+)_.+<beta64>.+release2/chrome/(?<64>[\\w-]+)_.+</beta64>"
    },
    "autoupdate": {
        "architecture": {
            "64bit": {
                "url": "https://dl.google.com/release2/chrome/$match64_$version/$version_chrome_installer.exe#/dl.7z",
                "hash": {
                    "url": "https://scoopinstaller.github.io/UpdateTracker/googlechrome/chrome.min.xml",
                    "xpath": "/chromechecker/beta64[version='$version']/sha256"
                }
            },
            "32bit": {
                "url": "https://dl.google.com/release2/chrome/$match32_$version/$version_chrome_installer.exe#/dl.7z",
                "hash": {
                    "url": "https://scoopinstaller.github.io/UpdateTracker/googlechrome/chrome.min.xml",
                    "xpath": "/chromechecker/beta32[version='$version']/sha256"
                }
            }
        }
    }
}
