{
    "architecture": {
        "32bit": {
            "hash": "bceb8424bbfb081af71b1376d17619bea8f54d1dc2ae1f70fc311d8a18660312",
            "url": "https://dl.google.com/release2/chrome/adr74t2sref4lvxgdsqkwust6bwa_112.0.5615.138/112.0.5615.138_chrome_installer.exe#/dl.7z"
        },
        "64bit": {
            "hash": "cc39f0105adb85ecbea574f917a5ba3a9cc540a9853230ec3c91751d7acd1480",
            "url": "https://dl.google.com/release2/chrome/dwyescrl2iyc6pdqgxpdlxncdu_112.0.5615.138/112.0.5615.138_chrome_installer.exe#/dl.7z"
        }
    },
    "autoupdate": {
        "architecture": {
            "32bit": {
                "hash": {
                    "url": "https://scoopinstaller.github.io/UpdateTracker/googlechrome/chrome.min.xml",
                    "xpath": "/chromechecker/stable32[version='$version']/sha256"
                },
                "url": "https://dl.google.com/release2/chrome/$match32_$version/$version_chrome_installer.exe#/dl.7z"
            },
            "64bit": {
                "hash": {
                    "url": "https://scoopinstaller.github.io/UpdateTracker/googlechrome/chrome.min.xml",
                    "xpath": "/chromechecker/stable64[version='$version']/sha256"
                },
                "url": "https://dl.google.com/release2/chrome/$match64_$version/$version_chrome_installer.exe#/dl.7z"
            }
        }
    },
    "bin": [
        [
            "chrome.exe",
            "chrome",
            "--user-data-dir=\"$dir\\User Data\""
        ]
    ],
    "checkver": {
        "regex": "(?sm)<stable32><version>(?<version>[\\d.]+)</version>.+release2/chrome/(?<32>[\\w-]+)_.+<stable64>.+release2/chrome/(?<64>[\\w-]+)_.+</stable64>",
        "url": "https://scoopinstaller.github.io/UpdateTracker/googlechrome/chrome.min.xml"
    },
    "description": "Fast, secure, and free web browser, built for the modern web.",
    "homepage": "https://www.google.com/chrome/",
    "installer": {
        "script": "Expand-7zipArchive \"$dir\\chrome.7z\" -ExtractDir 'Chrome-bin' -Removal"
    },
    "license": {
        "identifier": "Freeware",
        "url": "https://www.google.com/chrome/privacy/eula_text.html"
    },
    "persist": "User Data",
    "post_install": [
        "if (!(Test-Path \"$dir\\User Data\\*\") -and (Test-Path \"$env:LocalAppData\\Google\\Chrome\\User Data\")) {",
        "    info '[Portable Mode]: Copying user data...'",
        "    Copy-Item \"$env:LocalAppData\\Google\\Chrome\\User Data\\*\" \"$dir\\User Data\" -Recurse",
        "}"
    ],
    "shortcuts": [
        [
            "chrome.exe",
            "Google Chrome",
            "--user-data-dir=\"$dir\\User Data\""
        ]
    ],
    "version": "112.0.5615.138"
}
