{
    "homepage": "https://github.com/Fndroid/clash_for_windows_pkg",
    "description": "A Windows GUI based on Clash",
    "version": "0.20.22",
    "license": "MIT",
    "architecture": {
        "64bit": {
            "url": "https://ghproxy.com/https://github.com/Fndroid/clash_for_windows_pkg/releases/download/0.20.22/Clash.for.Windows.Setup.0.20.22.exe#/dl.7z",
            "hash": "87adbec79dcd01e83991586bcb02f9e44c900b2c1a4ea4b6f438549aab67b21e",
            "pre_install": [
                "Expand-7zipArchive \"$dir\\`$PLUGINSDIR\\app-64.7z\" \"$dir\"",
                "Remove-Item \"$dir\\`$PLUGINSDIR\", \"$dir\\`$R0\" -Force -Recurse"
            ]
        },
        "32bit": {
            "url": "https://ghproxy.com/https://github.com/Fndroid/clash_for_windows_pkg/releases/download/0.20.22/Clash.for.Windows.Setup.0.20.22.ia32.exe#/dl.7z",
            "hash": "2fb540e30ce66504e0d8e46c86cd3d2f2accbdeb849541fcbccda4c50babdb93",
            "pre_install": [
                "Expand-7zipArchive \"$dir\\`$PLUGINSDIR\\app-32.7z\" \"$dir\"",
                "Remove-Item \"$dir\\`$PLUGINSDIR\", \"$dir\\`$R0\" -Force -Recurse"
            ]
        },
        "arm64": {
            "url": "https://ghproxy.com/https://github.com/Fndroid/clash_for_windows_pkg/releases/download/0.20.22/Clash.for.Windows.Setup.0.20.22.arm64.exe#/dl.7z",
            "hash": "3d6e81c7d8a84236c845f8ff1f8266a1631d3ecbe4cd04f6872e250ddba90862",
            "pre_install": [
                "Expand-7zipArchive \"$dir\\`$PLUGINSDIR\\app-arm64.7z\" \"$dir\"",
                "Remove-Item \"$dir\\`$PLUGINSDIR\", \"$dir\\`$R0\" -Force -Recurse"
            ]
        }
    },
    "shortcuts": [
        [
            "Clash for Windows.exe",
            "Clash for Windows"
        ]
    ],
    "checkver": "github",
    "autoupdate": {
        "architecture": {
            "64bit": {
                "url": "https://ghproxy.com/https://github.com/Fndroid/clash_for_windows_pkg/releases/download/$version/Clash.for.Windows.Setup.$version.exe#/dl.7z",
                "hash": {
                    "url": "https://ghproxy.com/https://github.com/Fndroid/clash_for_windows_pkg/releases/download/$version/sha256sum",
                    "mode": "extract",
                    "regex": "(?m)^exe: $sha256"
                }
            },
            "32bit": {
                "url": "https://ghproxy.com/https://github.com/Fndroid/clash_for_windows_pkg/releases/download/$version/Clash.for.Windows.Setup.$version.ia32.exe#/dl.7z",
                "hash": {
                    "url": "https://ghproxy.com/https://github.com/Fndroid/clash_for_windows_pkg/releases/download/$version/sha256sum",
                    "mode": "extract",
                    "regex": "(?m)^ia32-exe: $sha256"
                }
            },
            "arm64": {
                "url": "https://ghproxy.com/https://github.com/Fndroid/clash_for_windows_pkg/releases/download/$version/Clash.for.Windows.Setup.$version.arm64.exe#/dl.7z",
                "hash": {
                    "url": "https://ghproxy.com/https://github.com/Fndroid/clash_for_windows_pkg/releases/download/$version/sha256sum",
                    "mode": "extract",
                    "regex": "(?m)^arm64-exe: $sha256"
                }
            }
        }
    }
}
