{
    "version": "0.20.22",
    "description": "A Windows/macOS GUI based on Clash",
    "homepage": "https://github.com/Fndroid/clash_for_windows_pkg",
    "license": "MIT",
    "url": "https://ghproxy.com/https://github.com/Fndroid/clash_for_windows_pkg/releases/download/0.20.22/Clash.for.Windows-0.20.22-win.7z",
    "hash": "e0c142644264fa8c6d36657eabc6b266b67b640bc1675c2f80e66c6fd2bdfeef",
    "bin": [
        [
            "Clash for Windows.exe",
            "clash"
        ]
    ],
    "shortcuts": [
        [
            "Clash for Windows.exe",
            "Clash"
        ]
    ],
    "checkver": "github",
    "autoupdate": {
        "url": "https://ghproxy.com/https://github.com/Fndroid/clash_for_windows_pkg/releases/download/$version/Clash.for.Windows-$version-win.7z"
    },
    "_from": "okibcn/ScoopMaster"
}
