{
  "version": "0.14.64",
  "architecture": {
    "64bit": {
      "url": "https://ghproxy.com/https://github.com/pipekit/cli/releases/download/v0.14.64/cli_0.14.64_windows_amd64.zip",
      "bin": [
        "pipekit.exe"
      ],
      "hash": "5e187184dd9f8b35d17ec8eea2b8d8d41ea4f59f99eb33be16d3a604a5fabcd1"
    }
  },
  "homepage": "https://pipekit.io/",
  "description": "Pipekit CLI"
}