{
  "homepage": "https://mridgers.github.io/clink/",
  "url": "https://ghproxy.com/https://github.com/mridgers/clink/releases/download/1.0.0a0/clink-1.0.0a0.0e9734.zip",
  "version": "1.0.0a0",
  "hash": "aa34d43ce977fad59c2be2a32c20238b3a13245bddca46e20699026b02c8979d",
  "extract_dir": "clink-1.0.0a0.0e9734",
  "checkver": {
    "github": "https://github.com/mridgers/clink/"
  },
  "bin": [
    "clink.bat"
  ],
  "notes": [
    "Run 'clink inject' to start clink on the current cmd",
    "Run 'clink autorun install' to auto start clink for current user",
    "See 'clink autorun help' for details"
  ]
}