{
  "architecture": {
    "64bit": {
      "hash": [
        "98b8764333d02215f13c1573a25769596df767067aee5a34bc296f06472b6ad7",
        "2255673952a7909596b8783f6e913d2301f91f0def0275fcfbc6371b0ca021f8"
      ],
      "shortcuts": [
        [
          "IDE\\bin\\clion64.exe",
          "JetBrains\\CLion (Early Access Program)"
        ]
      ],
      "url": [
        "https://download.jetbrains.com/cpp/CLion-231.8109.80.win.zip",
        "https://ghproxy.com/https://raw.githubusercontent.com/Ash258/Scoop-JetBrains/main/scripts/portable.ps1"
      ]
    }
  },
  "autoupdate": {
    "architecture": {
      "64bit": {
        "url": "https://download.jetbrains.com/cpp/CLion-$preReleaseVersion.win.zip"
      }
    },
    "hash": {
      "url": "$url.sha256"
    }
  },
  "checkver": {
    "regex": "version\":\"(?<ver>[\\d.]+)\".*\"build\":\"(?<build>[\\d.]+)\"",
    "replace": "${ver}-${build}",
    "url": "https://data.services.jetbrains.com/products/releases?code=CL&latest=true&platform=zip&type=eap"
  },
  "description": "CLion Early Access Program. Cross-Platform IDE for C and C++ by JetBrains.",
  "extract_to": "IDE",
  "homepage": "https://www.jetbrains.com/cpp/",
  "installer": {
    "script": [
      "& \"$dir\\portable.ps1\" $dir $persist_dir",
      "Remove-Item \"$dir\\IDE\\`$*\", \"$dir\\portable.ps1\" -Force -Recurse"
    ]
  },
  "license": {
    "identifier": "Proprietary",
    "url": "https://www.jetbrains.com/legal/agreements/user_eap.html"
  },
  "persist": [
    "IDE\\bin\\idea.properties",
    "profile"
  ],
  "version": "2023.1-231.8109.80"
}