{
  "version": "2023.04.14",
  "description": "A linter for Clojure code that sparks joy",
  "homepage": "https://github.com/borkdude/clj-kondo",
  "license": "EPL-1.0",
  "depends": "extras/vcredist2015",
  "architecture": {
    "64bit": {
      "url": "https://ghproxy.com/https://github.com/borkdude/clj-kondo/releases/download/v2023.04.14/clj-kondo-2023.04.14-windows-amd64.zip",
      "hash": "a65c19e95bec351154e3ba78be550920b5ac9e4794f5fc5bccfdca7b32922531"
    }
  },
  "bin": "clj-kondo.exe",
  "checkver": "github",
  "autoupdate": {
    "architecture": {
      "64bit": {
        "url": "https://ghproxy.com/https://github.com/borkdude/clj-kondo/releases/download/v$version/clj-kondo-$version-windows-amd64.zip"
      }
    }
  }
}