{
    "version": "2.2.3",
    "description": "测试 Cloudflare CDN 延迟和速度，获取最快 IP (IPv4+IPv6)！",
    "homepage": "https://github.com/XIU2/CloudflareSpeedTest",
    "license": "GNU General Public License v3.0",
    "architecture": {
        "64bit": {
            "url": "https://github.com/XIU2/CloudflareSpeedTest/releases/download/v2.2.3/CloudflareST_windows_amd64.zip",
            "hash": "cd5fe1e51f54e96aa73b1bbc78084d3a52a8454478ddc501a8c9167ed41dd12f"
        },
        "32bit": {
            "url": "https://github.com/XIU2/CloudflareSpeedTest/releases/download/v2.2.3/CloudflareST_windows_386.zip",
            "hash": "4b909291c03c2491f0f88b8775bbbd4034414d9cd0ee4bdd919d157b34bf210c"
        }
    },
    "bin": "CloudflareST.exe",
    "checkver": "github",
    "autoupdate": {
        "architecture": {
            "64bit": {
                "url": "https://github.com/XIU2/CloudflareSpeedTest/releases/download/v$version/CloudflareST_windows_amd64.zip"
            },
            "32bit": {
                "url": "https://github.com/XIU2/CloudflareSpeedTest/releases/download/v$version/CloudflareST_windows_386.zip"
            }
        }
    }
}
