{
  "version": "1.11.1",
  "description": "cmctl is a CLI tool that can help you to manage cert-manager resources inside your cluster.",
  "homepage": "https://cert-manager.io/docs/usage/cmctl",
  "license": "Apache-2.0",
  "changelog": "https://github.com/cert-manager/cert-manager/releases/latest",
  "architecture": {
    "64bit": {
      "url": "https://ghproxy.com/https://github.com/cert-manager/cert-manager/releases/download/v1.11.1/cmctl-windows-amd64.tar.gz",
      "hash": "ea08ad077cc32e71c12c51ea5ce1feedc5f047839d6daff28d458ea768ca67fa"
    }
  },
  "bin": "cmctl.exe",
  "checkver": {
    "github": "https://github.com/cert-manager/cert-manager"
  },
  "autoupdate": {
    "architecture": {
      "64bit": {
        "url": "https://ghproxy.com/https://github.com/cert-manager/cert-manager/releases/download/v$version/cmctl-windows-amd64.tar.gz"
      }
    },
    "hash": {
      "mode": "download"
    }
  }
}