{
  "version": "20210428",
  "description": "Portable console emulator for Windows. (Full version)",
  "homepage": "https://cmder.net",
  "license": "MIT",
  "notes": "For better running",
  "depends": [
    ""
  ],
  "url": "https://ghproxy.net/https://github.com/excitoon/empty/releases/download/empty-1.0.7/empty-1.0.7.zip",
  "hash": "8739c76e681f900923b900c9df0ef75cf421d39cabb54650c4b9ad19b6a76d85",
  "post_install": [
    "",
    "$null, $bucket = find_manifest($appName)",
    "$bucketdir = Find-BucketDirectory($bucket)",
    "",
    "$evalDir = \"$(appdir cmder $global)\\current\".Replace('/', '\\')",
    "if (Test-Path \"$evalDir\\vendor\\clink.lua\") {",
    "   $ifile = \"$evalDir\\vendor\\clink.lua\"",
    "   $ofile = \"$evalDir\\vendor\\clink.lua\"",
    "   $cont = (Get-Content \"$ifile\") -replace '@SCRIPT_NAME@', \"\"",
    "   $cont = $cont -replace 'local lambda = \".*\"', 'local lambda = \"$\"'",
    "   Set-Content \"$ofile\" ($cont -join \"`r`n\") -Encoding ASCII",
    "}",
    "",
    "$evalDir = \"$(appdir cmder-full $global)\\current\".Replace('/', '\\')",
    "if (Test-Path \"$evalDir\\vendor\\clink.lua\") {",
    "   $ifile = \"$evalDir\\vendor\\clink.lua\"",
    "   $ofile = \"$evalDir\\vendor\\clink.lua\"",
    "   $cont = (Get-Content \"$ifile\") -replace '@SCRIPT_NAME@', \"\"",
    "   $cont = $cont -replace 'local lambda = \".*\"', 'local lambda = \"$\"'",
    "   Set-Content \"$ofile\" ($cont -join \"`r`n\") -Encoding ASCII",
    "}",
    "",
    ""
  ]
}