{
  "homepage": "https://github.com/colorer/Colorer-library",
  "description": "is a syntax highlighting library. ",
  "license": "MIT",
  "version": "1.3.1",
  "architecture": {
    "64bit": {
      "url": "https://ghproxy.com/https://github.com/colorer/Colorer-library/releases/download/v1.3.1/colorer.x64.v1.3.1.7z",
      "hash": "9c5e6e492a3fa3d285eb876e12bc4c40efa2b2c1c09401d0b212e0d2bc0719f1"
    },
    "32bit": {
      "url": "https://ghproxy.com/https://github.com/colorer/Colorer-library/releases/download/v1.3.1/colorer.x86.v1.3.1.7z",
      "hash": "9006539d1d55fb150649d88c30c78043bb948724037def5d66e63a34d73d26ec"
    }
  },
  "bin": "colorer.exe",
  "checkver": "github",
  "autoupdate": {
    "architecture": {
      "64bit": {
        "url": "https://ghproxy.com/https://github.com/colorer/Colorer-library/releases/download/v$version/colorer.x64.v$version.7z"
      },
      "32bit": {
        "url": "https://ghproxy.com/https://github.com/colorer/Colorer-library/releases/download/v$version/colorer.x86.v$version.7z"
      }
    }
  },
  "_from": "okibcn/ScoopMaster"
}