{
    "version": "1.0.4.0",
    "description": "Automatically organize your desktop shortcuts icons and running tasks.",
    "homepage": "https://www.coodesker.com/",
    "license": "Freeware",
    "architecture": {
        "64bit": {
            "url": "https://github.com/coodesker/coodesker-desktop/releases/download/v1.0.4.0/Coodesker-x64_1.0.4.0.exe#/dl.7z",
            "hash": "077b2f0fedbb74fa78e5bc24cc9e0de679388589aea62a5e2403ea7a94ab98d7",
            "pre_install": "Rename-Item -Path \"$dir\\coodesker-x64.exe\" -NewName 'coodesker.exe'"
        },
        "32bit": {
            "url": "https://github.com/coodesker/coodesker-desktop/releases/download/v1.0.4.0/Coodesker-x86_1.0.4.0.exe#/dl.7z",
            "hash": "9ec30c2e5b322efc54c9f8ebac956f4e99ec12efb191291caf693441087f5171"
        }
    },
    "persist": "appdata",
    "shortcuts": [
        [
            "coodesker.exe",
            "Coodesker"
        ]
    ],
    "installer": {
        "script": [
            "if (Test-Path \"$persist_dir\\coodesker.reg\") { Write-Host 'Restoring config entries' ; try { reg import \"$persist_dir\\coodesker.reg\" 2>&1 1>$null } catch {} }",
            "if (Test-Path \"$persist_dir\\appdata\\\") { Write-Host 'Restoring app data' ; ensure \"$env:APPDATA\\Coodesker\\\" ; Copy-Item -Recurse -Force \"$persist_dir\\appdata\\*\" \"$env:APPDATA\\Coodesker\\\"  | Out-Null }",
            "Write-Host 'Disabling autoupdate'",
            "try { reg add 'HKEY_CURRENT_USER\\Software\\Coodesker\\config' /v 'autoUpdate' /t 'REG_DWORD' /d '0' /f 2>&1 1>$null } catch {}"
        ]
    },
    "uninstaller": {
        "script": [
            "Write-Host 'Removing autorun entries'",
            "try { reg delete 'HKEY_CURRENT_USER\\Software\\Microsoft\\Windows\\CurrentVersion\\Run' /v 'Coodesker' /f 2>&1 1>$null } catch {}",
            "Write-Host 'Backuping config entries'",
            "try { reg export 'HKEY_CURRENT_USER\\Software\\Coodesker' \"$persist_dir\\coodesker.reg\" /y 2>&1 1>$null } catch {}",
            "try { reg delete 'HKEY_CURRENT_USER\\Software\\Coodesker' /f 2>&1 1>$null } catch {}",
            "Write-Host 'Backuping app data'",
            "if (Test-Path \"$env:APPDATA\\Coodesker\") { Copy-Item -Recurse -Force \"$env:APPDATA\\Coodesker\\*\" \"$persist_dir\\appdata\\\" | Out-Null ; Remove-Item -Recurse -Force \"$env:APPDATA\\Coodesker\" }"
        ]
    },
    "checkver": {
        "github": "https://github.com/coodesker/coodesker-desktop"
    },
    "autoupdate": {
        "architecture": {
            "64bit": {
                "url": "https://github.com/coodesker/coodesker-desktop/releases/download/v$version/Coodesker-x64_$version.exe#/dl.7z"
            },
            "32bit": {
                "url": "https://github.com/coodesker/coodesker-desktop/releases/download/v$version/Coodesker-x86_$version.exe#/dl.7z"
            }
        }
    }
}
