{
  "version": "2.71",
  "homepage": "https://www.nirsoft.net/utils/cports.html",
  "bin": "cports.exe",
  "shortcuts": [
    [
      "cports.exe",
      "NirSoft\\CurrPorts "
    ]
  ],
  "persist": [
    "cports_lng.ini",
    "cports.cfg"
  ],
  "architecture": {
    "64bit": {
      "url": "https://www.nirsoft.net/utils/cports-x64.zip",
      "hash": "abd5a915e00a539bbf5edd8079441af83d95f34ef6e98c598c18423629c823b4"
    },
    "32bit": {
      "url": "https://www.nirsoft.net/utils/cports.zip",
      "hash": "ff468efbbe2a99e114031ec742234989a49bd38a6e41d4d0d357daaddfc59183"
    }
  },
  "description": "Displays the list of all currently opened TCP/UDP ports on your computer.",
  "license": "Freeware",
  "notes": "If this application is useful to you, please consider donating to NirSoft - https://www.nirsoft.net/donate.html",
  "checkver": {
    "url": "https://www.nirsoft.net/pad/cports.xml",
    "xpath": "/XML_DIZ_INFO/Program_Info/Program_Version"
  },
  "autoupdate": {
    "architecture": {
      "64bit": {
        "url": "https://www.nirsoft.net/utils/cports-x64.zip"
      },
      "32bit": {
        "url": "https://www.nirsoft.net/utils/cports.zip"
      }
    }
  }
}