{
  "homepage": "http://www.gtk.org/",
  "version": "0.2.1",
  "license": "Multi.",
  "url": [
    "https://mirrors.tuna.tsinghua.edu.cn/msys2/mingw/x86_64/mingw-w64-x86_64-glib2-2.58.2-1-any.pkg.tar.xz",
    "https://mirrors.tuna.tsinghua.edu.cn/msys2/mingw/x86_64/mingw-w64-x86_64-pcre-8.42-1-any.pkg.tar.xz",
    "https://mirrors.tuna.tsinghua.edu.cn/msys2/mingw/x86_64/mingw-w64-x86_64-libffi-3.2.1-4-any.pkg.tar.xz",
    "https://mirrors.tuna.tsinghua.edu.cn/msys2/mingw/x86_64/mingw-w64-x86_64-libiconv-1.15-3-any.pkg.tar.xz",
    "https://mirrors.tuna.tsinghua.edu.cn/msys2/mingw/x86_64/mingw-w64-x86_64-gettext-0.19.8.1-6-any.pkg.tar.xz",
    "https://mirrors.tuna.tsinghua.edu.cn/msys2/mingw/x86_64/mingw-w64-x86_64-zlib-1.2.11-5-any.pkg.tar.xz",
    "https://mirrors.tuna.tsinghua.edu.cn/msys2/mingw/x86_64/mingw-w64-x86_64-json-glib-1.4.4-1-any.pkg.tar.xz",
    "https://ghproxy.com/https://raw.githubusercontent.com/luozongtong123/bucket-luo/app/mingw-w64-x86_64-libserialport-0.1.1.tar.xz"
  ],
  "hash": [
    "FD8B4DA5424EFF671DBA047F9650B1AEA9933427605463C20BAEED20475EA5C0",
    "884c91261bec60e379b1f8ea29f35285e7e7066483b9ce819c047d0a0aec5ca8",
    "d80826c868e8cb016fe607e8919883e6062162f6813fe8cf138273cf8b136d14",
    "2956E81BABA9AAE0E77202039D89603FA4FE1EE8DCE4C021AECBCEF252D9598E",
    "32E9099A8DC1E8B90C9F1D04EE810F3E48F7A8842318BC02461826ACE61F22C9",
    "8c7088c5c0a1fa1f3ba2935da1c4728daf65c699b0fb688be03926ce9f763201",
    "d3610c06e2a4fd0c24bf7927d3ec22b1efda6cf005c4cb3eae6dd8639a5e8d7b",
    "7fe050957ff039cec096605fb1a1d60be0cb11a84d8bf71b79753a5058f95ec5"
  ],
  "extract_dir": [
    "mingw64",
    "mingw64",
    "mingw64",
    "mingw64",
    "mingw64",
    "mingw64",
    "mingw64",
    "mingw64"
  ],
  "env_add_path": "bin",
  "env_set": {
    "PKG_CONFIG_PATH": "$dir\\lib\\pkgconfig"
  },
  "notes": [
    "C Utility libraries. Include glib2, json-glib, pcre, libffi, libiconv, gettext, zlib, libserialport.",
    "From msys2 tsinghua mirror.",
    "Only 64-bit version is provided."
  ]
}