{
    "version": "8.5.9.39636",
    "description": "Multiple protocols libre file transfer client",
    "homepage": "https://cyberduck.io/",
    "license": "GPL-2.0-or-later",
    "notes": "Additional third party connection profiles can be installed to and found in '%APPDATA%\\Cyberduck\\Profiles'.",
    "url": "https://update.cyberduck.io/windows/Cyberduck-Installer-8.5.9.39636.msi",
    "hash": "9b13112bd248bce483b5255755fa69f2eedcf0d975112ac6de87d98f74ce9c38",
    "extract_dir": "Cyberduck",
    "shortcuts": [
        [
            "Cyberduck.exe",
            "Cyberduck"
        ]
    ],
    "checkver": {
        "url": "https://cyberduck.io/changelog/",
        "regex": "Cyberduck-Installer-([\\d.]+).msi"
    },
    "autoupdate": {
        "url": "https://update.cyberduck.io/windows/Cyberduck-Installer-$version.msi"
    }
}
