{
    "version": "4772605603",
    "description": "Chat client for twitch.tv. See releases for download. Only nightlies are supported (fork of Chatterino 2).",
    "homepage": "https://github.com/Mm2PL/dankerino",
    "license": "MIT",
    "architecture": {
        "64bit": {
            "url": "https://github.com/Mm2PL/dankerino/releases/download/nightly-build/EXPERIMENTAL-chatterino-windows-x86-64-Qt-6.5.0.zip",
            "hash": "8f67f91aecd105fc1ae39e23b3083e55c9b1e9acf86f8e1b6b32500f23fcce93",
            "extract_dir": "Chatterino2",
            "pre_install": [
                "Get-ChildItem \"$dir\\chatterino.exe\" | Rename-Item -NewName { $_.name.Replace('chatterino', 'dankerino-portable') }",
                "$modes = \"$dir\\modes\"",
                "Invoke-Expression \"'portable' >$(if (Test-Path $modes) { '>' }) $modes\""
            ]
        }
    },
    "persist": [
        "Logs",
        "Misc",
        "Settings"
    ],
    "shortcuts": [
        [
            "dankerino-portable.exe",
            "Dankerino-portable"
        ]
    ],
    "bin": "dankerino-portable.exe",
    "checkver": {
        "url": "https://api.github.com/repositories/202738310/actions/workflows/build.yml/runs?branch=dankerino&status=success",
        "jsonpath": "$.workflow_runs[0].id"
    },
    "autoupdate": {
        "architecture": {
            "64bit": {
                "url": "https://github.com/Mm2PL/dankerino/releases/download/nightly-build/EXPERIMENTAL-chatterino-windows-x86-64-Qt-6.5.0.zip"
            }
        }
    }
}
