{
  "version": "4660046630",
  "description": "Chat client for twitch.tv. See releases for download. Only nightlies are supported (fork of Chatterino 2).",
  "homepage": "https://github.com/Mm2PL/dankerino",
  "license": "MIT",
  "architecture": {
    "64bit": {
      "url": "https://ghproxy.com/https://github.com/Mm2PL/dankerino/releases/download/nightly-build/chatterino-windows-x86-64.zip",
      "hash": "b302e90f7610b0be08896fc2cfb0a816ddfd009f5b1eaf8392f7dd3f409cb23d",
      "extract_dir": "Chatterino2",
      "pre_install": "Get-ChildItem \"$dir\\chatterino.exe\" | Rename-Item -NewName { $_.name.Replace('chatt', 'dank') }"
    }
  },
  "shortcuts": [
    [
      "dankerino.exe",
      "Dankerino"
    ]
  ],
  "bin": "dankerino.exe",
  "checkver": {
    "url": "https://api.github.com/repositories/202738310/actions/workflows/build.yml/runs?branch=dankerino&status=success",
    "jsonpath": "$.workflow_runs[0].id"
  },
  "autoupdate": {
    "architecture": {
      "64bit": {
        "url": "https://ghproxy.com/https://github.com/Mm2PL/dankerino/releases/download/nightly-build/chatterino-windows-x86-64.zip"
      }
    }
  },
  "_from": "okibcn/ScoopMaster"
}