{
  "architecture": {
    "32bit": {
      "bin": "IDE\\bin\\datagrip.exe",
      "shortcuts": [
        [
          "IDE\\bin\\datagrip.exe",
          "JetBrains\\DataGrip"
        ]
      ]
    },
    "64bit": {
      "bin": [
        "IDE\\bin\\datagrip64.exe",
        [
          "IDE\\bin\\datagrip64.exe",
          "datagrip"
        ]
      ],
      "shortcuts": [
        [
          "IDE\\bin\\datagrip64.exe",
          "JetBrains\\DataGrip"
        ]
      ]
    }
  },
  "autoupdate": {
    "hash": {
      "url": "$url.sha256"
    },
    "url": "https://download.jetbrains.com/datagrip/datagrip-$matchHead.exe#/cosi.7z"
  },
  "changelog": "https://www.jetbrains.com/datagrip/whatsnew/",
  "checkver": {
    "regex": "version\":\"(?<ver>[\\d.]+)\".*\"build\":\"(?<build>[\\d.]+)\"",
    "replace": "${ver}-${build}",
    "url": "https://data.services.jetbrains.com/products/releases?code=DG&latest=true&platform=zip&type=release"
  },
  "description": "DataGrip. Cross-Platform IDE for Databases & SQL by JetBrains.",
  "extract_to": "IDE",
  "hash": [
    "7441cdcbae1ba7b32ce0fdff72ec8a5f29594167362a2ef3a8559b5853869072",
    "2255673952a7909596b8783f6e913d2301f91f0def0275fcfbc6371b0ca021f8"
  ],
  "homepage": "https://www.jetbrains.com/datagrip/",
  "installer": {
    "script": [
      "& \"$dir\\portable.ps1\" $dir $persist_dir",
      "Remove-Item \"$dir\\IDE\\`$*\", \"$dir\\portable.ps1\" -Force -Recurse"
    ]
  },
  "license": {
    "identifier": "Proprietary",
    "url": "https://www.jetbrains.com/store/license.html"
  },
  "persist": [
    "IDE\\bin\\idea.properties",
    "profile"
  ],
  "url": [
    "https://download.jetbrains.com/datagrip/datagrip-2023.1.1.exe#/cosi.7z",
    "https://ghproxy.com/https://raw.githubusercontent.com/Ash258/Scoop-JetBrains/main/scripts/portable.ps1"
  ],
  "version": "2023.1.1-231.8770.3"
}