{
    "version": "0.8",
    "description": "Cross-platform DHCP test client",
    "homepage": "https://github.com/CyberShadow/dhcptest",
    "license": "BSL-1.0",
    "architecture": {
        "64bit": {
            "url": "http://files.thecybershadow.net/dhcptest/dhcptest-0.8-win64.exe#/dhcptest.exe",
            "hash": "7e05e295f146a594eab329d86d7b9765868419bc88e77339bf847f09d24f43f0"
        },
        "32bit": {
            "url": "http://files.thecybershadow.net/dhcptest/dhcptest-0.8-win32.exe#/dhcptest.exe",
            "hash": "9e16270961d57de0641c7b8ce444e215c7d70652539d8d65471e919448e347d3"
        }
    },
    "bin": "dhcptest.exe",
    "checkver": {
        "url": "http://files.thecybershadow.net/dhcptest/",
        "re": "dhcptest-([\\d.]+)-win32"
    },
    "autoupdate": {
        "architecture": {
            "64bit": {
                "url": "http://files.thecybershadow.net/dhcptest/dhcptest-$version-win64.exe#/dhcptest.exe"
            },
            "32bit": {
                "url": "http://files.thecybershadow.net/dhcptest/dhcptest-$version-win32.exe#/dhcptest.exe"
            }
        }
    },
    "_from": "okibcn/ScoopMaster"
}
