{
  "homepage": "https://github.com/so-fancy/diff-so-fancy/",
  "license": "MIT",
  "version": "1.4.3",
  "url": "https://ghproxy.net/https://github.com/so-fancy/diff-so-fancy/archive/v1.4.3.tar.gz",
  "hash": "2b88a1d1cc3bd63a0120c668125019aa5b65ad5c235c49d81431c5d89a86b137",
  "extract_dir": "diff-so-fancy-1.4.3",
  "pre_install": "Set-Content \"$dir\\diff-so-fancy.bat\" '@perl.exe \"%~dp0diff-so-fancy\" %*' -Encoding ASCII",
  "bin": "diff-so-fancy.bat",
  "checkver": "github",
  "autoupdate": {
    "url": "https://ghproxy.net/https://github.com/so-fancy/diff-so-fancy/archive/v$version.tar.gz",
    "extract_dir": "diff-so-fancy-$version"
  }
}