{
    "architecture": {
        "64bit": {
            "hash": "28d851f4490a106973e01824bdf94d4220cf14095aa2536f62617047f18ae7e2",
            "url": "https://github.com/richshaw2015/dino-rss-electron/releases/download/v1.10.1/Dinosaur.Rss.1.10.1.x64.exe#/dl.7z"
        }
    },
    "autoupdate": {
        "architecture": {
            "64bit": {
                "url": "https://github.com/richshaw2015/dino-rss-electron/releases/download/v$version/Dinosaur.Rss.$version.x64.exe#/dl.7z"
            }
        }
    },
    "checkver": {
        "github": "https://github.com/richshaw2015/dino-rss-electron"
    },
    "description": "A simple, efficient, open source RSS reader service.",
    "homepage": "https://dinorss.org/",
    "installer": {
        "script": [
            "Expand-7zipArchive \"$dir\\`$PLUGINSDIR\\app-64.7z\" \"$dir\"",
            "Remove-Item \"$dir\\`$*\" -Force -Recurse"
        ]
    },
    "license": "MIT",
    "shortcuts": [
        [
            "Dinosaur Rss.exe",
            "Dinosaur RSS"
        ]
    ],
    "version": "1.10.1"
}
