{
    "version": "4.9.0",
    "description": "DMM Game Player Fast Launcher for secure and fast start-up.",
    "homepage": "https://github.com/fa0311/DMMGamePlayerFastLauncher",
    "license": {
        "identifier": "MIT",
        "url": "https://github.com/fa0311/DMMGamePlayerFastLauncher/blob/master/LICENSE"
    },
    "architecture": {
        "64bit": {
            "url": "https://ghproxy.com/https://github.com/fa0311/DMMGamePlayerFastLauncher/releases/download/v4.9.0/DMMGamePlayerFastLauncher.exe",
            "hash": "fed084faf0c8709018775bccfd36f11a3bdfafaafff5357dd157d43e312c2016"
        }
    },
    "checkver": "github",
    "autoupdate": {
        "architecture": {
            "64bit": {
                "url": "https://ghproxy.com/https://github.com/fa0311/DMMGamePlayerFastLauncher/releases/download/v$version/DMMGamePlayerFastLauncher.exe"
            }
        }
    },
    "bin": "DMMGamePlayerFastLauncher.exe",
    "_from": "okibcn/ScoopMaster"
}
