{
    "version": "6.6.6.8",
    "description": "A fully-featured and reliable e-mail client.",
    "homepage": "https://cy-email.com/",
    "license": "Shareware",
    "url": "https://dl.cy-email.com/dm6/Download/dmpro_setup6.6.6.8.exe",
    "hash": "4ac497aae24598af7b9971d2cb0a64bf2e29793e8fd83b07e420d5371613bd7d",
    "innosetup": true,
    "persist": "User",
    "shortcuts": [
        [
            "DreamMail.exe",
            "DreamMail Pro"
        ]
    ],
    "checkver": {
        "regex": "dmpro_setup([\\d.]+).exe"
    },
    "autoupdate": {
        "url": "https://dl.cy-email.com/dm6/Download/dmpro_setup$version.exe"
    }
}
