{
  "homepage": "https://gitee.com/gazeboxu/dnschooser-pub",
  "description": "一个支持多上游 DNS 本地 DNS 工具",
  "version": "0.0.0.9",
  "url": "https://gitee.com/gazeboxu/dnschooser-pub/raw/master/release/dnschooser-latest.zip",
  "extract_dir": "dnschooser",
  "hash": "22e4d574f82715ef853355ceb13a797fdf833a20b763a7b6736fda98ae33613f",
  "shortcuts": [
    [
      "dnschooser-winclient.exe",
      "DNSCHooser 客户端"
    ]
  ],
  "checkver": {
    "url": "https://gitee.com/gazeboxu/dnschooser-pub/raw/master/release/autoupdate.xml",
    "xpath": "/item/version"
  },
  "autoupdate": {
    "url": "https://gitee.com/gazeboxu/dnschooser-pub/raw/master/release/dnschooser-latest.zip"
  },
  "depends": "sudo",
  "installer": {
    "script": [
      "if(!(is_admin)) { error \"Admin rights are required, please run 'sudo scoop install $app'\"; exit 1 }",
      "pushd $dir; sudo $dir\\install.bat; popd"
    ]
  },
  "uninstaller": {
    "script": [
      "if(!(is_admin)) { error \"Admin rights are required, please run 'sudo scoop install $app'\"; exit 1 }",
      "pushd $dir; sudo $dir\\uninstall.bat; popd"
    ]
  },
  "_from": "everyx/scoop-bucket"
}