{
    "architecture": {
        "32bit": {
            "hash": "f4014f9f2a9dd4bfa6096824ce08b9c4ac80064b8a25142ca4b49280995c1b11",
            "url": "https://downloads.sourceforge.net/project/doublecmd/DC%20for%20Windows%2032%20bit/Double%20Commander%201.0.11/doublecmd-1.0.11.i386-win32.zip"
        },
        "64bit": {
            "hash": "83a4656cc2599dc7a540ca55bb92d9f003f3994229a79943f2d326f5102c1754",
            "url": "https://downloads.sourceforge.net/project/doublecmd/DC%20for%20Windows%2064%20bit/Double%20Commander%201.0.11/doublecmd-1.0.11.x86_64-win64.zip"
        }
    },
    "autoupdate": {
        "architecture": {
            "32bit": {
                "hash": {
                    "regex": "<dd>$sha256</dd>",
                    "url": "https://downloads.sourceforge.net/project/doublecmd/DC%20for%20Windows%2032%20bit/Double%20Commander%20$version/doublecmd-$version.i386-win32.zip"
                },
                "url": "https://downloads.sourceforge.net/project/doublecmd/DC%20for%20Windows%2032%20bit/Double%20Commander%20$version/doublecmd-$version.i386-win32.zip"
            },
            "64bit": {
                "hash": {
                    "regex": "<dd>$sha256</dd>",
                    "url": "https://downloads.sourceforge.net/project/doublecmd/DC%20for%20Windows%2064%20bit/Double%20Commander%20$version/doublecmd-$version.x86_64-win64.zip"
                },
                "url": "https://downloads.sourceforge.net/project/doublecmd/DC%20for%20Windows%2064%20bit/Double%20Commander%20$version/doublecmd-$version.x86_64-win64.zip"
            }
        }
    },
    "checkver": {
        "regex": "doublecmd-([\\d\\.]+)\\.i386-win32\\.zip",
        "url": "https://sourceforge.net/p/doublecmd/wiki/Download/"
    },
    "description": "Cross platform open source file manager with two panels side by side inspired by Total Commander.",
    "extract_dir": "doublecmd",
    "homepage": "https://doublecmd.sourceforge.io/",
    "license": "GPL-2.0-only",
    "persist": [
        "theme",
        "doublecmd.xml",
        "extassoc.xml",
        "highlighters.xml",
        "history.xml",
        "default.bar",
        "doublecmd.ext",
        "cmdhistory.txt",
        "dirhistory.txt",
        "ignorelist.txt",
        "maskhistory.txt",
        "replacehistory.txt",
        "searchhistory.txt",
        "multiarc.ini",
        "pwd.ini",
        "session.ini",
        "sevenzip.ini",
        "wcx.ini",
        "zip.ini",
        "shortcuts.scf"
    ],
    "pre_install": [
        "if(!(Test-Path \"$dir/doublecmd.xml\")) { Add-Content \"$dir/doublecmd.xml\" $null }",
        "if(!(Test-Path \"$dir/extassoc.xml\")) { Add-Content \"$dir/extassoc.xml\" $null }",
        "if(!(Test-Path \"$dir/highlighters.xml\")) { Add-Content \"$dir/highlighters.xml\" $null }",
        "if(!(Test-Path \"$dir/history.xml\")) { Add-Content \"$dir/history.xml\" $null }",
        "if(!(Test-Path \"$dir/default.bar\")) { Add-Content \"$dir/default.bar\" $null }",
        "if(!(Test-Path \"$dir/doublecmd.ext\")) { Add-Content \"$dir/doublecmd.ext\" $null }",
        "if(!(Test-Path \"$dir/cmdhistory.txt\")) { Add-Content \"$dir/cmdhistory.txt\" $null }",
        "if(!(Test-Path \"$dir/dirhistory.txt\")) { Add-Content \"$dir/dirhistory.txt\" $null }",
        "if(!(Test-Path \"$dir/ignorelist.txt\")) { Add-Content \"$dir/ignorelist.txt\" $null }",
        "if(!(Test-Path \"$dir/maskhistory.txt\")) { Add-Content \"$dir/maskhistory.txt\" $null }",
        "if(!(Test-Path \"$dir/replacehistory.txt\")) { Add-Content \"$dir/replacehistory.txt\" $null }",
        "if(!(Test-Path \"$dir/searchhistory.txt\")) { Add-Content \"$dir/searchhistory.txt\" $null }",
        "if(!(Test-Path \"$dir/multiarc.ini\")) { Add-Content \"$dir/multiarc.ini\" $null }",
        "if(!(Test-Path \"$dir/pwd.ini\")) { Add-Content \"$dir/pwd.ini\" $null }",
        "if(!(Test-Path \"$dir/session.ini\")) { Add-Content \"$dir/session.ini\" $null }",
        "if(!(Test-Path \"$dir/sevenzip.ini\")) { Add-Content \"$dir/sevenzip.ini\" $null }",
        "if(!(Test-Path \"$dir/wcx.ini\")) { Add-Content \"$dir/wcx.ini\" $null }",
        "if(!(Test-Path \"$dir/zip.ini\")) { Add-Content \"$dir/zip.ini\" $null }",
        "if(!(Test-Path \"$dir/shortcuts.scf\")) { Add-Content \"$dir/shortcuts.scf\" $null }"
    ],
    "shortcuts": [
        [
            "doublecmd.exe",
            "Double Commander",
            "--no-splash"
        ]
    ],
    "version": "1.0.11"
}
