{
    "version": "20230527-10263-237ce7d72",
    "description": "Modern source port for Duke Nukem 3D",
    "homepage": "https://www.eduke32.com/",
    "license": "http://www.eduke32.com/buildlic.txt",
    "notes": [
        "Place GRP and RTS files (game data) in:",
        "",
        "    $persist_dir\\data",
        "",
        "Place mods, music packs, and other files to auto-load in:",
        "",
        "    $persist_dir\\autoload"
    ],
    "architecture": {
        "32bit": {
            "url": "https://dukeworld.com/eduke32/synthesis/20230527-10263-237ce7d72/eduke32_win32_20230527-10263-237ce7d72.7z",
            "hash": "74576cbc76f996df3e3f23fc2f9f459c1f5af94fec9c3f32d098862ac1904f8c"
        },
        "64bit": {
            "url": "https://dukeworld.com/eduke32/synthesis/20230527-10263-237ce7d72/eduke32_win64_20230527-10263-237ce7d72.7z",
            "hash": "9969e0065a292adaee99355081206745cb5ea0be08d4439e83ab9b617c426f41"
        }
    },
    "pre_install": [
        "New-Item -Path $dir -Name eduke32.cfg -ItemType File -ErrorAction Ignore | Out-Null",
        "New-Item -Path $dir -Name settings.cfg -ItemType File -ErrorAction Ignore | Out-Null"
    ],
    "bin": [
        [
            "eduke32.exe",
            "eduke32",
            "-j $persist_dir\\data"
        ]
    ],
    "shortcuts": [
        [
            "eduke32.exe",
            "EDuke32",
            "-j data"
        ]
    ],
    "persist": [
        "autoload",
        "data",
        "eduke32.cfg",
        "settings.cfg"
    ],
    "checkver": {
        "url": "https://dukeworld.com/eduke32/synthesis/",
        "regex": "<strong>(\\d{8}-\\d{4,}-[a-z0-9]{9})</strong>"
    },
    "autoupdate": {
        "architecture": {
            "32bit": {
                "url": "https://dukeworld.com/eduke32/synthesis/$version/eduke32_win32_$version.7z"
            },
            "64bit": {
                "url": "https://dukeworld.com/eduke32/synthesis/$version/eduke32_win64_$version.7z"
            }
        }
    }
}
