{
  "version": "8.7.0",
  "description": "elastic-agent",
  "homepage": "https://www.elastic.co/products/elastic-agent",
  "license": {
    "identifier": "Freeware|Apache-2.0"
  },
  "suggest": {
    "JDK": [
      "java/oraclejdk",
      "java/openjdk"
    ]
  },
  "architecture": {
    "64bit": {
      "url": "https://artifacts.elastic.co/downloads/beats/elastic-agent/elastic-agent-8.7.0-windows-x86_64.zip",
      "hash": "sha512:0defd9caac20152470c805c4a05713d10cdd578d747e4a94c34e980d5667447a2ceb0316d84e77de152fb9177ad1e071867ab9bf5a299eae8974024b81422532",
      "extract_dir": "elastic-agent-8.7.0-windows-x86_64"
    }
  },
  "checkver": {
    "url": "https://www.elastic.co/jp/downloads/elastic-agent",
    "regex": "elastic-agent-([\\d.]+)-windows-x86_64\\.zip"
  },
  "autoupdate": {
    "architecture": {
      "64bit": {
        "url": "https://artifacts.elastic.co/downloads/beats/elastic-agent/elastic-agent-$version-windows-x86_64.zip",
        "extract_dir": "elastic-agent-$version-windows-x86_64"
      }
    },
    "hash": {
      "url": "$url.sha512"
    }
  }
}