{
    "version": "1.9.4",
    "description": "Edit the metadata of EPUB files",
    "homepage": "https://github.com/benchen71/epub-metadata-editor",
    "license": "GPL-3.0-or-later",
    "url": "https://ghproxy.com/https://github.com/benchen71/epub-metadata-editor/releases/download/1.9.4/EPubMetadataEditorInstaller.exe#/dl.7z",
    "hash": "6e852a9a08935e267f552986558312eefa43035163b37e95097010ac3e9c8a64",
    "innosetup": true,
    "bin": "EPubMetadataEditorConsole.exe",
    "shortcuts": [
        [
            "EPubMetadataEditor.exe",
            "EPub Metadata Editor"
        ]
    ],
    "checkver": "github",
    "autoupdate": {
        "url": "https://ghproxy.com/https://github.com/benchen71/epub-metadata-editor/releases/download/$version/EPubMetadataEditorInstaller.exe#/dl.7z"
    },
    "_from": "starise/Scoop-Confetti"
}
