{
  "homepage": "https://wiki.gnome.org/Apps/Evince",
  "version": "2.32.0.145",
  "license": "GPL-2.0-or-later",
  "url": [
    "https://www.fosshub.com/Evince.html/evince-2.32.0.145.msi"
  ],
  "hash": [
    "04fe2776a98fe8bc0c73a685aabab26a29382336ebffb2c8073710d12e97f76c"
  ],
  "extract_dir": "PFiles\\[ApplicationFolderName]",
  "shortcuts": [
    [
      "bin\\evince.exe",
      "Evince"
    ]
  ],
  "_from": "jingyu9575/scoop-jingyu9575"
}