{
    "version": "1.4.10",
    "description": "ExHentai local manga tag-manager and reader",
    "homepage": "https://github.com/SchneeHertz/exhentai-manga-manager",
    "license": "MIT license",
    "url": "https://ghproxy.com/https://github.com/SchneeHertz/exhentai-manga-manager/releases/download/v1.4.10/exhentai-manga-manager.portable.1.4.10.zip",
    "hash": "f991a41fc4bae2e07a737d747be522123285490c5ec1de1ef79319bffc36d4fb",
    "extract_dir": "exhentai-manga-manager portable 1.4.10",
    "bin": "exhentai-manga-manager.exe",
    "pre_install": [
        "Write-Host `$null >> \"$dir\\bookList.json\"",
        "Write-Host `$null >> \"$dir\\bookList.json.br\"",
        "Write-Host `$null >> \"$dir\\setting.json\"",
        "Write-Host `$null >> \"$dir\\log.txt\""
    ],
    "persist": [
        "cover",
        "bookList.json",
        "bookList.json.br",
        "setting.json",
        "log.txt"
    ],
    "checkver": "github",
    "autoupdate": {
        "url": "https://ghproxy.com/https://github.com/SchneeHertz/exhentai-manga-manager/releases/download/v$version/exhentai-manga-manager.portable.$version.zip",
        "extract_dir": "exhentai-manga-manager portable $version"
    },
    "_from": "okibcn/ScoopMaster"
}
