{
    "version": "154",
    "description": "Fan Control. A focused and highly customizable fan controlling software for Windows",
    "homepage": "https://github.com/Rem0o/FanControl.Releases",
    "license": "Unknown",
    "changelog": "https://github.com/Rem0o/FanControl.Releases/releases",
    "url": "https://github.com/Rem0o/FanControl.Releases/raw/V154/FanControl.zip",
    "hash": "e3d8560f5c9268bf96628a76e9458e40ad10436840a394c8379da9180200b160",
    "pre_install": "if(!(Test-Path \"$dir/userConfig.json\")) { Add-Content \"$dir/userConfig.json\" $null }",
    "shortcuts": [
        [
            "FanControl.exe",
            "Fan Control"
        ]
    ],
    "persist": [
        "Plugins",
        "userConfig.json"
    ],
    "checkver": {
        "github": "https://github.com/Rem0o/FanControl.Releases"
    },
    "autoupdate": {
        "url": "https://github.com/Rem0o/FanControl.Releases/raw/V$version/FanControl.zip"
    }
}
