{
  "version": "nightly",
  "description": "Nintendo NES and Famicom emulator",
  "homepage": "http://www.fceux.com",
  "license": {
    "url": "https://github.com/TASEmulators/fceux/blob/master/COPYING",
    "identifier": "GPL-2.0"
  },
  "architecture": {
    "64bit": {
      "url": "https://ghproxy.com/https://github.com/TASEmulators/fceux/releases/download/interim-build/fceux-win64-QtSDL.zip"
    }
  },
  "extract_dir": "bin",
  "pre_install": [
    "if (!(Test-Path \"$persist_dir\\fceux.cfg\")) {",
    "    New-Item \"$dir\\fceux.cfg\" -Type File | Out-Null",
    "}"
  ],
  "bin": [
    [
      "qfceux.exe",
      "qfceux-interim"
    ]
  ],
  "shortcuts": [
    [
      "qfceux.exe",
      "FCEUX Qt-SDL (Interim)"
    ]
  ],
  "persist": [
    "cheats",
    "fcs",
    "movies",
    "sav",
    "snaps",
    "fceux.cfg"
  ],
  "_from": "hermanjustnu/scoop-emulators"
}