{
  "version": "1.3.11+501",
  "description": "An e-hentai/exhentai app make on flutter",
  "homepage": "https://github.com/honjow/FEhViewer",
  "license": "GPL-2.0",
  "architecture": {
    "64bit": {
      "url": "https://ghproxy.com/https://github.com/honjow/FEhViewer/releases/download/v1.3.11+501/FEhViewer_1.3.11+501_windows.zip",
      "hash": "c8fa09fea1f87d36cd909bb6556a49ada20e6d574ffa2fecc04c5529afeedbcb",
      "extract_dir": "FEhViewer"
    }
  },
  "shortcuts": [
    [
      "fehviewer.exe",
      "FEhViewer"
    ]
  ],
  "checkver": {
    "url": "https://github.com/honjow/FEhViewer/releases",
    "re": "releases/tag.*v([\\d.\\+]+)"
  },
  "autoupdate": {
    "architecture": {
      "64bit": {
        "url": "https://ghproxy.com/https://github.com/honjow/FEhViewer/releases/download/v$version/FEhViewer_$version_windows.zip"
      }
    }
  },
  "_from": "batkiz/backit"
}