{
    "version": "6.3.0-nightly.11",
    "description": "All-in-one messaging apps for various services",
    "homepage": "https://github.com/ferdium/ferdium-app",
    "license": "Apache-2.0",
    "url": "https://github.com/ferdium/ferdium-app/releases/download/v6.3.0-nightly.11/Ferdium-win-AutoSetup-6.3.0-nightly.11.exe#/dl.7z",
    "hash": "sha512:e1bd8845e61ebd559325cb7b9fe777eac789dddd3efb26d27e83741c114cb88e295ba6358de9ccf06cf499025b8cd12347ffb3a1a3bf6965cc8dc801f2f8037d",
    "architecture": {
        "64bit": {
            "installer": {
                "script": "Expand-7zipArchive -Path \"$dir\\`$PLUGINSDIR\\app-64.7z\" \"$dir\""
            }
        },
        "32bit": {
            "installer": {
                "script": "Expand-7zipArchive -Path \"$dir\\`$PLUGINSDIR\\app-32.7z\" \"$dir\""
            }
        }
    },
    "post_install": "Remove-Item \"$dir\\`$PLUGINSDIR\", \"$dir\\Uninstall*.exe\" -Recurse -Force",
    "shortcuts": [
        [
            "Ferdium.exe",
            "Ferdium"
        ]
    ],
    "checkver": {
        "url": "https://github.com/ferdium/ferdium-app/releases",
        "regex": "/releases/tag/(?:v|V)?([\\d\\-nightly.]+)"
    },
    "autoupdate": {
        "url": "https://github.com/ferdium/ferdium-app/releases/download/v$version/Ferdium-win-AutoSetup-$version.exe#/dl.7z",
        "hash": {
            "url": "$baseurl/latest.yml",
            "regex": "sha512:\\s+$base64"
        }
    }
}
