{
  "version": "2022-01-01-git-d6b2357edd",
  "description": "ffmpeg-tools",
  "homepage": "https://www.gyan.dev/ffmpeg/builds/",
  "license": {
    "identifier": "Unknown"
  },
  "depends": "7zip",
  "architecture": {
    "64bit": {
      "url": "https://www.gyan.dev/ffmpeg/builds/ffmpeg-tools.zip",
      "hash": "1cd470e40dd66f135df15a01c37152ee79a066a4f958012493c430c61bdd8d52"
    }
  },
  "pre_install": [
    "Move-Item $dir\\ffmpeg-tools-*\\* $dir",
    "Remove-Item -R -Path $dir\\ffmpeg-tools-*"
  ],
  "env_add_path": "bin",
  "checkver": {
    "url": "https://www.gyan.dev/ffmpeg/builds/",
    "regex": "<span id=\"tools-version\">(?<version>[\\d\\w-]+)<\\/span>",
    "replace": "${version}"
  },
  "autoupdate": {
    "architecture": {
      "64bit": {
        "url": "https://www.gyan.dev/ffmpeg/builds/ffmpeg-tools.zip"
      }
    }
  },
  "_from": "HCLonely/my-scoop-bucket"
}