{
  "version": "2.0.0",
  "description": "Fast web fuzzer written in Go",
  "homepage": "https://github.com/ffuf/ffuf",
  "license": "MIT",
  "architecture": {
    "32bit": {
      "url": "https://ghproxy.com/https://github.com/ffuf/ffuf/releases/download/v2.0.0/ffuf_2.0.0_windows_386.zip",
      "hash": "8a3a5e8275aed2f486836ad58098f3e6931039c63968b071933c808591791b3e"
    },
    "64bit": {
      "url": "https://ghproxy.com/https://github.com/ffuf/ffuf/releases/download/v2.0.0/ffuf_2.0.0_windows_amd64.zip",
      "hash": "fbea0412c34be63692585274dbdc3f49b526cf5fe3486d31e4cd4077177ac7bb"
    }
  },
  "bin": "ffuf.exe",
  "checkver": "github",
  "autoupdate": {
    "architecture": {
      "32bit": {
        "url": "https://ghproxy.com/https://github.com/ffuf/ffuf/releases/download/v$version/ffuf_$version_windows_386.zip"
      },
      "64bit": {
        "url": "https://ghproxy.com/https://github.com/ffuf/ffuf/releases/download/v$version/ffuf_$version_windows_amd64.zip"
      }
    }
  },
  "_from": "ViCrack/scoop-bucket"
}