{
  "version": "1.45",
  "description": "A PowerShell download script for Windows ISOs and UEFI Shell",
  "homepage": "https://github.com/pbatard/Fido",
  "license": "GPL-3.0-or-later",
  "url": "https://ghproxy.com/https://github.com/pbatard/Fido/releases/download/v1.45/Fido.ps1.lzma",
  "hash": "8bc15aa608e14a81d3638ebcbc0ef52282b6c50f1779789b15298f115e78f3fd",
  "bin": "Fido.ps1",
  "checkver": "github",
  "autoupdate": {
    "url": "https://ghproxy.com/https://github.com/pbatard/Fido/releases/download/v$version/Fido.ps1.lzma"
  }
}