{
  "version": "102.10.0",
  "description": "Extended Support Release of Firefox: the popular open source web browser. Default profile set.",
  "homepage": "https://www.mozilla.org/en-US/firefox/organizations/",
  "license": "MPL-2.0",
  "architecture": {
    "64bit": {
      "url": "https://archive.mozilla.org/pub/firefox/releases/102.10.0esr/win64/en-US/Firefox%20Setup%20102.10.0esr.exe#/dl.7z",
      "hash": "sha512:930ffe9017352e24e44edebbc15e453bb81c990c3923a26d59f413f6de2cd6a42c1d85c6f1917c7fbb6a69f4a2d5edc7332a3ad854aff6b578d2218c6b282c9b"
    },
    "32bit": {
      "url": "https://archive.mozilla.org/pub/firefox/releases/102.10.0esr/win32/en-US/Firefox%20Setup%20102.10.0esr.exe#/dl.7z",
      "hash": "sha512:0fc42f21a624973d3ca37599037ab6e5af9060d5f149a46150cd21a1876f6ee8de814cbe7730843117f9f7da9a4692f9f0902af7a8f6d9194a24638b623177fa"
    }
  },
  "extract_dir": "core",
  "post_install": [
    "if (-Not (Test-Path \"$persist_dir\\profile\\prefs.js\")) {",
    "  Copy-Item \"$bucketsdir\\$bucket\\scripts\\firefox\\prefs.js\" \"$persist_dir\\profile\\prefs.js\" | Out-Null",
    "}",
    "$Addition = \"$persist_dir\\addition\"",
    "if (Test-Path $Addition) {",
    "  info 'Copying additional items...'",
    "  Copy-Item -Path $Addition\\* -Destination $dir -Force -Recurse -ErrorAction SilentlyContinue",
    "}"
  ],
  "bin": [
    [
      "firefox.exe",
      "firefox-esr"
    ]
  ],
  "shortcuts": [
    [
      "firefox.exe",
      "Firefox ESR",
      "-profile \"$persist_dir\\profile\""
    ],
    [
      "firefox.exe",
      "Firefox ESR Profile Manager",
      "-P"
    ]
  ],
  "persist": [
    "distribution",
    "profile"
  ],
  "checkver": {
    "url": "https://aus5.mozilla.org/update/6/Firefox/78.0/_/WINNT_x86_64-msvc-x64/en-US/esr/_/_/_/_/update.xml",
    "xpath": "/updates/update/@appVersion"
  },
  "autoupdate": {
    "architecture": {
      "64bit": {
        "url": "https://archive.mozilla.org/pub/firefox/releases/$versionesr/win64/en-US/Firefox%20Setup%20$versionesr.exe#/dl.7z",
        "hash": {
          "url": "https://archive.mozilla.org/pub/firefox/releases/$versionesr/SHA512SUMS",
          "regex": "$sha512\\s+win64/en-US/$basename"
        }
      },
      "32bit": {
        "url": "https://archive.mozilla.org/pub/firefox/releases/$versionesr/win32/en-US/Firefox%20Setup%20$versionesr.exe#/dl.7z",
        "hash": {
          "url": "https://archive.mozilla.org/pub/firefox/releases/$versionesr/SHA512SUMS",
          "regex": "$sha512\\s+win32/en-US/$basename"
        }
      }
    }
  },
  "_from": "okibcn/ScoopMaster"
}