{
    "version": "113.0.2",
    "description": "Popular open source web browser. Cross-platform and available in many languages.",
    "homepage": "https://www.mozilla.org/zh-CN/firefox/new/",
    "license": "MPL-2.0",
    "architecture": {
        "64bit": {
            "url": "https://download-installer.cdn.mozilla.net/pub/firefox/releases/113.0.2/win64/zh-CN/Firefox%20Setup%20113.0.2.exe#/firefox.7z",
            "hash": "sha512:399cad4fe23970403606a0686e89cf9f4ec31bbe9e01cf5fe0145f9fc79b9afc883865699bdada927775541cf67e8fc2a1e53915e7b523c551d3f66c4140297d"
        },
        "32bit": {
            "url": "https://download-installer.cdn.mozilla.net/pub/firefox/releases/113.0.2/win32/zh-CN/Firefox%20Setup%20113.0.2.exe#/firefox.7z",
            "hash": "sha512:d339d3bbc8686d6c5dec2165ee58cdfa5df8f7b73991e8f1713ef490e6c953d6f0dc39df0f7f9b207787c0d01d2e93c404be6cdee6b4e6f120f5ee4a8c875a96"
        }
    },
    "extract_dir": "core",
    "bin": [
        [
            "firefox.exe",
            "firefox",
            "-profile \"$dir\\profile\""
        ]
    ],
    "shortcuts": [
        [
            "firefox.exe",
            "Mozilla Firefox",
            "-profile \"$dir\\profile\""
        ]
    ],
    "persist": "profile",
    "checkver": {
        "url": "https://www.mozilla.org/zh-CN/firefox/all/",
        "regex": "data-latest-firefox=\"([\\d.]+)\""
    },
    "autoupdate": {
        "architecture": {
            "64bit": {
                "url": "https://download-installer.cdn.mozilla.net/pub/firefox/releases/$version/win64/zh-CN/Firefox%20Setup%20$version.exe#/firefox.7z",
                "hash": {
                    "url": "https://download-installer.cdn.mozilla.net/pub/firefox/releases/$version/SHA512SUMS",
                    "regex": "$sha512\\s+win64/zh-CN/$basename"
                }
            },
            "32bit": {
                "url": "https://download-installer.cdn.mozilla.net/pub/firefox/releases/$version/win32/zh-CN/Firefox%20Setup%20$version.exe#/firefox.7z",
                "hash": {
                    "url": "https://download-installer.cdn.mozilla.net/pub/firefox/releases/$version/SHA512SUMS",
                    "regex": "$sha512\\s+win32/zh-CN/$basename"
                }
            }
        }
    }
}
