{
    "version": "112.0.2",
    "description": "Mozilla Firefox (Portable): open source web browser. Custom policies.json file. Italian Language Pack.",
    "homepage": "https://www.mozilla.org/it/firefox/",
    "license": "MPL-2.0",
    "architecture": {
        "64bit": {
            "url": [
                "https://archive.mozilla.org/pub/firefox/releases/112.0.2/win64/it/Firefox%20Setup%20112.0.2.exe#/dl.7z",
                "https://ghproxy.com/https://raw.githubusercontent.com/starise/scoop-confetti/master/scripts/firefox-policies.json#/policies.json"
            ],
            "hash": [
                "sha512:03bf83a3b930016de3dbec48be107318013298c26e5662cc03de5bd4d4eeb375f53a09fc43343b1b9bcfbdf8f703fe0b4cc12ada5d41bab909d7c73a024e4c9b",
                "cb75fbc7489904edf08041213b70c67c8dad3f54fdecdadd623fdb0f44cbaef6"
            ]
        },
        "32bit": {
            "url": [
                "https://archive.mozilla.org/pub/firefox/releases/112.0.2/win32/it/Firefox%20Setup%20112.0.2.exe#/dl.7z",
                "https://ghproxy.com/https://raw.githubusercontent.com/starise/scoop-confetti/master/scripts/firefox-policies.json#/policies.json"
            ],
            "hash": [
                "sha512:699ff1099e254e73abf530097ec572dceb6f5ed78a87417a52c70dfed4a7837deb049247723c91fb363f56d9fa9c99648ef4976d8cea27dc4dcf449e1fe80585",
                "cb75fbc7489904edf08041213b70c67c8dad3f54fdecdadd623fdb0f44cbaef6"
            ]
        }
    },
    "extract_dir": "core",
    "pre_install": [
        "if(!(Test-Path \"$persist_dir\\distribution\")) {",
        "  New-Item \"$persist_dir\\distribution\" -Type Directory -Force | Out-Null",
        "  Move-Item \"$dir\\policies.json\" \"$persist_dir\\distribution\\policies.json\"",
        "}"
    ],
    "persist": [
        "distribution",
        "profile"
    ],
    "bin": [
        [
            "firefox.exe",
            "firefox",
            "-profile \"$dir\\profile\""
        ]
    ],
    "shortcuts": [
        [
            "firefox.exe",
            "Mozilla Firefox",
            "-profile \"$dir\\profile\""
        ]
    ],
    "checkver": {
        "url": "https://product-details.mozilla.org/1.0/firefox_versions.json",
        "jsonpath": "$.LATEST_FIREFOX_VERSION"
    },
    "autoupdate": {
        "architecture": {
            "64bit": {
                "url": "https://archive.mozilla.org/pub/firefox/releases/$version/win64/it/Firefox%20Setup%20$version.exe#/dl.7z",
                "hash": {
                    "url": "https://archive.mozilla.org/pub/firefox/releases/$version/SHA512SUMS",
                    "regex": "$sha512\\s+win64/it/$basename"
                }
            },
            "32bit": {
                "url": "https://archive.mozilla.org/pub/firefox/releases/$version/win32/it/Firefox%20Setup%20$version.exe#/dl.7z",
                "hash": {
                    "url": "https://archive.mozilla.org/pub/firefox/releases/$version/SHA512SUMS",
                    "regex": "$sha512\\s+win32/it/$basename"
                }
            }
        }
    }
}
