{
    "version": "112.0.2",
    "description": "Firefox. Popular open source web browser.",
    "homepage": "https://www.mozilla.org/firefox/",
    "license": "MPL-2.0",
    "changelog": "https://www.mozilla.org/en-US/firefox/112.0.2/releasenotes/",
    "architecture": {
        "64bit": {
            "url": "https://archive.mozilla.org/pub/firefox/releases/112.0.2/win64/en-US/Firefox%20Setup%20112.0.2.exe#/setup.exe",
            "hash": "sha512:ee284821bf186099c3d60abb6214725c2567b4ca6ae55b4660af13db90d58e427636e7b6ff4532de11bc0c3fdb4e8d755685f6d4543a9da538b7432d2bc2885f"
        },
        "32bit": {
            "url": "https://archive.mozilla.org/pub/firefox/releases/112.0.2/win32/en-US/Firefox%20Setup%20112.0.2.exe#/setup.exe",
            "hash": "sha512:e16ed3b15ea6ec3de59ff8a4fb57cc2f791d3b7217fc62e3c1c9930240576dd2b3513890833c0830405a2a9d48091da039e018cf799495161c0f6d7a28d6c621"
        }
    },
    "pre_download": "Assert-Administrator",
    "installer": {
        "script": [
            "$programname = \"Mozilla Firefox*\"",
            "$ProgramFiles = [Environment]::GetFolderPath(\"ProgramFiles\")",
            "$filepath = \"$ProgramFiles\\Mozilla Firefox\\firefox.exe\"",
            "if(((Test-Path -Path $filepath -PathType Leaf) -eq $false) -or ((Get-Command $filepath).Version -lt [System.Version]\"$version\"))",
            "{",
            "   &\"$dir\\setup.exe\" -ms | Out-Null",
            "   if(((Test-Path -Path $filepath -PathType Leaf) -eq $false) -or ((Get-Command $filepath).Version -lt [System.Version]\"$version\"))",
            "   {",
            "       exit 1",
            "   }",
            "}",
            "Remove-Item \"$dir\\setup.exe\" -Force"
        ]
    },
    "post_install": [
        "$CommonDesktopPath = [Environment]::GetFolderPath(\"CommonDesktopDirectory\")",
        "if (Test-Path \"$CommonDesktopPath\\Firefox.lnk\") {Remove-Item \"$CommonDesktopPath\\Firefox.lnk\" -Force}"
    ],
    "checkver": {
        "url": "https://www.mozilla.org/en-US/firefox/notes/",
        "regex": "<div class=\"c-release-version\">([\\d.]+)</div>"
    },
    "autoupdate": {
        "architecture": {
            "64bit": {
                "url": "https://archive.mozilla.org/pub/firefox/releases/$version/win64/en-US/Firefox%20Setup%20$version.exe#/setup.exe",
                "hash": {
                    "url": "https://archive.mozilla.org/pub/firefox/releases/$version/SHA512SUMS",
                    "regex": "$sha512\\s+win64/en-US/$basename"
                }
            },
            "32bit": {
                "url": "https://archive.mozilla.org/pub/firefox/releases/$version/win32/en-US/Firefox%20Setup%20$version.exe#/setup.exe",
                "hash": {
                    "url": "https://archive.mozilla.org/pub/firefox/releases/$version/SHA512SUMS",
                    "regex": "$sha512\\s+win32/en-US/$basename"
                }
            }
        },
        "changelog": "https://www.mozilla.org/en-US/firefox/$version/releasenotes/"
    }
}
