{
    "homepage": "https://flutter.cn/",
    "version": "3.10.0-1.4.pre",
    "license": "BSD-3-Clause",
    "url": "https://storage.flutter-io.cn/flutter_infra_release/releases/beta/windows/flutter_windows_3.10.0-1.4.pre-beta.zip",
    "extract_dir": "flutter",
    "hash": "31627616bed50083f6512ff72e65fc1887824554664bc7f25f3de023589d6137",
    "description": "Flutter makes it easy and fast to build beautiful mobile apps.",
    "env_add_path": "bin",
    "env_set": {
        "FLUTTER_GIT_URL": "https://gitee.com/mirrors/Flutter.git",
        "PUB_HOSTED_URL": "https://pub.flutter-io.cn",
        "FLUTTER_STORAGE_BASE_URL": "https://storage.flutter-io.cn"
    },
    "bin": "bin\\flutter.bat",
    "post_install": [
        "git -C $dir\\packages\\flutter remote set-url origin https://gitee.com/mirrors/Flutter.git",
        "flutter doctor"
    ],
    "checkver": {
        "url": "https://storage.googleapis.com/flutter_infra_release/releases/releases_windows.json",
        "re": "flutter_windows_(.*)-beta"
    },
    "autoupdate": {
        "url": "https://storage.flutter-io.cn/flutter_infra_release/releases/beta/windows/flutter_windows_$version-beta.zip",
        "hash": {
            "url": "https://storage.googleapis.com/flutter_infra_release/releases/releases_windows.json",
            "jp": "$.releases[?(@.hash == $.current_release.stable)].sha256"
        }
    },
    "notes": [
        "Flutter has been successfully installed and put in your PATH.",
        "If using Visual Studio Code, don't forget to install the Flutter Extension!",
        "Then connect an Android Phone and start coding :-)"
    ],
    "_from": "okibcn/ScoopMaster"
}
