{
  "version": "1.6.14-7.0",
  "description": "A DUI-based foobar2000 interface configuration, suitable for large interfaces, adaptable to high-split screens, good at managing media libraries with a large number of tracks, and provides rich support for a variety of music covers. Beautiful, efficient and practical is the goal of foobox.",
  "homepage": "https://www.cnblogs.com/asionwu/p/16967743.html",
  "license": "Shareware",
  "url": "https://onedrive-vercel-index-liard.vercel.app/api/raw/?path=/910%20win/FB_1.6.14_Plus_Asion_20221210221125.7z#/dl.7z_",
  "hash": "43c42a7a5289738b26b9e9bec38d499e585fa3e7385fab7bfbcfa84de6cca4a5",
  "pre_install": "Expand-7zipArchive -Path \"$dir\\dl.7z_\" -DestinationPath \"$dir\" -ExtractDir 'foobar2000' -Removal -Switches '-pmuggle'",
  "persist": "profile",
  "shortcuts": [
    [
      "foobar2000.exe",
      "Foobar2000 CN"
    ]
  ],
  "_from": "hu3rror/scoop-muggle"
}