{
  "version": "1.0.19",
  "architecture": {
    "64bit": {
      "url": "https://ghproxy.com/https://github.com/shotah/forgecli/releases/download/v1.0.19/forgecli_1.0.19_windows_amd64.zip",
      "bin": [
        "forgecli.exe"
      ],
      "hash": "a015aa4dbc64e0721c7f6cab7241199f283dbd4c7ac4bdee2743ef2c800dc91f"
    }
  },
  "license": "MIT",
  "description": "Software to easily install minecraft mod clients and mods"
}