{
  "version": "1.0.6.2",
  "description": "Editor for building mods for games running on DICE's Frostbite engine",
  "homepage": "https://frostytoolsuite.com",
  "license": {
    "identifier": "CC-BY-NC-ND-4.0",
    "url": "https://github.com/CadeEvs/FrostyToolsuite#license"
  },
  "url": "https://ghproxy.com/https://github.com/CadeEvs/FrostyToolsuite/releases/download/v1.0.6.2/FrostyEditor.zip",
  "hash": "99121d33be2e2304d0ec9ee5c246fa0406e87dd61a0b7498a98fd40d6ba3cc1e",
  "shortcuts": [
    [
      "FrostyEditor.exe",
      "Frosty Editor"
    ]
  ],
  "post_uninstall": "If ($cmd -eq 'uninstall') { Remove-Item \"${env:LOCALAPPDATA}\\Frosty\\editor_config.json\" -Force }",
  "checkver": {
    "url": "https://frostytoolsuite.com/downloads.html",
    "regex": "<span class=\"h1\">v(?<Version>[\\d.]{7})</span>"
  },
  "autoupdate": {
    "url": "https://ghproxy.com/https://github.com/CadeEvs/FrostyToolsuite/releases/download/v$matchVersion/FrostyEditor.zip"
  },
  "_from": "okibcn/ScoopMaster"
}