{
    "version": "0.41.0",
    "description": "A general-purpose command-line fuzzy finder",
    "homepage": "https://github.com/junegunn/fzf",
    "license": "MIT",
    "architecture": {
        "64bit": {
            "url": "https://github.com/junegunn/fzf/releases/download/0.41.0/fzf-0.41.0-windows_amd64.zip",
            "hash": "807c145fe885d302e514de025c7cdbf73a9419b27e6d8e4ee458c0211e65c00a"
        }
    },
    "bin": "fzf.exe",
    "checkver": "github",
    "autoupdate": {
        "architecture": {
            "64bit": {
                "url": "https://github.com/junegunn/fzf/releases/download/$version/fzf-$version-windows_amd64.zip"
            }
        }
    }
}
