{
    "version": "0.55",
    "description": "Lightweight Armoury Crate alternative for Asus laptops. Control tool for ROG Zephyrus G14, G15, Flow X13, Flow X16, TUF, Strix, Scar and other models",
    "homepage": "https://github.com/seerge/g-helper",
    "license": {
        "identifier": "MIT",
        "url": "https://github.com/seerge/g-helper/blob/main/LICENSE"
    },
    "architecture": {
        "64bit": {
            "url": "https://ghproxy.com/https://github.com/seerge/g-helper/releases/download/v0.55/GHelper.zip",
            "hash": "50900d958d807a1c1d0ff555bd2a72684b76bdac2f21924ac473461d7763f038"
        }
    },
    "bin": "GHelper.exe",
    "shortcuts": [
        [
            "GHelper.exe",
            "GHelper"
        ]
    ],
    "checkver": "github",
    "autoupdate": {
        "architecture": {
            "64bit": {
                "url": "https://ghproxy.com/https://github.com/seerge/g-helper/releases/download/v$version/GHelper.zip"
            }
        }
    }
}
