{
    "version": "1.7.3",
    "homepage": "https://gajim.org/",
    "description": "A fully-featured open source XMPP client.",
    "license": "GPL-3.0",
    "architecture": {
        "64bit": {
            "url": "https://gajim.org/downloads/1.7/Gajim-Portable-1.7.3-64bit.exe#/dl.7z",
            "hash": "02ce9583513a44e232c277fdc32435c506dbc275d2fc6588ec068ae183fc7271"
        }
    },
    "shortcuts": [
        [
            "bin\\Gajim.exe",
            "Gajim"
        ]
    ],
    "post_install": [
        "Remove-Item \"$dir\\`$PLUGINSDIR\" -Recurse",
        "Write-Host 'Registering the XMPP Protocol...'",
        "New-Item 'HKCU:\\SOFTWARE\\Classes\\xmpp\\shell\\open\\command' -Value \"\"\"$dir\\bin\\Gajim.exe\"\" \"\"%1\"\"\" -Force | Out-Null",
        "New-Item 'HKCU:\\SOFTWARE\\Classes\\xmpp\\DefaultIcon' -Value \"$dir\\bin\\Gajim.exe,1\" -Force | Out-Null",
        "New-ItemProperty 'HKCU:\\SOFTWARE\\Classes\\xmpp\\shell\\open' -Name 'FriendlyAppName' -PropertyType 'String' -Value 'Gajim' | Out-Null",
        "New-ItemProperty 'HKCU:\\SOFTWARE\\Classes\\xmpp' -Name '(Default)' -PropertyType 'String' -Value 'URL:xmpp-uri' | Out-Null",
        "New-ItemProperty 'HKCU:\\SOFTWARE\\Classes\\xmpp' -Name 'URL Protocol' -PropertyType 'String' -Value '' | Out-Null",
        "Write-Host 'Done!'"
    ],
    "pre_uninstall": "Write-Host 'Unregistering the XMPP Protocol...'; Remove-Item 'HKCU:\\SOFTWARE\\Classes\\xmpp' -Force -Recurse; Write-Host 'Done!'",
    "checkver": "Gajim\\s([\\d.]+)",
    "autoupdate": {
        "architecture": {
            "64bit": {
                "url": "https://gajim.org/downloads/$majorVersion.$minorVersion/Gajim-Portable-$version-64bit.exe#/dl.7z"
            }
        }
    }
}
