{
  "version": "1.25.2",
  "homepage": "https://github.com/mikf/gallery-dl",
  "description": "Command-line utility for downloading image galleries and collections from several image hosting sites.",
  "license": "GPL-2.0-only",
  "depends": "python-bucket-utils",
  "suggest": {
    "youtube-dl": [
      "youtube-dl-py",
      "youtube-dl"
    ],
    "ffmpeg-nightly": [
      "ffmpeg",
      "ffmpeg-nightly",
      "ffmpeg-shared"
    ]
  },
  "url": "https://ghproxy.com/https://github.com/mikf/gallery-dl/releases/download/v1.25.2/gallery_dl-1.25.2.tar.gz",
  "hash": "4fd3f3be339d70b68eee24f1059c6e71076200f569935fbdc037dca5284805d3",
  "extract_dir": "gallery_dl-1.25.2",
  "installer": {
    "script": [
      "if ($global) { install-python-package --global --quiet --dir $dir }",
      "else { install-python-package --quiet --dir $dir }",
      "if ($LASTEXITCODE) { exit 1 }"
    ]
  },
  "uninstaller": {
    "script": [
      "if ($global) { uninstall-python-package gallery_dl --global --dir $dir --match '.*gallery-dl.*' }",
      "else { uninstall-python-package gallery_dl --dir $dir --match '.*gallery-dl.*' }"
    ]
  },
  "checkver": "github",
  "autoupdate": {
    "url": "https://ghproxy.com/https://github.com/mikf/gallery-dl/releases/download/v$version/gallery_dl-$version.tar.gz",
    "extract_dir": "gallery_dl-$version"
  }
}