{
  "version": "9.00",
  "description": "《搞机工具箱》是一款利用ADB (安卓调试桥）来控制手机的玩机工具。",
  "homepage": "https://jamcz.com/gjgjx/",
  "license": "Unknown",
  "url": "https://od.233366.xyz/api/raw/?path=/Download/software/GaoJiToolsV9.00.zip",
  "hash": "9558424dcaec2925545a0dc6b877a8feb23a54dc85578d14b5fbf56ee2691a7a",
  "extract_dir": "搞机工具箱V9.00",
  "shortcuts": [
    [
      "搞机工具箱V9.00.exe",
      "搞机工具箱"
    ]
  ],
  "persist": [
    "ApkExt",
    "Screenshots",
    "Script"
  ],
  "_from": "ygguorun/scoop-bucket"
}