{
    "version": "0.5.3",
    "description": "Godot reverse engineering tools.",
    "homepage": "https://github.com/bruvzg/gdsdecomp",
    "license": "MIT",
    "url": "https://ghproxy.com/https://github.com/bruvzg/gdsdecomp/releases/download/v0.5.3/GDRE_tools-v0.5.3-windows.zip",
    "hash": "c80806c4ed2096487be1d836c7e88f80911760f0015a5cd28bd97e0e032cb588",
    "shortcuts": [
        [
            "gdre_tools.exe",
            "GDRE Tools"
        ]
    ],
    "checkver": "github",
    "autoupdate": {
        "url": "https://ghproxy.com/https://github.com/bruvzg/gdsdecomp/releases/download/v$version/GDRE_tools-v$version-windows.zip"
    },
    "_from": "okibcn/ScoopMaster"
}
