{
    "version": "1.2.42",
    "description": " A command line program to download hentai videos and images from multiple websites.",
    "homepage": "https://github.com/gan-of-culture/get-sauce",
    "license": "MIT",
    "architecture": {
        "64bit": {
            "url": "https://github.com/gan-of-culture/get-sauce/releases/download/v1.2.42/get-sauce_1.2.42_Windows_64-bit.zip",
            "hash": "9c3ad00418d11c9a03b04f976020a84011ee78d29c9d52585daec36950ab0649"
        },
        "32bit": {
            "url": "https://github.com/gan-of-culture/get-sauce/releases/download/v1.2.42/get-sauce_1.2.42_Windows_32-bit.zip",
            "hash": "cc66c68515bb5345f9c455e81088d19fde6d6e026814688895139e3d7243c073"
        },
        "arm64": {
            "url": "https://github.com/gan-of-culture/get-sauce/releases/download/v1.2.42/get-sauce_1.2.42_Windows_arm64.zip",
            "hash": "812991cea7a1bd2d4d6d0c4ac1c9f8b194c5c4d400a440ba7d3d9b504f4fa12e"
        }
    },
    "bin": "get-sauce.exe",
    "checkver": "github",
    "autoupdate": {
        "architecture": {
            "64bit": {
                "url": "https://github.com/gan-of-culture/get-sauce/releases/download/v$version/get-sauce_$version_Windows_64-bit.zip"
            },
            "32bit": {
                "url": "https://github.com/gan-of-culture/get-sauce/releases/download/v$version/get-sauce_$version_Windows_32-bit.zip"
            },
            "arm64": {
                "url": "https://github.com/gan-of-culture/get-sauce/releases/download/v$version/get-sauce_$version_Windows_arm64.zip"
            }
        }
    }
}
