{
    "homepage": "https://www.haskell.org/ghc/",
    "version": "9.4.5",
    "description": "Compiler and interactive environment for the functional language Haskell.",
    "license": "BSD-3-Clause",
    "architecture": {
        "64bit": {
            "url": "https://downloads.haskell.org/~ghc/9.4.5/ghc-9.4.5-x86_64-unknown-mingw32.tar.xz",
            "hash": "1b65ccb99b5e0bc6ad535b58323b023c61a675e0c3a0d53b82f819e55a7dd8d7"
        }
    },
    "extract_dir": "ghc-9.4.5",
    "bin": [
        "bin\\ghc.exe",
        "bin\\ghci.exe",
        "bin\\ghc-pkg.exe",
        "bin\\haddock.exe",
        "bin\\hp2ps.exe",
        "bin\\hpc.exe",
        "bin\\hsc2hs.exe",
        "bin\\runghc.exe",
        "bin\\runhaskell.exe"
    ],
    "checkver": {
        "url": "https://www.haskell.org/ghc/",
        "re": "GHC ([\\d.]+) Released!"
    },
    "autoupdate": {
        "architecture": {
            "64bit": {
                "url": "https://downloads.haskell.org/~ghc/$version/ghc-$version-x86_64-unknown-mingw32.tar.xz"
            }
        },
        "hash": {
            "url": "https://downloads.haskell.org/~ghc/$version/SHA256SUMS",
            "find": "([a-fA-F0-9]{64}) ./$basename"
        },
        "extract_dir": "ghc-$version"
    },
    "_from": "iquiw/scoop-bucket"
}
