{
    "homepage": "https://ghidra-sre.org/",
    "description": "GhidraMod - NyaMisty",
    "version": "10.3-20230427-88ea16ac1",
    "license": "Apache-2.0",
    "hash": "3cf106de0225ae2314654f60018d0a93cf08fdf2db5ce820f4ba309d4a05cbb4",
    "url": "https://ghproxy.com/https://github.com/NyaMisty/ghidra_mod-ci/releases/download/2023-04-27-NyaMisty_ghidra_mod-88ea16ac1/ghidra_10.3_DEV_20230427.zip",
    "extract_dir": "ghidra_10.3_DEV",
    "bin": [
        [
            "ghidraRun.bat",
            "ghidramod"
        ]
    ],
    "shortcuts": [
        [
            "ghidraRun.bat",
            "Ghidra Mod",
            "",
            "support/ghidra.ico"
        ]
    ],
    "suggest": {
        "JDK": [
            "java/oraclejdk",
            "java/openjdk"
        ]
    },
    "persist": "Ghidra\\Extensions",
    "checkver": {
        "url": "https://api.github.com/repos/NyaMisty/ghidra_mod-ci/releases?per_page=1",
        "github_": "https://github.com/NyaMisty/ghidra_mod-ci",
        "regex": "/download/(?<release>[0-9\\-]+?)-NyaMisty_ghidra_mod-(?<commit>[0-9a-f]+?)/ghidra_(?<ver>[\\d.]+)_DEV_(?<date>\\d+)\\.zip",
        "replace": "${ver}-${date}-${commit}"
    },
    "autoupdate": {
        "url": "https://ghproxy.com/https://github.com/NyaMisty/ghidra_mod-ci/releases/download/$matchRelease-NyaMisty_ghidra_mod-$matchCommit/ghidra_$matchVer_DEV_$matchDate.zip",
        "extract_dir": "ghidra_$matchVer_DEV"
    },
    "_from": "okibcn/ScoopMaster"
}
