{
    "version": "2.40.1.windows.1",
    "description": "Distributed version control system. (All .exes shimmed)",
    "homepage": "https://gitforwindows.org",
    "license": "GPL-2.0-only",
    "architecture": {
        "64bit": {
            "url": "https://github.com/git-for-windows/git/releases/download/v2.40.1.windows.1/PortableGit-2.40.1-64-bit.7z.exe#/dl.7z",
            "hash": "9e1d819aef3284420adf6d923b0d4865254bd403641d915975e49ddea1e7cdf9"
        },
        "32bit": {
            "url": "https://github.com/git-for-windows/git/releases/download/v2.40.1.windows.1/PortableGit-2.40.1-32-bit.7z.exe#/dl.7z",
            "hash": "e1360e94cb292862fb023018578a1029022a09278b160f7264c6dc444f65c9ca"
        }
    },
    "bin": [
        "git-bash.exe",
        "cmd\\git.exe",
        "cmd\\gitk.exe",
        "cmd\\git-gui.exe",
        "usr\\bin\\arch.exe",
        "usr\\bin\\awk.exe",
        "usr\\bin\\b2sum.exe",
        "usr\\bin\\base32.exe",
        "usr\\bin\\base64.exe",
        "usr\\bin\\basename.exe",
        "usr\\bin\\basenc.exe",
        "usr\\bin\\bash.exe",
        "usr\\bin\\bunzip2.exe",
        "usr\\bin\\bzcat.exe",
        "usr\\bin\\bzip2.exe",
        "usr\\bin\\bzip2recover.exe",
        "usr\\bin\\captoinfo.exe",
        "usr\\bin\\cat.exe",
        "usr\\bin\\chattr.exe",
        "usr\\bin\\chcon.exe",
        "usr\\bin\\chgrp.exe",
        "usr\\bin\\chmod.exe",
        "usr\\bin\\chown.exe",
        "usr\\bin\\chroot.exe",
        "usr\\bin\\cksum.exe",
        "usr\\bin\\clear.exe",
        "usr\\bin\\cmp.exe",
        "usr\\bin\\column.exe",
        "usr\\bin\\comm.exe",
        "usr\\bin\\cp.exe",
        "usr\\bin\\csplit.exe",
        "usr\\bin\\cut.exe",
        "usr\\bin\\cygcheck.exe",
        "usr\\bin\\cygpath.exe",
        "usr\\bin\\cygwin-console-helper.exe",
        "usr\\bin\\d2u.exe",
        "usr\\bin\\dash.exe",
        "usr\\bin\\date.exe",
        "usr\\bin\\dd.exe",
        "usr\\bin\\df.exe",
        "usr\\bin\\diff.exe",
        "usr\\bin\\diff3.exe",
        "usr\\bin\\dir.exe",
        "usr\\bin\\dircolors.exe",
        "usr\\bin\\dirmngr-client.exe",
        "usr\\bin\\dirmngr.exe",
        "usr\\bin\\dirname.exe",
        "usr\\bin\\dos2unix.exe",
        "usr\\bin\\du.exe",
        "usr\\bin\\dumpsexp.exe",
        "usr\\bin\\echo.exe",
        "usr\\bin\\env.exe",
        "usr\\bin\\envsubst.exe",
        "usr\\bin\\ex.exe",
        "usr\\bin\\expand.exe",
        "usr\\bin\\expr.exe",
        "usr\\bin\\factor.exe",
        "usr\\bin\\false.exe",
        "usr\\bin\\fido2-assert.exe",
        "usr\\bin\\fido2-cred.exe",
        "usr\\bin\\fido2-token.exe",
        "usr\\bin\\file.exe",
        "usr\\bin\\find.exe",
        "usr\\bin\\fmt.exe",
        "usr\\bin\\fold.exe",
        "usr\\bin\\funzip.exe",
        "usr\\bin\\gawk-5.0.0.exe",
        "usr\\bin\\gawk.exe",
        "usr\\bin\\gencat.exe",
        "usr\\bin\\getconf.exe",
        "usr\\bin\\getfacl.exe",
        "usr\\bin\\getopt.exe",
        "usr\\bin\\gettext.exe",
        "usr\\bin\\gkill.exe",
        "usr\\bin\\gmondump.exe",
        "usr\\bin\\gpg-agent.exe",
        "usr\\bin\\gpg-connect-agent.exe",
        "usr\\bin\\gpg-error.exe",
        "usr\\bin\\gpg-wks-server.exe",
        "usr\\bin\\gpg.exe",
        "usr\\bin\\gpgconf.exe",
        "usr\\bin\\gpgparsemail.exe",
        "usr\\bin\\gpgscm.exe",
        "usr\\bin\\gpgsm.exe",
        "usr\\bin\\gpgsplit.exe",
        "usr\\bin\\gpgtar.exe",
        "usr\\bin\\gpgv.exe",
        "usr\\bin\\grep.exe",
        "usr\\bin\\groups.exe",
        "usr\\bin\\gzip.exe",
        "usr\\bin\\head.exe",
        "usr\\bin\\hmac256.exe",
        "usr\\bin\\hostid.exe",
        "usr\\bin\\hostname.exe",
        "usr\\bin\\iconv.exe",
        "usr\\bin\\id.exe",
        "usr\\bin\\infocmp.exe",
        "usr\\bin\\infotocap.exe",
        "usr\\bin\\install.exe",
        "usr\\bin\\join.exe",
        "usr\\bin\\kbxutil.exe",
        "usr\\bin\\kill.exe",
        "usr\\bin\\ldd.exe",
        "usr\\bin\\ldh.exe",
        "usr\\bin\\less.exe",
        "usr\\bin\\lessecho.exe",
        "usr\\bin\\lesskey.exe",
        "usr\\bin\\link.exe",
        "usr\\bin\\ln.exe",
        "usr\\bin\\locale.exe",
        "usr\\bin\\locate.exe",
        "usr\\bin\\logname.exe",
        "usr\\bin\\ls.exe",
        "usr\\bin\\lsattr.exe",
        "usr\\bin\\mac2unix.exe",
        "usr\\bin\\md5sum.exe",
        "usr\\bin\\minidumper.exe",
        "usr\\bin\\mintty.exe",
        "usr\\bin\\mkdir.exe",
        "usr\\bin\\mkfifo.exe",
        "usr\\bin\\mkgroup.exe",
        "usr\\bin\\mknod.exe",
        "usr\\bin\\mkpasswd.exe",
        "usr\\bin\\mktemp.exe",
        "usr\\bin\\mount.exe",
        "usr\\bin\\mpicalc.exe",
        "usr\\bin\\msgattrib.exe",
        "usr\\bin\\msgcat.exe",
        "usr\\bin\\msgcmp.exe",
        "usr\\bin\\msgcomm.exe",
        "usr\\bin\\msgconv.exe",
        "usr\\bin\\msgen.exe",
        "usr\\bin\\msgexec.exe",
        "usr\\bin\\msgfilter.exe",
        "usr\\bin\\msgfmt.exe",
        "usr\\bin\\msggrep.exe",
        "usr\\bin\\msginit.exe",
        "usr\\bin\\msgmerge.exe",
        "usr\\bin\\msgunfmt.exe",
        "usr\\bin\\msguniq.exe",
        "usr\\bin\\mv.exe",
        "usr\\bin\\nano.exe",
        "usr\\bin\\nettle-hash.exe",
        "usr\\bin\\nettle-lfib-stream.exe",
        "usr\\bin\\nettle-pbkdf2.exe",
        "usr\\bin\\ngettext.exe",
        "usr\\bin\\nice.exe",
        "usr\\bin\\nl.exe",
        "usr\\bin\\nohup.exe",
        "usr\\bin\\nproc.exe",
        "usr\\bin\\numfmt.exe",
        "usr\\bin\\od.exe",
        "usr\\bin\\openssl.exe",
        "usr\\bin\\p11-kit.exe",
        "usr\\bin\\passwd.exe",
        "usr\\bin\\paste.exe",
        "usr\\bin\\patch.exe",
        "usr\\bin\\pathchk.exe",
        "usr\\bin\\perl.exe",
        "usr\\bin\\pinentry-w32.exe",
        "usr\\bin\\pinentry.exe",
        "usr\\bin\\pinky.exe",
        "usr\\bin\\pkcs1-conv.exe",
        "usr\\bin\\pldd.exe",
        "usr\\bin\\pluginviewer.exe",
        "usr\\bin\\pr.exe",
        "usr\\bin\\printenv.exe",
        "usr\\bin\\printf.exe",
        "usr\\bin\\profiler.exe",
        "usr\\bin\\ps.exe",
        "usr\\bin\\psl.exe",
        "usr\\bin\\ptx.exe",
        "usr\\bin\\pwd.exe",
        "usr\\bin\\readlink.exe",
        "usr\\bin\\realpath.exe",
        "usr\\bin\\rebase.exe",
        "usr\\bin\\recode-sr-latin.exe",
        "usr\\bin\\regtool.exe",
        "usr\\bin\\reset.exe",
        "usr\\bin\\rm.exe",
        "usr\\bin\\rmdir.exe",
        "usr\\bin\\rnano.exe",
        "usr\\bin\\runcon.exe",
        "usr\\bin\\rview.exe",
        "usr\\bin\\rvim.exe",
        "usr\\bin\\scp.exe",
        "usr\\bin\\sdiff.exe",
        "usr\\bin\\sed.exe",
        "usr\\bin\\seq.exe",
        "usr\\bin\\setfacl.exe",
        "usr\\bin\\setmetamode.exe",
        "usr\\bin\\sexp-conv.exe",
        "usr\\bin\\sftp.exe",
        "usr\\bin\\sh.exe",
        "usr\\bin\\sha1sum.exe",
        "usr\\bin\\sha224sum.exe",
        "usr\\bin\\sha256sum.exe",
        "usr\\bin\\sha384sum.exe",
        "usr\\bin\\sha512sum.exe",
        "usr\\bin\\shred.exe",
        "usr\\bin\\shuf.exe",
        "usr\\bin\\sleep.exe",
        "usr\\bin\\sort.exe",
        "usr\\bin\\split.exe",
        "usr\\bin\\ssh-add.exe",
        "usr\\bin\\ssh-agent.exe",
        "usr\\bin\\ssh-keygen.exe",
        "usr\\bin\\ssh-keyscan.exe",
        "usr\\bin\\ssh-pageant.exe",
        "usr\\bin\\ssh.exe",
        "usr\\bin\\sshd.exe",
        "usr\\bin\\ssp.exe",
        "usr\\bin\\stat.exe",
        "usr\\bin\\stdbuf.exe",
        "usr\\bin\\strace.exe",
        "usr\\bin\\stty.exe",
        "usr\\bin\\sum.exe",
        "usr\\bin\\sync.exe",
        "usr\\bin\\tabs.exe",
        "usr\\bin\\tac.exe",
        "usr\\bin\\tail.exe",
        "usr\\bin\\tar.exe",
        "usr\\bin\\tee.exe",
        "usr\\bin\\test.exe",
        "usr\\bin\\tic.exe",
        "usr\\bin\\tig.exe",
        "usr\\bin\\timeout.exe",
        "usr\\bin\\toe.exe",
        "usr\\bin\\touch.exe",
        "usr\\bin\\tput.exe",
        "usr\\bin\\tr.exe",
        "usr\\bin\\true.exe",
        "usr\\bin\\truncate.exe",
        "usr\\bin\\trust.exe",
        "usr\\bin\\tset.exe",
        "usr\\bin\\tsort.exe",
        "usr\\bin\\tty.exe",
        "usr\\bin\\tzset.exe",
        "usr\\bin\\u2d.exe",
        "usr\\bin\\umount.exe",
        "usr\\bin\\uname.exe",
        "usr\\bin\\unexpand.exe",
        "usr\\bin\\uniq.exe",
        "usr\\bin\\unix2dos.exe",
        "usr\\bin\\unix2mac.exe",
        "usr\\bin\\unlink.exe",
        "usr\\bin\\unzip.exe",
        "usr\\bin\\unzipsfx.exe",
        "usr\\bin\\users.exe",
        "usr\\bin\\vdir.exe",
        "usr\\bin\\view.exe",
        "usr\\bin\\vim.exe",
        "usr\\bin\\vimdiff.exe",
        "usr\\bin\\watchgnupg.exe",
        "usr\\bin\\wc.exe",
        "usr\\bin\\which.exe",
        "usr\\bin\\who.exe",
        "usr\\bin\\whoami.exe",
        "usr\\bin\\winpty-agent.exe",
        "usr\\bin\\winpty-debugserver.exe",
        "usr\\bin\\winpty.exe",
        "usr\\bin\\xargs.exe",
        "usr\\bin\\xgettext.exe",
        "usr\\bin\\xxd.exe",
        "usr\\bin\\yat2m.exe",
        "usr\\bin\\yes.exe",
        "usr\\bin\\zipinfo.exe"
    ],
    "shortcuts": [
        [
            "git-bash.exe",
            "Git Bash",
            "--cd-to-home"
        ],
        [
            "cmd\\git-gui.exe",
            "Git GUI"
        ]
    ],
    "checkver": {
        "github": "https://github.com/git-for-windows/git",
        "regex": "v([\\w.]+)/PortableGit-(?<ver>[\\d\\w.]+)-64-bit"
    },
    "env_set": {
        "GIT_INSTALL_ROOT": "$dir"
    },
    "autoupdate": {
        "architecture": {
            "64bit": {
                "url": "https://github.com/git-for-windows/git/releases/download/v$version/PortableGit-$matchVer-64-bit.7z.exe#/dl.7z"
            },
            "32bit": {
                "url": "https://github.com/git-for-windows/git/releases/download/v$version/PortableGit-$matchVer-32-bit.7z.exe#/dl.7z"
            }
        },
        "hash": {
            "url": "https://github.com/git-for-windows/git/releases/latest",
            "regex": "<td>$basename</td>\\s*<td>$sha256</td>"
        }
    }
}
