{
    "autoupdate": {
        "url": "https://download.glarysoft.com/guportable.zip"
    },
    "bin": [
        [
            "Integrator_Portable.exe",
            "Glary Utilities 5"
        ]
    ],
    "checkver": {
        "regex": "gu_ver\">([\\d.-]+)</span> for Windows "
    },
    "description": "Powerful and all-in-one utility for cleaning your PC.",
    "hash": "b3bf746e3149aca521593938cbbf2e0c0f46df09a137b4ea888568cae2dd2c86",
    "homepage": "https://www.glarysoft.com/glary-utilities/",
    "license": "Freeware|Proprietary",
    "shortcuts": [
        [
            "Integrator_Portable.exe",
            "Glary Utilities 5"
        ]
    ],
    "url": "https://download.glarysoft.com/guportable.zip",
    "version": "5.204"
}
