{
  "version": "1.0.2",
  "description": "A beautiful program to read your RSS feeds right in the terminal!",
  "homepage": "https://github.com/TypicalAM/goread",
  "license": "GPL-3.0-only",
  "architecture": {
    "64bit": {
      "url": "https://ghproxy.com/https://github.com/TypicalAM/goread/releases/download/v1.0.2/goread_1.0.2_Windows_x86_64.tar.gz",
      "hash": "e56e64a1ed23e8b06a21fbf304f17a4f55d0d6f509fcd199ac493fe6a1c02f69"
    },
    "32bit": {
      "url": "https://ghproxy.com/https://github.com/TypicalAM/goread/releases/download/v1.0.2/goread_1.0.2_Windows_i386.tar.gz",
      "hash": "a2d67e992db103c49c497e683cfb637a6b28802ee9fae55e06f666990a2d339b"
    },
    "arm64": {
      "url": "https://ghproxy.com/https://github.com/TypicalAM/goread/releases/download/v1.0.2/goread_1.0.2_Windows_arm64.tar.gz",
      "hash": "7738c7d6d5d3d60d5fcb8ef045e63da708b3062144df5f881300bf67e209ebe4"
    }
  },
  "bin": "goread.exe",
  "checkver": "github",
  "autoupdate": {
    "architecture": {
      "64bit": {
        "url": "https://ghproxy.com/https://github.com/TypicalAM/goread/releases/download/v$version/goread_$version_Windows_x86_64.tar.gz"
      },
      "32bit": {
        "url": "https://ghproxy.com/https://github.com/TypicalAM/goread/releases/download/v$version/goread_$version_Windows_i386.tar.gz"
      },
      "arm64": {
        "url": "https://ghproxy.com/https://github.com/TypicalAM/goread/releases/download/v$version/goread_$version_Windows_arm64.tar.gz"
      }
    },
    "hash": {
      "url": "https://ghproxy.com/https://github.com/TypicalAM/goread/releases/download/v$version/checksums.txt",
      "mode": "extract"
    }
  },
  "_from": "batkiz/backit"
}