{
    "version": "0.62.2",
    "description": "A vulnerability scanner for container images and filesystems.",
    "homepage": "https://github.com/anchore/grype",
    "license": "Apache-2.0",
    "architecture": {
        "64bit": {
            "url": "https://github.com/anchore/grype/releases/download/v0.62.2/grype_0.62.2_windows_amd64.zip",
            "hash": "c6f249f6570ee43c19b8c6f0f424fc2b5d7f7f5bbddcb91c096b34d5df37c2bb"
        }
    },
    "bin": "grype.exe",
    "checkver": "github",
    "autoupdate": {
        "architecture": {
            "64bit": {
                "url": "https://github.com/anchore/grype/releases/download/v$version/grype_$version_windows_amd64.zip"
            }
        },
        "hash": {
            "url": "$baseurl/grype_$version_checksums.txt"
        }
    }
}
