{
    "homepage": "https://www.dcloud.io/hbuilderx.html",
    "version": "3.8.1.20230428-alpha",
    "license": "Freeware",
    "extract_dir": "HBuilderX",
    "url": "https://download1.dcloud.net.cn/download/HBuilderX.3.8.1.20230428-alpha.zip",
    "hash": "1df091dd3509219a39f145fdb4a7bc5e5d8ceb89d1531e17bdbd82b1607f3eac",
    "bin": [
        [
            "HBuilderX.exe",
            "HBuilderXFullAlpha"
        ]
    ],
    "shortcuts": [
        [
            "HBuilderX.exe",
            "HBuilderX Full Alpha"
        ]
    ],
    "checkver": {
        "url": "https://download1.dcloud.net.cn/hbuilderx/alpha.json",
        "jsonpath": "$.version"
    },
    "autoupdate": {
        "url": "https://download1.dcloud.net.cn/download/HBuilderX.$version.zip"
    }
}
