{
  "version": "2.1.0.3",
  "description": "HelloFont - Font tool for designers",
  "homepage": "http://www.hellofont.cn/",
  "notes": "Your HelloFont data are storaged in '%LOCALAPPDATA%\\HelloFont'.",
  "url": "https://list.nb.gl/OD_scoop/apt-cdn/HelloFont/2.1.0.3/HelloFont_old.exe#/HelloFont.exe",
  "hash": "115c73b63da32712a87d5cefd7e27df98c3d7811a41de2a6ebd35fa152a06df3",
  "shortcuts": [
    [
      "HelloFont.exe",
      "HelloFont"
    ]
  ],
  "persist": "HelloFont",
  "pre_install": [
    "$file = 'HelloFont'",
    "if (!(Test-Path \"$persist_dir\\$file\")) {",
    "   Write-Host 'File' $file 'does not exists. Creating.' -f Yellow",
    "   New-Item -Path dir\\$file -ItemType Directory",
    "}"
  ],
  "post_install": "New-Item -Path $env:APPDATA\\HelloFont -ItemType Junction -Value $dir\\HelloFont",
  "uninstaller": {
    "script": "Remove-Item $env:APPDATA\\HelloFont -Force -Recurse"
  },
  "_from": "Paxxs/Cluttered-bucket"
}