{
    "version": "2.7.1",
    "description": "Unofficial native GUI reimplementation for GOG and Epic Games Launcher",
    "homepage": "https://heroicgameslauncher.com/",
    "license": "GPL-3.0",
    "architecture": {
        "64bit": {
            "url": "https://github.com/Heroic-Games-Launcher/HeroicGamesLauncher/releases/download/v2.7.1/Heroic-2.7.1-Setup-x64.exe#/dl.7z",
            "hash": "0a8d91ccbc351012b4a3b2f735cd6bbd5daa9f9667ccc47b2ea0305c18f508cd",
            "pre_install": "Remove-Item \"$dir\\*.dll\"; Expand-7ZipArchive \"$dir\\app-64.7z\" \"$dir\" -Removal"
        },
        "arm64": {
            "url": "https://github.com/Heroic-Games-Launcher/HeroicGamesLauncher/releases/download/v2.7.1/Heroic-2.7.1-Setup-arm64.exe#/dl.7z",
            "hash": "8570424783d488174b96fde5ddbab2aea54bc63555aec8764a1c444471020732",
            "pre_install": "Remove-Item \"$dir\\*.dll\"; Expand-7ZipArchive \"$dir\\app-arm64.7z\" \"$dir\" -Removal"
        }
    },
    "extract_dir": "$PLUGINSDIR",
    "shortcuts": [
        [
            "Heroic.exe",
            "Heroic"
        ]
    ],
    "checkver": {
        "github": "https://github.com/Heroic-Games-Launcher/HeroicGamesLauncher"
    },
    "autoupdate": {
        "architecture": {
            "64bit": {
                "url": "https://github.com/Heroic-Games-Launcher/HeroicGamesLauncher/releases/download/v$version/Heroic-$version-Setup-x64.exe#/dl.7z"
            },
            "arm64": {
                "url": "https://github.com/Heroic-Games-Launcher/HeroicGamesLauncher/releases/download/v$version/Heroic-$version-Setup-arm64.exe#/dl.7z"
            }
        },
        "hash": {
            "url": "$baseurl/latest.yml",
            "regex": "url:\\s(?<fname>[\\w.-]+)\\n\\s+sha512:\\s$sha512"
        }
    }
}
