{
    "architecture": {
        "64bit": {
            "extract_dir": "hgrep-v0.3.2-x86_64-pc-windows-msvc",
            "hash": "37a42a6acd708044d168ff571f38823266af638d63a39f4a8c9f61c722130134",
            "url": "https://github.com/rhysd/hgrep/releases/download/v0.3.2/hgrep-v0.3.2-x86_64-pc-windows-msvc.zip"
        }
    },
    "autoupdate": {
        "architecture": {
            "64bit": {
                "extract_dir": "hgrep-v$version-x86_64-pc-windows-msvc",
                "url": "https://github.com/rhysd/hgrep/releases/download/v$version/hgrep-v$version-x86_64-pc-windows-msvc.zip"
            }
        }
    },
    "bin": "hgrep.exe",
    "checkver": "github",
    "description": "Grep with human-friendly search output",
    "homepage": "https://github.com/rhysd/hgrep",
    "license": "MIT",
    "version": "0.3.2"
}
