{
    "version": "2.9.6",
    "description": "A client for QQ and more.",
    "homepage": "https://github.com/Icalingua-plus-plus/Icalingua-plus-plus",
    "license": "MIT",
    "architecture": {
        "64bit": {
            "url": "https://ghproxy.com/https://github.com/Icalingua-plus-plus/Icalingua-plus-plus/releases/download/v2.9.6/Icalingua++-2.9.6_x64.exe#/dl.7z",
            "hash": "b21b03f9b1ff074cf942a74279d646472e43d5822691afb17fa0a0545c1ae660",
            "pre_install": [
                "Expand-7zipArchive \"$dir\\`$PLUGINSDIR\\app-64.7z\" \"$dir\"",
                "Remove-Item \"$dir\\`$*\", \"$dir\\Uninst*\" -Force -Recurse"
            ]
        },
        "arm64": {
            "url": "https://ghproxy.com/https://github.com/Icalingua-plus-plus/Icalingua-plus-plus/releases/download/v2.9.6/Icalingua++-2.9.6_arm64.exe#/dl.7z",
            "hash": "f8e00b0c32702b09d17e9aa0f6bec2cf1f65024545bf55d584ddca7754362601",
            "pre_install": [
                "Expand-7zipArchive \"$dir\\`$PLUGINSDIR\\app-arm64.7z\" \"$dir\"",
                "Remove-Item \"$dir\\`$*\", \"$dir\\Uninst*\" -Force -Recurse"
            ]
        }
    },
    "bin": "Icalingua++.exe",
    "shortcuts": [
        [
            "Icalingua++.exe",
            "Icalingua++"
        ]
    ],
    "checkver": "github",
    "autoupdate": {
        "architecture": {
            "64bit": {
                "url": "https://ghproxy.com/https://github.com/Icalingua-plus-plus/Icalingua-plus-plus/releases/download/v$version/Icalingua++-$version_x64.exe#/dl.7z"
            },
            "arm64": {
                "url": "https://ghproxy.com/https://github.com/Icalingua-plus-plus/Icalingua-plus-plus/releases/download/v$version/Icalingua++-$version_arm64.exe#/dl.7z"
            }
        }
    }
}
