{
  "architecture": {
    "32bit": {
      "extract_dir": "Iceweasel_x86",
      "hash": "4b5271e51132426cba8f011bef8fe795eb96849ca96f1c11ec7ead087cd46456",
      "url": "https://sourceforge.net/projects/libportable/files/Iceweasel/Stable/112.x/i686/Iceweasel-v112.0.en_US_win32_clang_pgo.7z"
    },
    "64bit": {
      "extract_dir": "Iceweasel_x64",
      "hash": "938c81f9f236325f324a84dbb223fd19cf714b2dc91ffd9488b4005b3df07d3c",
      "url": "https://sourceforge.net/projects/libportable/files/Iceweasel/Stable/112.x/x86_64/Iceweasel-v112.0.en_US_win64_clang_pgo.7z"
    }
  },
  "autoupdate": {
    "architecture": {
      "32bit": {
        "url": "https://sourceforge.net/projects/libportable/files/Iceweasel/Stable/$majorVersion.x/i686/Iceweasel-v$version.en_US_win32_clang_pgo.7z"
      },
      "64bit": {
        "url": "https://sourceforge.net/projects/libportable/files/Iceweasel/Stable/$majorVersion.x/x86_64/Iceweasel-v$version.en_US_win64_clang_pgo.7z"
      }
    }
  },
  "checkver": {
    "regex": "x86_64/Iceweasel-v([\\d.]+).en_US_win64_clang_pgo\\.7z",
    "url": "https://sourceforge.net/projects/libportable/rss?path=/Iceweasel/Stable/"
  },
  "description": "Portable Runtime For Firefox. Feature (32bit and 64bit).",
  "homepage": "https://sourceforge.net/projects/libportable",
  "license": {
    "identifier": "Freeware"
  },
  "persist": [
    "App\\portable.ini",
    "Profiles",
    "Plugins"
  ],
  "pre_install": "if (!(Test-Path \"$persist_dir\\App\\portable.ini\")) { Copy-Item \"$dir\\App\\portable(example).ini\" \"$dir\\App\\portable.ini\" }",
  "shortcuts": [
    [
      "App\\Iceweasel.exe",
      "Iceweasel"
    ]
  ],
  "version": "112.0"
}