{
    "version": "23.4.0.48176",
    "description": "ICQ - stay connected",
    "homepage": "https://icq.com/",
    "license": "Proprietary",
    "url": "https://icq-www.hb.bizmrg.com/alpha-version/win/x32/23.4.0.48176/icqsetup.exe#/dl.7z",
    "hash": "md5:9df290656a7ecef3670165081bb4088b",
    "shortcuts": [
        [
            "icq.exe",
            "ICQ Alpha"
        ]
    ],
    "checkver": {
        "url": "https://u.icq.net/omicron?mytracker_id=icq_desktop_ic1nmMjqg7Yu-0hL",
        "jsonpath": "$['config']['update_alpha_version']"
    },
    "autoupdate": {
        "url": "https://icq-www.hb.bizmrg.com/alpha-version/win/x32/$version/icqsetup.exe#/dl.7z",
        "hash": {
            "mode": "json",
            "jsonpath": "$['info']['md5']",
            "url": "https://icq-www.hb.bizmrg.com/alpha-version/win/x32/$version/version.json"
        }
    },
    "_from": "okibcn/ScoopMaster"
}
