{
  "version": "7.2",
  "description": "The IDA Disassembler and debugger is a multi-processor disassembler and debugger hosted on the Windows Platforms.",
  "homepage": "https://www.hex-rays.com/products/ida/index.shtml",
  "license": {
    "identifier": "ShareWare"
  },
  "notes": [
    "1. Must be extracted to the English path, run ida64.exe in the root directory to use normally.",
    "2. Only keep the lab 64-bit version.",
    "3. The build number was reset and named as a dedicated version of the dad from China."
  ],
  "url": "https://list.nb.gl/OD_scoop/apt-cdn/IDA-Pro/7.2/IDA64.7z",
  "hash": "a26ae886b7404e9f6c4d24b124b638020e72486625d70f1a33cb481a7fe12887",
  "uninstaller": {
    "script": [
      "Remove-Item $env:APPDATA\\Hex-Rays -Recurse -Force"
    ]
  },
  "bin": "ida64.exe",
  "shortcuts": [
    [
      "ida64.exe",
      "IDA Pro"
    ],
    [
      "idahelp.chm",
      "IDA Help"
    ]
  ],
  "checkver": {
    "url": "http://www.ypojie.com/7763.html",
    "regex": "Hex-Rays IDA Pro v([\\d.]+)"
  },
  "_from": "Paxxs/Cluttered-bucket"
}