{
    "version": "6.4",
    "description": "Resize Disk Volume without losing data -Redistribute disk space - Pro Edition",
    "homepage": "https://www.resize-c.com/",
    "license": "Proprietary",
    "url": "https://download.resize-c.com/resizer-pro-portable.zip",
    "hash": "e140c8e3195e56903897812dd026730afd83a5310343f4009a122264fc0a4bdf",
    "architecture": {
        "64bit": {
            "extract_dir": "resizer-pro-portable\\x64"
        },
        "32bit": {
            "extract_dir": "resizer-pro-portable\\x32"
        }
    },
    "pre_install": "if (!(Test-Path \"$persist_dir\\impr.lkeys\")) { New-Item \"$dir\\impr.lkeys\" | Out-Null }",
    "post_install": "Remove-Item -Path $dir\\resizer-pro-portable",
    "shortcuts": [
        [
            "dm.resizer.exe",
            "IM Magic Partition Resizer Pro"
        ]
    ],
    "persist": "impr.lkeys",
    "checkver": {
        "url": "https://www.resize-c.com/",
        "regex": "What's New: Partition Resizer has been upgraded to new version v([\\d.]+)"
    },
    "autoupdate": {
        "url": "https://download.resize-c.com/resizer-pro-portable.zip"
    },
    "_from": "okibcn/ScoopMaster"
}
