{
    "version": "17.0.7-b829.14",
    "homepage": "https://github.com/JetBrains/JetBrainsRuntime",
    "description": "A fork of OpenJDK that includes a number enhancements in font rendering, HiDPI support, ligatures, performance improvements, and bugfixes. These are mainly for running IntelliJ Platform-based products",
    "license": "GPL-2.0",
    "architecture": {
        "64bit": {
            "url": "https://cache-redirector.jetbrains.com/intellij-jbr/jbr_jcef-17.0.7-windows-x64-b829.14.tar.gz",
            "hash": "sha512:0eff43000765ffb41ff4d91085e5c26e85d2c1396bd3600e055a1276d4240fe4215fc60776e41492c03c82efb33d849c6d23b44e329d750bea6cddaae1341450",
            "extract_dir": "jbr_jcef-17.0.7-windows-x64-b829.14"
        }
    },
    "env_set": {
        "JAVA_HOME": "$dir"
    },
    "env_add_path": "bin",
    "checkver": {
        "url": "https://github.com/JetBrains/JetBrainsRuntime/releases",
        "regex": "\\s(?<Version>[\\d.]+)-(?<Build>[\\w]+)\\.(?<Patch>[\\d]+)</h2>",
        "replace": "${Version}-${Build}.${Patch}"
    },
    "autoupdate": {
        "architecture": {
            "64bit": {
                "url": "https://cache-redirector.jetbrains.com/intellij-jbr/jbr_jcef-$matchVersion-windows-x64-$matchBuild.$matchPatch.tar.gz",
                "hash": {
                    "url": "$url.checksum",
                    "regex": "$sha512\\s"
                },
                "extract_dir": "jbr_jcef-$matchVersion-windows-x64-$matchBuild.$matchPatch"
            }
        }
    }
}
