{
    "version": "22.1.0",
    "description": "Slender typeface for code, from code.",
    "homepage": "https://typeof.net/Iosevka/",
    "license": "OFL-1.1",
    "url": "https://ghproxy.com/https://github.com/be5invis/Iosevka/releases/download/v22.1.0/super-ttc-iosevka-aile-22.1.0.zip",
    "hash": "e045dbc7d89f81695bebe122ee1eb437316cc18629362567b2424d3f4c1472f0",
    "checkver": {
        "github": "https://github.com/be5invis/Iosevka"
    },
    "autoupdate": {
        "url": "https://ghproxy.com/https://github.com/be5invis/Iosevka/releases/download/v$version/super-ttc-iosevka-aile-$version.zip"
    },
    "installer": {
        "script": [
            "$currentBuildNumber = [int] (Get-ItemProperty \"HKLM:\\SOFTWARE\\Microsoft\\Windows NT\\CurrentVersion\").CurrentBuildNumber",
            "$windows1809BuildNumber = 17763",
            "$isPerUserFontInstallationSupported = $currentBuildNumber -ge $windows1809BuildNumber",
            "$isFontInstallationForAllUsers = $global -or !$isPerUserFontInstallationSupported",
            "if ($isFontInstallationForAllUsers -and !(is_admin)) {",
            "    error \"Administrator rights are required to install $app.\"",
            "    exit 1",
            "}",
            "$fontInstallDir = if ($isFontInstallationForAllUsers) { \"$env:windir\\Fonts\" } else { \"$env:LOCALAPPDATA\\Microsoft\\Windows\\Fonts\" }",
            "$registryRoot = if ($isFontInstallationForAllUsers) { \"HKLM\" } else { \"HKCU\" }",
            "$registryKey = \"${registryRoot}:\\SOFTWARE\\Microsoft\\Windows NT\\CurrentVersion\\Fonts\"",
            "New-Item $fontInstallDir -ItemType Directory -ErrorAction SilentlyContinue | Out-Null",
            "Get-ChildItem $dir -Filter '*.ttc' -Recurse | ForEach-Object {",
            "    $value = if ($isFontInstallationForAllUsers) { $_.Name } else { \"$fontInstallDir\\$($_.Name)\" }",
            "    New-ItemProperty -Path $registryKey -Name $_.Name.Replace($_.Extension, ' (TrueType)') -Value $value -Force | Out-Null",
            "    Copy-Item $_.FullName -Destination $fontInstallDir",
            "}"
        ]
    },
    "uninstaller": {
        "script": [
            "$currentBuildNumber = [int] (Get-ItemProperty \"HKLM:\\SOFTWARE\\Microsoft\\Windows NT\\CurrentVersion\").CurrentBuildNumber",
            "$windows1809BuildNumber = 17763",
            "$isPerUserFontInstallationSupported = $currentBuildNumber -ge $windows1809BuildNumber",
            "$isFontInstallationForAllUsers = $global -or !$isPerUserFontInstallationSupported",
            "if ($isFontInstallationForAllUsers -and !(is_admin)) {",
            "    error \"Administrator rights are required to uninstall $app.\"",
            "    exit 1",
            "}",
            "$fontInstallDir = if ($isFontInstallationForAllUsers) { \"$env:windir\\Fonts\" } else { \"$env:LOCALAPPDATA\\Microsoft\\Windows\\Fonts\" }",
            "$registryRoot = if ($isFontInstallationForAllUsers) { \"HKLM\" } else { \"HKCU\" }",
            "$registryKey = \"${registryRoot}:\\SOFTWARE\\Microsoft\\Windows NT\\CurrentVersion\\Fonts\"",
            "Get-ChildItem $dir -Filter '*.ttc' -Recurse | ForEach-Object {",
            "    Remove-ItemProperty -Path $registryKey -Name $_.Name.Replace($_.Extension, ' (TrueType)') -Force -ErrorAction SilentlyContinue",
            "    Remove-Item \"$fontInstallDir\\$($_.Name)\" -Force -ErrorAction SilentlyContinue",
            "}",
            "Write-Host \"The 'Iosevka Aile' Font family has been uninstalled and will not be present after restarting your computer.\" -Foreground Magenta"
        ]
    }
}
