{
  "version": "3.1.328",
  "architecture": {
    "64bit": {
      "url": "https://ghproxy.net/https://github.com/blacktop/ipsw/releases/download/v3.1.328/ipswd_3.1.328_windows_x86_64.tar.gz",
      "bin": [
        "ipswd_3.1.328_windows_x86_64/ipswd.exe"
      ],
      "hash": "76aa813a0473927392c0bb0b5e4beb72fdacc58eee3d90d71fd8ff6011a3d426"
    }
  },
  "homepage": "https://blacktop.github.io/ipsw",
  "license": "MIT",
  "description": "ipsw - Daemon"
}