{
    "version": "14.6.1",
    "description": "Database Subsetting and Relational Data Browsing Tool",
    "homepage": "https://wisser.github.io/Jailer",
    "license": "Apache-2.0",
    "url": "https://ghproxy.com/https://github.com/Wisser/Jailer/releases/download/v14.6.1/Jailer-database-tools-14.6.1.msi",
    "hash": "c7f38c5b4dea602076591568689476acf156c0a0c41b53b8d31b9c149fc2c541",
    "extract_dir": "Jailer Database Tools/app",
    "post_install": [
        "(Get-Content \"$dir\\jailer.bat\").replace('=lib','=%~dp0\\lib').replace(';config',';%~dp0\\config').replace('jailer.jar','%~dp0\\jailer.jar') | Set-Content \"$dir\\jailer.bat\"",
        "(Get-Content \"$dir\\jailerGUI.bat\").replace('=lib','=%~dp0\\lib').replace(';config',';%~dp0\\config').replace('jailer.jar','%~dp0\\jailer.jar') | Set-Content \"$dir\\jailerGUI.bat\""
    ],
    "suggest": {
        "JRE": "java/temurin11-jre"
    },
    "bin": [
        "jailer.bat",
        "jailerGUI.bat"
    ],
    "shortcuts": [
        [
            "Jailer.exe",
            "Jailer"
        ]
    ],
    "checkver": {
        "github": "https://github.com/Wisser/Jailer"
    },
    "autoupdate": {
        "url": "https://ghproxy.com/https://github.com/Wisser/Jailer/releases/download/v$version/Jailer-database-tools-$version.msi"
    },
    "_from": "okibcn/ScoopMaster"
}
