{
    "version": "0.5.24",
    "description": "A tool for building modern cloud native development environments.",
    "homepage": "https://jumppad.dev/",
    "license": "MPL-2.0",
    "architecture": {
        "64bit": {
            "url": "https://github.com/jumppad-labs/jumppad/releases/download/v0.5.24/jumppad_0.5.24_windows_x86_64.zip",
            "hash": "2fd2eb3a0ea1b0378bccff43478cea9223f0168d3db99793a3c3740ae7bda643"
        }
    },
    "bin": "jumppad.exe",
    "checkver": {
        "github": "https://github.com/jumppad-labs/jumppad"
    },
    "autoupdate": {
        "architecture": {
            "64bit": {
                "url": "https://github.com/jumppad-labs/jumppad/releases/download/v$version/jumppad_$version_windows_x86_64.zip"
            }
        },
        "hash": {
            "url": "$baseurl/checksums.txt"
        }
    }
}
