{
  "version": "2.7.2",
  "description": "Python implementation written in Java (successor to JPython)",
  "homepage": "https://www.jython.org/",
  "license": "PSF-2.0",
  "suggest": {
    "JRE": "java/zulu11-jre"
  },
  "url": "https://search.maven.org/remotecontent?filepath=org/python/jython-installer/2.7.2/jython-installer-2.7.2.jar#/dl.7z",
  "hash": "36e40609567ce020a1de0aaffe45e0b68571c278c14116f52e58cc652fb71552",
  "bin": [
    [
      "bin\\jython.exe"
    ]
  ],
  "checkver": {
    "url": "https://search.maven.org/remotecontent?filepath=org/python/jython-installer/",
    "regex": "href=\"([\\d.]+)/",
    "reverse": true
  },
  "_from": "okibcn/ScoopMaster"
}