{
    "version": "23.04.0",
    "description": "Kdenlive. Video editing software based on the MLT Framework, KDE and Qt",
    "homepage": "https://kdenlive.org",
    "license": "GPL-2.0-only",
    "changelog": "https://kdenlive.org/en/category/news/releases/",
    "architecture": {
        "64bit": {
            "url": "https://download.kde.org/stable/kdenlive/23.04/windows/kdenlive-23.04.0_standalone.exe#/dl.7z",
            "hash": "c946abec45efd009d8da9361ecd3c08f2a7637d801e24365d3c3680f0455865d"
        }
    },
    "extract_dir": "kdenlive-23.04.0_standalone",
    "bin": "bin\\kdenlive.exe",
    "shortcuts": [
        [
            "bin\\kdenlive.exe",
            "Kdenlive"
        ]
    ],
    "checkver": {
        "url": "https://kdenlive.org/en/download/",
        "regex": "kdenlive-([\\d.\\-]+)_standalone\\.exe"
    },
    "autoupdate": {
        "architecture": {
            "64bit": {
                "url": "https://download.kde.org/stable/kdenlive/$majorVersion.$minorVersion/windows/kdenlive-$version_standalone.exe#/dl.7z"
            }
        },
        "hash": {
            "url": "$url.sha256"
        },
        "extract_dir": "kdenlive-$version_standalone"
    }
}
