{
    "version": "2.4.4",
    "description": "KPEnhancedEntryView extends the entry view in the KeePass main window.",
    "homepage": "https://sourceforge.net/projects/kpenhentryview/",
    "license": "GPL-3.0-only",
    "depends": "extras/keepass",
    "url": "https://sourceforge.net/projects/kpenhentryview/files/v2.4.4/KPEnhancedEntryView-v2.4.4.zip",
    "hash": "sha1:ec69170c60cc549b6b3c2c930aecb40f5f390812",
    "checkver": {
        "url": "https://sourceforge.net/projects/kpenhentryview/rss",
        "regex": "KPEnhancedEntryView-v([\\d.]+).zip"
    },
    "autoupdate": {
        "url": "https://sourceforge.net/projects/kpenhentryview/files/v$version/KPEnhancedEntryView-v$version.zip"
    },
    "installer": {
        "script": "if (installed 'keepass' $global) {Copy-Item \"$dir\\KPEnhancedEntryView.plgx\" \"$(appdir keepass $global)\\current\\Plugins\"} else { error 'Please install `keepass` first, then reinstall `keepass-plugin-kpenhentryview`.'}"
    },
    "uninstaller": {
        "script": "if (installed 'keepass' $global) {Remove-Item \"$(appdir keepass $global)\\current\\Plugins\\KPEnhancedEntryView.plgx\"}"
    }
}
