{
  "version": "1.3",
  "description": "This plugin provides a quick searching capability as an enhancement to the global auto-type system. If a global auto-type is requested, but no matching entry for the active window is found, this plugin will show a quick as-you-type search window which lets you easily pick the entry to auto-type.",
  "homepage": "https://sourceforge.net/projects/autotypesearch/",
  "license": "Unknown",
  "depends": "extras/keepass",
  "url": "https://downloads.sourceforge.net/project/autotypesearch/v1.3/AutoTypeSearch-v1.3.zip",
  "hash": "sha1:c6b72e488e2d5006cf9d87ebb80e6b11e02ff14c",
  "installer": {
    "script": "Copy-Item \"$dir\\AutoTypeSearch.plgx\" \"$(appdir keepass $global)\\current\\Plugins\""
  },
  "uninstaller": {
    "script": "Remove-Item \"$(appdir keepass $global)\\current\\Plugins\\AutoTypeSearch.plgx\""
  },
  "checkver": {
    "url": "https://sourceforge.net/projects/autotypesearch/rss?path=/",
    "regex": "AutoTypeSearch-v([\\d.]+)\\.zip"
  },
  "autoupdate": {
    "url": "https://downloads.sourceforge.net/project/autotypesearch/v$version/AutoTypeSearch-v$version.zip"
  }
}