{
  "version": "2.0.4",
  "description": "keypirinha-plugin keypirinha-package",
  "homepage": "https://github.com/bantya/Keypirinha-EasySearch",
  "depends": [
    "PSWinUtil",
    "keypirinha"
  ],
  "url": "https://ghproxy.com/https://github.com/bantya/Keypirinha-EasySearch/releases/download/2.0.4/EasySearch.keypirinha-package",
  "hash": "",
  "installer": {
    "script": [
      "$packageName = '{0}.keypirinha-package' -f ($app -replace '^keypirinha-', '')",
      "$packageDir = '{0}/../portable/Profile/Packages' -f (PSWinUtil\\Find-Path -Name 'keypirinha.exe' -Program -Strict)",
      "Move-Item -LiteralPath ('{0}/{1}' -f $dir, $packageName) -Destination $packageDir"
    ]
  },
  "uninstaller": {
    "script": [
      "$packageName = '{0}.keypirinha-package' -f ($app -replace '^keypirinha-', '')",
      "$packageDir = '{0}/../portable/Profile/Packages' -f (PSWinUtil\\Find-Path -Name 'keypirinha.exe' -Program -Strict)",
      "Remove-Item -LiteralPath ('{0}/{1}' -f $packageDir, $packageName)"
    ]
  },
  "bin": "",
  "shortcuts": [],
  "checkver": "github",
  "autoupdate": {
    "url": "https://ghproxy.com/https://github.com/bantya/Keypirinha-EasySearch/releases/download/$version/EasySearch.keypirinha-package"
  },
  "_from": "yuusakuri/scoop-bucket"
}