{
    "architecture": {
        "64bit": {
            "hash": "dba03af2b80d423c90419e85c20439ed28eaf342fc39fee2be762022b5b1b814",
            "url": "https://releases.crossplane.io/stable/v1.12.1/bin/windows_amd64/crossplane.exe#/kubectl-crossplane.exe"
        }
    },
    "autoupdate": {
        "architecture": {
            "64bit": {
                "url": "https://releases.crossplane.io/stable/v$version/bin/windows_amd64/crossplane.exe#/kubectl-crossplane.exe"
            }
        }
    },
    "bin": "kubectl-crossplane.exe",
    "checkver": {
        "github": "https://github.com/crossplane/crossplane"
    },
    "description": "Your Universal Control Plane",
    "homepage": "https://crossplane.io",
    "license": "Apache-2.0",
    "version": "1.12.1"
}
