{
    "homepage": "https://github.com/NyaMisty/libimobiledevice-nightly-pkg",
    "description": "A cross-platform protocol library to communicate with iOS devices, http://www.libimobiledevice.org.",
    "version": "20230424_123125-8e67ada9",
    "license": "LGPL 2.1",
    "architecture": {
        "64bit": {
            "url": "https://ghproxy.com/https://github.com/NyaMisty/libimobiledevice-nightly-pkg/releases/download/20230424_123125-8e67ada9/x86_64-mingw64.tar",
            "hash": "a2c9ddc6853b941f9217c2a88a7bce548ee6ec3f4cd67d7eb95eb96d8d758ec5",
            "extract_dir": "mingw64"
        },
        "32bit": {
            "url": "https://ghproxy.com/https://github.com/NyaMisty/libimobiledevice-nightly-pkg/releases/download/20230424_123125-8e67ada9/i686-mingw32.tar",
            "hash": "1d40fa3a40a6d57dccef41987630d61a771f176abc5488c478dba48f17d6182e",
            "extract_dir": "mingw32"
        }
    },
    "bin": [
        [
            "bin/idevice_id.exe",
            "idevice_id_n"
        ],
        [
            "bin/ideviceactivation.exe",
            "ideviceactivation_n"
        ],
        [
            "bin/idevicebackup.exe",
            "idevicebackup_n"
        ],
        [
            "bin/idevicebackup2.exe",
            "idevicebackup2_n"
        ],
        [
            "bin/idevicecrashreport.exe",
            "idevicecrashreport_n"
        ],
        [
            "bin/idevicedate.exe",
            "idevicedate_n"
        ],
        [
            "bin/idevicedebug.exe",
            "idevicedebug_n"
        ],
        [
            "bin/idevicedebugserverproxy.exe",
            "idevicedebugserverproxy_n"
        ],
        [
            "bin/idevicediagnostics.exe",
            "idevicediagnostics_n"
        ],
        [
            "bin/ideviceenterrecovery.exe",
            "ideviceenterrecovery_n"
        ],
        [
            "bin/ideviceimagemounter.exe",
            "ideviceimagemounter_n"
        ],
        [
            "bin/ideviceinfo.exe",
            "ideviceinfo_n"
        ],
        [
            "bin/ideviceinstaller.exe",
            "ideviceinstaller_n"
        ],
        [
            "bin/idevicename.exe",
            "idevicename_n"
        ],
        [
            "bin/idevicenotificationproxy.exe",
            "idevicenotificationproxy_n"
        ],
        [
            "bin/idevicepair.exe",
            "idevicepair_n"
        ],
        [
            "bin/ideviceprovision.exe",
            "ideviceprovision_n"
        ],
        [
            "bin/idevicerestore.exe",
            "idevicerestore_n"
        ],
        [
            "bin/idevicescreenshot.exe",
            "idevicescreenshot_n"
        ],
        [
            "bin/idevicesyslog.exe",
            "idevicesyslog_n"
        ],
        [
            "bin/inetcat.exe",
            "inetcat_n"
        ],
        [
            "bin/iproxy.exe",
            "iproxy_n"
        ],
        [
            "bin/irecovery.exe",
            "irecovery_n"
        ],
        [
            "bin/plistutil.exe",
            "plistutil_n"
        ]
    ],
    "checkver": {
        "github": "https://github.com/NyaMisty/libimobiledevice-nightly-pkg",
        "re": "/releases/tag/([\\da-f-_]+?)\""
    },
    "autoupdate": {
        "architecture": {
            "64bit": {
                "url": "https://ghproxy.com/https://github.com/NyaMisty/libimobiledevice-nightly-pkg/releases/download/$version/x86_64-mingw64.tar",
                "extract_dir": "mingw64"
            },
            "32bit": {
                "url": "https://ghproxy.com/https://github.com/NyaMisty/libimobiledevice-nightly-pkg/releases/download/$version/i686-mingw32.tar",
                "extract_dir": "mingw32"
            }
        }
    },
    "_from": "okibcn/ScoopMaster"
}
