{
    "version": "2.8.1",
    "description": "A command-line tool that allows users to run LogQL queries against a Loki server.",
    "homepage": "https://grafana.com/docs/loki/latest/getting-started/logcli/",
    "license": "Apache-2.0",
    "architecture": {
        "64bit": {
            "bin": [
                [
                    "logcli-windows-amd64.exe",
                    "logcli"
                ]
            ],
            "url": "https://github.com/grafana/loki/releases/download/v2.8.1/logcli-windows-amd64.exe.zip",
            "hash": "4555c83d9febff21263a6b3d8f8bbe7c034d3dcbd7ef1a649d867008338acef2"
        }
    },
    "checkver": {
        "github": "https://github.com/grafana/loki"
    },
    "autoupdate": {
        "architecture": {
            "64bit": {
                "url": "https://github.com/grafana/loki/releases/download/v$version/logcli-windows-amd64.exe.zip"
            }
        },
        "hash": {
            "url": "$baseurl/SHA256SUMS"
        }
    }
}
