{
  "homepage": "https://www.lyx.org/",
  "version": "2.3.5.4",
  "license": "GPL-2.0-or-later",
  "architecture": {
    "64bit": {
      "url": "https://mirrors.tuna.tsinghua.edu.cn/lyx/bin/2.3.5/LyX-2352-Installer-4.exe#/dl.7z",
      "hash": "4288518d2a214b86fb3e068411c04be61557f0fabaa9fc0aa9cd88d88bbdbc79"
    }
  },
  "bin": "bin\\LyX.exe",
  "shortcuts": [
    [
      "bin\\LyX.exe",
      "LyX"
    ]
  ],
  "post_install": "Remove-Item \"$dir\\`$PLUGINSDIR\" -Force -Recurse",
  "checkver": {
    "url": "https://chocolatey.org/packages/lyx",
    "regex": "Downloads of v\\s+([\\d.]+)"
  },
  "autoupdate": {
    "architecture": {
      "64bit": {
        "url": "https://mirrors.tuna.tsinghua.edu.cn/lyx/bin/$version/LyX-$cleanVersion-Installer-$majorVersion.exe#/dl.7z"
      }
    }
  },
  "_from": "ivaquero/scoopet"
}