{
  "version": "1.27.5",
  "url": "https://ghproxy.com/https://github.com/itzg/mc-image-helper/releases/download/1.27.5/mc-image-helper-1.27.5.zip",
  "hash": "sha256:16dc352255edd7dace0140c2f5ece8cdc86cc194026a9f40dbdc656e7fc8e6a0",
  "bin": "bin/mc-image-helper.bat",
  "extract_dir": "mc-image-helper-1.27.5",
  "suggest": {
    "JRE": [
      "java/temurin-lts-jre"
    ]
  },
  "description": "This tool does the complicated bits for itzg/minecraft-server"
}