{
    "version": "0.46.2",
    "description": "Metabase is the easy, open source way for everyone in your company to ask questions and learn from data.",
    "homepage": "https://github.com/metabase/metabase",
    "license": "AGPL-3.0-only",
    "url": "https://downloads.metabase.com/v0.46.2/metabase.jar",
    "hash": "14723c4146483cc84134e77445f7522869082da4654b885ef04552ad0c630f4b",
    "bin": "metabase.jar",
    "suggest": {
        "JDK": [
            "java/oraclejdk",
            "java/openjdk",
            "java/adoptopenjdk-hotspot",
            "java/zulu"
        ]
    },
    "env_set": {
        "MB_PLUGINS_DIR": "$dir\\plugins",
        "MB_DB_FILE": "$dir\\data\\metabase.db"
    },
    "persist": [
        "data",
        "plugins"
    ],
    "checkver": {
        "url": "http://static.metabase.com/version-info.json",
        "jsonpath": "$.latest.version",
        "regex": "v([\\d.]+)"
    },
    "autoupdate": {
        "url": "https://downloads.metabase.com/v$version/metabase.jar",
        "hash": {
            "url": "https://github.com/metabase/metabase/releases/tag/v$version",
            "regex": "<code>$sha256"
        }
    }
}
