{
    "version": "0.8",
    "description": "Auto Clicker for Minecraft",
    "homepage": "https://github.com/histefanhere/XAHK",
    "license": "GPL-3.0",
    "url": "https://ghproxy.com/https://github.com/histefanhere/XAHK/releases/download/v0.8/Minescript.exe",
    "hash": "d4bb6a7f89a5cd3d8a1a8685811c92a422c4ad22631422dd31582747b02603bb",
    "shortcuts": [
        [
            "Minescript.exe",
            "Minescript"
        ]
    ],
    "checkver": "github",
    "autoupdate": {
        "url": "https://ghproxy.com/https://github.com/histefanhere/XAHK/releases/download/v$version/Minescript.exe"
    },
    "_from": "okibcn/ScoopMaster"
}
