{
  "version": "22.11.1-1",
  "description": "A cross-platform, Python-agnostic binary package manager.",
  "homepage": "https://mirrors.tuna.tsinghua.edu.cn/anaconda/miniconda/",
  "license": "BSD-3-Clause",
  "notes": [
    "From 4.6.0, conda has built the support for Cmd, Powershell or other shells.",
    "Use \"conda init powershell\" or \"conda init __your_favorite_shell__\"",
    "",
    "Miniconda3 drops support for 32-bit CPUs from v22.11.1. If you are running a 32-bit system, please install miniconda3-4.12.0 from the Versions bucket."
  ],
  "architecture": {
    "64bit": {
      "url": "https://mirrors.tuna.tsinghua.edu.cn/anaconda/miniconda/Miniconda3-py310_22.11.1-1-Windows-x86_64.exe",
      "hash": "1acbc2e8277ddd54a5f724896c7edee112d068529588d944702966c867e7e9cc"
    },
    "32bit": {
      "url": "https://mirrors.tuna.tsinghua.edu.cn/anaconda/miniconda/Miniconda3-py310_22.11.1-1-Windows-x86.exe",
      "hash": "4fb64e6c9c28b88beab16994bfba4829110ea3145baa60bda5344174ab65d462"
    }
  },
  "installer": {
    "args": [
      "/S",
      "/InstallationType=JustMe",
      "/RegisterPython=0",
      "/AddToPath=0",
      "/NoRegistry=1",
      "/D=$dir"
    ]
  },
  "uninstaller": {
    "file": "Uninstall-Miniconda3.exe",
    "args": "/S"
  },
  "bin": [
    "python.exe",
    "pythonw.exe",
    [
      "python.exe",
      "python3"
    ]
  ],
  "persist": "envs",
  "env_add_path": [
    "scripts",
    "Library\\bin"
  ],
  "checkver": {
    "url": "https://docs.conda.io/en/latest/miniconda.html",
    "regex": "Miniconda3-py310_([(0-9).]+-[(0-9)]?)-Windows"
  },
  "autoupdate": {
    "architecture": {
      "64bit": {
        "url": "https://mirrors.tuna.tsinghua.edu.cn/anaconda/miniconda/Miniconda3-py310_$version-Windows-x86_64.exe"
      },
      "32bit": {
        "url": "https://mirrors.tuna.tsinghua.edu.cn/anaconda/miniconda/Miniconda3-py310_$version-Windows-x86.exe"
      }
    },
    "hash": {
      "url": "https://docs.conda.io/en/latest/miniconda.html",
      "regex": "(?sm)$basename.*?>$sha256<"
    }
  },
  "_from": "ivaquero/scoopet"
}