{
    "version": "0.7.30",
    "homepage": "https://miro.com",
    "description": "Online collaborative whiteboard",
    "license": {
        "identifier": "Proprietary",
        "url": "https://miro.com/legal/terms-of-service/"
    },
    "architecture": {
        "64bit": {
            "url": "https://desktop.miro.com/platforms/win32/RealtimeBoard-0.7.30-full.nupkg",
            "hash": "sha1:dd0c2ed141600753aa24583220d052fe944117a5",
            "extract_dir": "lib\\net45",
            "shortcuts": [
                [
                    "Miro.exe",
                    "Miro"
                ]
            ]
        }
    },
    "checkver": {
        "url": "https://desktop.miro.com/platforms/win32/RELEASES",
        "regex": "RealtimeBoard-([\\d.]+)-full"
    },
    "autoupdate": {
        "architecture": {
            "64bit": {
                "url": "https://desktop.miro.com/platforms/win32/RealtimeBoard-$version-full.nupkg",
                "hash": {
                    "url": "https://desktop.miro.com/platforms/win32/RELEASES",
                    "regex": "($sha1) $basename"
                }
            }
        }
    },
    "_from": "okibcn/ScoopMaster"
}
