{
  "version": "0.7.0.0",
  "description": "Save monitor configurations and switch between them using hotkeys or clicking the icon on taskbar",
  "homepage": "https://sourceforge.net/projects/monitorswitcher/",
  "license": "MPL-2.0",
  "url": "http://prdownloads.sourceforge.net/monitorswitcher/MonitorProfileSwitcher_v0700.zip",
  "hash": "118f36bdcf47617b6a4bec9c190965cdb7a5fe51559eeab07f6f1caa0a738b9b",
  "bin": "MonitorSwitcher.exe",
  "shortcuts": [
    [
      "MonitorSwitcherGUI.exe",
      "Monitor Profile Switcher"
    ]
  ],
  "checkver": {
    "url": "https://sourceforge.net/p/monitorswitcher/blog/",
    "regex": "Release Version ([\\d.]+)"
  },
  "autoupdate": {
    "url": "http://prdownloads.sourceforge.net/monitorswitcher/MonitorProfileSwitcher_v$cleanVersion.zip"
  },
  "_from": "starise/Scoop-Confetti"
}