{
  "version": "3.16",
  "description": "mps-dcdcdesigner: MPS DC DC Designer is a simulation tool which is used to help you create and analyze a power solution with MPS DCDC chips.",
  "homepage": "https://www.monolithicpower.com/en/dc-dc-designer-for-windows.html",
  "license": "Freeware",
  "notes": [
    "MPS DC-DC Designer is a simulation tool to help help create and analyze a power solution with MPS DC-DC chips conveniently. ",
    "MPS also offers an Online Version of DC-DC Designer: ",
    "https://www.monolithicpower.com/design-tools/design-tools/dc-dc-designer-online.html"
  ],
  "url": "https://www.monolithicpower.com/en/themechanges/downloadlink/downloadlink/?url=L2QvYy9kY2RjZGVzaWduZXJzZXR1cF92My4xNi56aXA=#/dcdc_designer_setup.zip",
  "hash": "",
  "installer": {
    "script": [
      "$file = (Get-Item \"$dir\\DCDCDesignerSetup*.exe\").FullName",
      "Expand-InnoArchive $file -DestinationPath $dir",
      "#Expand-InnoArchive $file -Removal"
    ]
  },
  "post_install": [
    "$null, $bucket = find_manifest($appName)",
    "$bucketdir = Find-BucketDirectory($bucket)",
    "",
    "ensure \"$dir\\data\\DCDCDesigner\" | Out-Null",
    "ensure \"$env:UserProfile\\Documents\\MPS\" | Out-Null",
    "if (-not (Test-Path \"$env:UserProfile\\Documents\\MPS\\DCDCDesigner\")) {",
    "    cmd /c mklink /j \"$env:UserProfile\\Documents\\MPS\\DCDCDesigner\" \"$dir\\data\\DCDCDesigner\"",
    "}",
    "",
    ""
  ],
  "bin": [
    [
      "DCDCDesigner.exe",
      "MPS DCDCDesigner"
    ]
  ],
  "shortcuts": [
    [
      "DCDCDesigner.exe",
      "MPS DCDCDesigner"
    ]
  ],
  "persist": [
    "data"
  ]
}