{
    "version": "20230404",
    "description": "mpv 懒人包",
    "homepage": "https://github.com/hooke007/MPV_lazy",
    "license": "GPL-2.0-only",
    "architecture": {
        "64bit": {
            "url": "https://github.com/hooke007/MPV_lazy/releases/download/20230404/mpv-lazy-20230404.exe#/dl.7z",
            "hash": "54b71f657c940879cf000d3a28b555407957fd49a976564d4ee6da38e7884fbb",
            "extract_dir": "mpv-lazy"
        }
    },
    "bin": [
        [
            "mpv.exe",
            "mpvlazy"
        ]
    ],
    "shortcuts": [
        [
            "mpv.exe",
            "mpvlazy"
        ]
    ],
    "checkver": "github",
    "autoupdate": {
        "architecture": {
            "64bit": {
                "url": "https://github.com/hooke007/MPV_lazy/releases/download/$version/mpv-lazy-$version.exe#/dl.7z"
            }
        }
    }
}
