{
    "##": "Already defined in scoop-extras but the installation failed on my computer => This version only fixed the installer/uninstaller",
    "homepage": "https://github.com/mintty/wsltty",
    "version": "3.6.4",
    "license": "GPL-3.0-or-later",
    "architecture": {
        "64bit": {
            "url": "https://ghproxy.com/https://github.com/mintty/wsltty/releases/download/3.6.4/wsltty-3.6.4-x86_64-install.exe#/dl.7z",
            "hash": "b0a74f652a8201bfe41fb34d88877bdeb4a35f59752897a9e17871a706157f3d"
        },
        "32bit": {
            "url": "https://ghproxy.com/https://github.com/mintty/wsltty/releases/download/3.6.4/wsltty-3.6.4-i686-install.exe#/dl.7z",
            "hash": "4c4e7a5be701bff271340859a27fecdf9399123f8b5a391a3b4a6cb9813dbe30"
        }
    },
    "checkver": {
        "github": "https://github.com/mintty/wsltty"
    },
    "autoupdate": {
        "architecture": {
            "64bit": {
                "url": "https://ghproxy.com/https://github.com/mintty/wsltty/releases/download/$version/wsltty-$version-x86_64-install.exe#/dl.7z"
            },
            "32bit": {
                "url": "https://ghproxy.com/https://github.com/mintty/wsltty/releases/download/$version/wsltty-$version-i686-install.exe#/dl.7z"
            }
        }
    },
    "installer": {
        "script": [
            "Push-Location \"$dir\"",
            "& .\\install.bat",
            "Pop-Location"
        ],
        "keep": true
    },
    "uninstaller": {
        "script": [
            "Push-Location \"$dir\"",
            "& .\\uninstall.bat",
            "Pop-Location"
        ]
    },
    "_from": "okibcn/ScoopMaster"
}
