{
    "version": "2.1.5",
    "description": "projectdiscovery/naabu: A fast port scanner written in go with a focus on reliability and simplicity. Designed to be used in combination with other tools for attack surface discovery in bug bounties and pentests",
    "homepage": "https://github.com/projectdiscovery/naabu/",
    "license": "Freeware",
    "architecture": {
        "32bit": {
            "url": "https://ghproxy.com/https://github.com/projectdiscovery/naabu/releases/download/v2.1.5/naabu_2.1.5_windows_386.zip",
            "hash": "325d6af38187c86ed00c78e5cdc7ec5296874264789f9d3b7cd2329489ea19cb"
        },
        "64bit": {
            "url": "https://ghproxy.com/https://github.com/projectdiscovery/naabu/releases/download/v2.1.5/naabu_2.1.5_windows_amd64.zip",
            "hash": "b07198d9c5ea9ea6d62a0bedf67ec711f41ceff158ca34a71e7aebb18ff867b5"
        }
    },
    "bin": "naabu.exe",
    "checkver": "github",
    "autoupdate": {
        "architecture": {
            "32bit": {
                "url": "https://ghproxy.com/https://github.com/projectdiscovery/naabu/releases/download/v$version/naabu_$version_windows_386.zip"
            },
            "64bit": {
                "url": "https://ghproxy.com/https://github.com/projectdiscovery/naabu/releases/download/v$version/naabu_$version_windows_amd64.zip"
            }
        }
    },
    "_from": "ViCrack/scoop-bucket"
}
