{
  "version": "2023-04-13-153004",
  "architecture": {
    "64bit": {
      "url": "https://ghproxy.com/https://github.com/nais/device/releases/download/2023-04-13-153004/naisdevice-tenant.exe",
      "hash": "dcb820569377133460e45ab2b2bb0956699adce92af125618985bfb6eacd4fbb",
      "installer": {
        "script": [
          "Write-Output \"Executing installer at $dir\\$fname\"",
          "Invoke-ExternalCommand \"$dir\\$fname\" -RunAs | Out-Null"
        ]
      },
      "post_uninstall": [
        "if ($cmd -eq \"uninstall\") { Invoke-ExternalCommand \"$env:ProgramW6432\\NAV\\naisdevice\\uninstaller.exe\" -RunAs | Out-Null }"
      ]
    }
  },
  "autoupdate": {
    "64bit": {
      "url": "https://ghproxy.com/https://github.com/nais/device/releases/download/$version/naisdevice-tenant.exe"
    },
    "hash": {
      "url": "$url.sha256"
    }
  },
  "homepage": "https://github.com/nais/device",
  "checkver": "github",
  "license": "MIT",
  "description": "naisdevice is a application suite that enables NAV developers to connect to internal resources in a secure and friendly manner."
}