{
  "version": "2.61",
  "description": "流媒体NetFlix解锁检测脚本 / A script used to determine whether your network can watch native Netflix movies or not",
  "homepage": "https://github.com/sjlleo/netflix-verify",
  "license": "GNU General Public License v3.0",
  "architecture": {
    "64bit": {
      "url": "https://ghproxy.com/https://github.com/sjlleo/netflix-verify/releases/download/2.61/nf_2.61_windows_amd64.exe#/netflix-verify.exe",
      "hash": "83dadb91cd0ba9eb8b26c6c931ef59a0e97ddc15d607aa4423957e0649ff0fd5"
    },
    "32bit": {
      "url": "https://ghproxy.com/https://github.com/sjlleo/netflix-verify/releases/download/2.61/nf_2.61_windows_386.exe#/netflix-verify.exe",
      "hash": "bca8198cd3113eaea6cea94f115a5c028a737bf36585824f71ac023a63b29adb"
    }
  },
  "bin": "netflix-verify.exe",
  "_from": "ygguorun/scoop-bucket"
}