{
    "version": "2.0.0",
    "description": "An elegant music player built using Electron and React. Inspired by Oto Music for Android by Piyush Mamidwar.",
    "homepage": "https://github.com/Sandakan/Nora",
    "license": "MIT",
    "architecture": {
        "64bit": {
            "url": "https://github.com/Sandakan/Nora/releases/download/v2.0.0-stable/Nora.Setup.2.0.0-stable-windows.exe#/dl.7z",
            "hash": "90875d587466b41b8d9402131609e29560d5e78463ad71046417892a62b2f9af"
        }
    },
    "pre_install": [
        "Expand-7zipArchive \"$dir\\`$PLUGINSDIR\\app-64.7z\" \"$dir\" -Removal",
        "Remove-Item \"$dir\\`$*\", \"$dir\\uninst*\" -Recurse"
    ],
    "shortcuts": [
        [
            "Nora.exe",
            "Nora"
        ]
    ],
    "checkver": "github",
    "autoupdate": {
        "architecture": {
            "64bit": {
                "url": "https://github.com/Sandakan/Nora/releases/download/v$version-stable/Nora.Setup.$version-stable-windows.exe#/dl.7z"
            }
        }
    }
}
