{
    "version": "5.2.12",
    "homepage": "https://nordpass.com/",
    "description": "A password manager and generator app with an encrypted vault for secure passwords, created by the developers of NordVPN.",
    "license": {
        "identifier": "Freeware",
        "url": "https://my.nordaccount.com/legal/terms-of-service/nordpass/"
    },
    "architecture": {
        "64bit": {
            "url": "https://downloads.npass.app/windows/NordPassSetup.exe#/dl.7z",
            "hash": "sha512:8c04235fbb55c1ee2b43bdc53312bf81767d4eab470fe3b311d5cb215ef4d6ed3259d9567c375fda4288689b33f70bf5db17c0b3e424727690b99a800e2b44fc",
            "pre_install": "Expand-7zipArchive \"$dir\\app-64.7z\" $dir -Removal"
        }
    },
    "extract_dir": "$PLUGINSDIR",
    "shortcuts": [
        [
            "NordPass.exe",
            "NordPass"
        ]
    ],
    "checkver": {
        "url": "https://downloads.npass.app/windows/latest.yml",
        "regex": "version:\\s([\\d.]+)"
    },
    "autoupdate": {
        "architecture": {
            "64bit": {
                "url": "https://downloads.npass.app/windows/NordPassSetup.exe#/dl.7z",
                "hash": {
                    "url": "$baseurl/latest.yml",
                    "regex": "sha512:\\s$base64"
                }
            }
        }
    }
}
