{
  "architecture": {
    "32bit": {
      "hash": "c2498982d5f0416750012e282571f3736b5d63ce2b5a03bb9a9fe30313b7e7f0",
      "url": "https://ghproxy.com/https://github.com/zufuliu/notepad2/releases/download/v4.23.04r4766/Notepad2_zh-Hans_Win32_v4.23.04r4766.zip"
    },
    "64bit": {
      "hash": "81b9c061e7557df6d291ea599d0e5d0e5cd90a7130e957ef46e5c7663309310f",
      "url": "https://ghproxy.com/https://github.com/zufuliu/notepad2/releases/download/v4.23.04r4766/Notepad2_zh-Hans_x64_v4.23.04r4766.zip"
    }
  },
  "autoupdate": {
    "architecture": {
      "32bit": {
        "url": "https://ghproxy.com/https://github.com/zufuliu/notepad2/releases/download/v$version/Notepad2_zh-Hans_Win32_v$matchTag.zip"
      },
      "64bit": {
        "url": "https://ghproxy.com/https://github.com/zufuliu/notepad2/releases/download/v$version/Notepad2_zh-Hans_x64_v$matchTag.zip"
      }
    }
  },
  "bin": "Notepad2.exe",
  "checkver": {
    "regex": "download/v([\\d.r]+)/Notepad2_zh-Hans_Win32_v(?<tag>[\\d.r]+)\\.zip",
    "url": "https://api.github.com/repos/zufuliu/notepad2/releases/latest"
  },
  "description": "Notepad2-zufuliu is a light-weight Scintilla-based text editor for Windows with syntax highlighting, code folding, auto-completion and API list for about 80 programming languages/documents, bundled with file browser plugin metapath.",
  "homepage": "https://github.com/zufuliu/notepad2",
  "license": {
    "identifier": "BSD-3-Clause",
    "url": "https://github.com/zufuliu/notepad2/blob/main/License.txt"
  },
  "notes": "If you find any bugs or have any suggestions feel free to write proposals/issues or provide patches/pull requests.",
  "persist": [
    "Notepad2.ini",
    "metapath.ini"
  ],
  "shortcuts": [
    [
      "Notepad2.exe",
      "Notepad2"
    ]
  ],
  "version": "4.23.04r4766"
}