{
  "version": "1.0.4",
  "description": "Notify is a Go-based assistance package that enables you to stream the output of several tools (or read from a file) and publish it to a variety of supported platforms",
  "homepage": "https://projectdiscovery.io",
  "license": "MIT",
  "architecture": {
    "32bit": {
      "url": "https://ghproxy.com/https://github.com/projectdiscovery/notify/releases/download/v1.0.4/notify_1.0.4_windows_386.zip",
      "hash": "ce47894c89473f2cae7c1fb026bc315f6fb351b0e3340c487774642305340af2"
    },
    "64bit": {
      "url": "https://ghproxy.com/https://github.com/projectdiscovery/notify/releases/download/v1.0.4/notify_1.0.4_windows_amd64.zip",
      "hash": "bbf58d4effde29ce005e2d2577d21fc94fe5a2f61aac571784e0f03cde8ff1d2"
    }
  },
  "bin": "notify.exe",
  "checkver": {
    "github": "https://github.com/projectdiscovery/notify"
  },
  "autoupdate": {
    "architecture": {
      "32bit": {
        "url": "https://ghproxy.com/https://github.com/projectdiscovery/notify/releases/download/v$version/notify_$version_windows_386.zip"
      },
      "64bit": {
        "url": "https://ghproxy.com/https://github.com/projectdiscovery/notify/releases/download/v$version/notify_$version_windows_amd64.zip"
      }
    }
  },
  "_from": "ViCrack/scoop-bucket"
}