{
    "version": "2.9.2",
    "description": "Fast and customizable vulnerability scanner based on simple YAML based DSL",
    "homepage": "https://nuclei.projectdiscovery.io",
    "license": "MIT",
    "architecture": {
        "32bit": {
            "url": "https://ghproxy.com/https://github.com/projectdiscovery/nuclei/releases/download/v2.9.2/nuclei_2.9.2_windows_386.zip",
            "hash": "25bf4e81d525e6f8542bdcf7281fbfa3ae15aecf20990d297ce8f09333c01b00"
        },
        "64bit": {
            "url": "https://ghproxy.com/https://github.com/projectdiscovery/nuclei/releases/download/v2.9.2/nuclei_2.9.2_windows_amd64.zip",
            "hash": "a80bab683a7c81f231ee98682d43643900cabe2dccd4770bc53418d682e991bb"
        }
    },
    "bin": "nuclei.exe",
    "checkver": {
        "github": "https://github.com/projectdiscovery/nuclei"
    },
    "autoupdate": {
        "architecture": {
            "32bit": {
                "url": "https://ghproxy.com/https://github.com/projectdiscovery/nuclei/releases/download/v$version/nuclei_$version_windows_386.zip"
            },
            "64bit": {
                "url": "https://ghproxy.com/https://github.com/projectdiscovery/nuclei/releases/download/v$version/nuclei_$version_windows_amd64.zip"
            }
        }
    },
    "_from": "ViCrack/scoop-bucket"
}
