{
  "autoupdate": {
    "hash": {
      "mode": "extract",
      "regex": "(?s)$basename.*?$sha256",
      "url": "https://github.com/YerongAI/Office-Tool/releases/"
    },
    "url": "https://ghproxy.com/https://github.com/YerongAI/Office-Tool/releases/download/v$version/Office_Tool_v$version.zip"
  },
  "checkver": {
    "github": "https://github.com/YerongAI/Office-Tool"
  },
  "description": "Office Tool Plus is a powerful tool for deploy Office, Visio and Project. By using Office Tool Plus, you can deploy Office easily.",
  "extract_dir": "Office Tool",
  "hash": "bd0f20b98c002637a4301961e70a0cb2c19d873c446841c8d66ab6315d06c8e7",
  "homepage": "https://otp.landian.vip",
  "license": "GPL-3.0-only",
  "notes": [
    "Office-Tool without runtime, you need install .NET 5.0 Desktop Runtime x86 to run Office Tool Plus.",
    "",
    "Quick start: <https://github.com/YerongAI/Office-Tool/wiki>",
    "Documentation: <https://help.coolhub.top>"
  ],
  "persist": "Office",
  "shortcuts": [
    [
      "Office Tool Plus.exe",
      "Office Tool Plus"
    ]
  ],
  "url": "https://ghproxy.com/https://github.com/YerongAI/Office-Tool/releases/download/v10.1.3.4/Office_Tool_v10.1.3.4.zip",
  "version": "10.1.3.4"
}