{
    "version": "0.2.6",
    "url": "https://ghproxy.com/https://github.com/jrhawley/pad-path/releases/download/v0.2.6/pad_v0.2.6_x86_64-pc-windows-gnu.zip",
    "bin": "pad.exe",
    "hash": "b1a5dc98dbbebb99b42d9ca22732d887b17382116571fd122c40a2549d964e77",
    "homepage": "https://github.com/jrhawley/pad-path",
    "checkver": {
        "github": "https://github.com/jrhawley/pad-path"
    },
    "autoupdate": {
        "url": "https://ghproxy.com/https://github.com/jrhawley/pad-path/releases/download/v$version/pad_v$version_x86_64-pc-windows-gnu.zip"
    },
    "license": "MIT",
    "description": "Intuitively modify your `$PATH`.",
    "_from": "okibcn/ScoopMaster"
}
