{
    "version": "2.2.1",
    "description": "A simple academic paper management tool for computer science.",
    "homepage": "https://paperlib.app/",
    "license": "GPL-3.0-only",
    "architecture": {
        "64bit": {
            "url": "https://github.com/GeoffreyChen777/paperlib/releases/download/release-electron-2.2.1/Paperlib_2.2.1.exe#/dl.7z",
            "hash": "sha512:29561e6f8fcedb267e69d48f8a00c2c091d26a3c190c9aca0d7df9bc1df14aa964d9bc84311b441f416c97a47459b6b9da9660f0b914fc4444c6269fe08bfb31",
            "pre_install": [
                "Expand-7zipArchive \"$dir\\`$PLUGINSDIR\\app-64.7z\" \"$dir\"",
                "Remove-Item \"$dir\\`$PLUGINSDIR\", \"$dir\\`$R0\", \"$dir\\Uninstall*\", \"$dir\\resources\\app-update.yml\"  -Force -Recurse"
            ]
        }
    },
    "bin": "Paperlib.exe",
    "shortcuts": [
        [
            "Paperlib.exe",
            "Paperlib"
        ]
    ],
    "notes": "Chrome Extension: https://chrome.google.com/webstore/detail/paperlib/kgnpnfbjckgddlednhoblgfdfohhapng",
    "checkver": {
        "url": "https://paperlib.app/distribution/electron-win/latest.yml",
        "regex": "Paperlib_([\\d.]+).exe"
    },
    "autoupdate": {
        "architecture": {
            "64bit": {
                "url": "https://github.com/GeoffreyChen777/paperlib/releases/download/release-electron-$version/Paperlib_$version.exe#/dl.7z",
                "hash": {
                    "url": "https://paperlib.app/distribution/electron-win/latest.yml",
                    "regex": "sha512:\\s*$base64"
                }
            }
        }
    }
}
