{
    "version": "1.6.6",
    "description": "平安证券采用最新IT技术倾心为投资者打造的新一代PC金融终端。基于同花顺，支持科创版交易。",
    "homepage": "https://stock.pingan.com/static/info/download/index.html",
    "license": "Proprietary",
    "depends": "sudo",
    "url": "https://pacdn.stock.pingan.com/huodong/pa18download/ths_pc/2.38.0/pazq_thspc_v1.6.6.exe",
    "hash": "md5:6c8e78b112682a25f24eab040c54f411",
    "installer": {
        "args": [
            "/DIR=$dir",
            "/SILENT"
        ]
    },
    "post_install": [
        "if (Test-Path \"$dir\\setup.exe\") {",
        "    Remove-Item $dir\\setup.exe | Out-Null",
        "}"
    ],
    "uninstaller": {
        "script": "sudo $dir\\unins000.exe /SILENT"
    },
    "bin": [
        "hexin.exe",
        "unins000.exe"
    ],
    "shortcuts": [
        [
            "hexin.exe",
            "平安证券智投版"
        ]
    ],
    "checkver": {
        "url": "https://stock.pingan.com/noderestapi/frontend/softdown/info/1",
        "jsonpath": "$.results.list[?(@.title == '平安证券智投版')].downloadUrl",
        "regex": "(?<link>.*v(?<version>[\\d.]+).exe)"
    },
    "autoupdate": {
        "url": "$matchLink",
        "hash": {
            "url": "https://stock.pingan.com/noderestapi/frontend/softdown/info/1",
            "jsonpath": "$.results.list[?(@.title == '平安证券智投版')].MD5",
            "type": "md5",
            "mode": "json"
        }
    },
    "_from": "okibcn/ScoopMaster"
}
