{
    "autoupdate": {
        "url": "$matchPath"
    },
    "bin": "PDFPatcher.exe",
    "checkver": {
        "regex": "(?<path>https://github.com/wmjordan/PDFPatcher/files/[\\d]+/PDFPatcher\\.([\\d.]+)\\.7z\\.zip)",
        "url": "https://github.com/wmjordan/PDFPatcher/issues/2"
    },
    "description": "PDF toolbox, you can edit bookmarks, cut and rotate pages, lift restrictions, extract or merge documents, explore the structure of the document, extract images, convert to images, etc.",
    "hash": "2dcf42c13a805e8e39b59c1cb428e70f4492301328e157ba8e76a3202acb5cee",
    "homepage": "https://pdfpatcher.cnblogs.com",
    "license": {
        "identifier": "Proprietary",
        "url": "https://github.com/wmjordan/PDFPatcher/blob/master/%E6%8E%88%E6%9D%83%E5%8D%8F%E8%AE%AE.txt"
    },
    "persist": "AppConfig.json",
    "pre_install": "if (!(Test-Path \"$persist_dir\\AppConfig.json\")) { New-Item \"$dir\\AppConfig.json\" -ItemType \"file\" -Value \"{}\" | Out-Null }",
    "shortcuts": [
        [
            "PDFPatcher.exe",
            "PDFPatcher"
        ]
    ],
    "url": "https://github.com/wmjordan/PDFPatcher/files/11258550/PDFPatcher.1.0.0.4172.7z.zip",
    "version": "1.0.0.4172"
}
