{
    "version": "9.50",
    "description": "Spot artifacts of executable files in order to ease and accelerate Malware Initial Assessment.",
    "homepage": "https://www.winitor.com",
    "license": "Freeware",
    "url": "https://www.winitor.com/tools/pestudio/current/pestudio.zip",
    "hash": "2069d3ff8ba5b523d4ccc76a8c8191a1510f04dad75ea23e35eb0d14f8c97c07",
    "extract_dir": "pestudio",
    "shortcuts": [
        [
            "pestudio.exe",
            "pestudio"
        ]
    ],
    "persist": "xml\\settings.xml",
    "checkver": {
        "url": "https://www.winitor.com/tools/pestudio/changes.log",
        "regex": "Version ([\\d.]+)"
    },
    "autoupdate": {
        "url": "https://www.winitor.com/tools/pestudio/current/pestudio.zip"
    }
}
