{
  "version": "8.2.5",
  "description": "A popular general-purpose scripting language that is especially suited to web development. (non-thread safe)",
  "homepage": "https://windows.php.net/",
  "license": "PHP-3.01",
  "suggest": {
    "vcredist": "extras/vcredist2019"
  },
  "architecture": {
    "64bit": {
      "url": "https://windows.php.net/downloads/releases/php-8.2.5-nts-Win32-vs16-x64.zip",
      "hash": "3be89044ceff1ff32d12b42721986e82152fb0289f05a5f22d108b7ee353b42a"
    },
    "32bit": {
      "url": "https://windows.php.net/downloads/releases/php-8.2.5-nts-Win32-vs16-x86.zip",
      "hash": "bc1890b2a8ac865007fd35408907e26d07ab23f067adc64f0e922fc367053aba"
    }
  },
  "depends": "nssm",
  "pre_install": [
    "# Create directory for custom PHP configuration",
    "if (!(Test-Path \"$dir\\cli\\conf.d\")) {",
    "    (New-Item -Type directory \"$dir\\cli\\conf.d\") | Out-Null",
    "}",
    "Get-Service php81-nts -ErrorAction SilentlyContinue | Stop-Service"
  ],
  "post_install": [
    "# Enable extensions to be found in installation-relative folder (the default is to search C:/php)",
    "(Get-Content \"$dir\\cli\\php.ini\") | % { $_ -replace ';\\s?(extension_dir = \"ext\")', '$1' } | Set-Content \"$dir\\cli\\php.ini\"",
    "# Install as windows service",
    "nssm install php81-nts \"$dir\\php-cgi.exe\" \"-b 127.0.0.1:9081\"",
    "nssm set php81-nts AppEnvironmentExtra PHP_FCGI_CHILDREN=4 PHP_FCGI_MAX_REQUESTS=10000",
    "nssm start php81-nts"
  ],
  "uninstaller": {
    "script": "$null = nssm remove php81-nts confirm"
  },
  "notes": [
    "PHP 8.1 has been installed as a Windows Service with NSSM listening on port 9081: php81-nts",
    "",
    "To start/stop the service: `nssm start php81-nts`, nssm stop php81-nts"
  ],
  "bin": [
    "php.exe",
    "php-cgi.exe",
    "phpdbg.exe"
  ],
  "env_set": {
    "PHP_INI_SCAN_DIR": "$dir\\cli;$dir\\cli\\conf.d;"
  },
  "persist": [
    "cli",
    [
      "php.ini-production",
      "cli\\php.ini"
    ]
  ],
  "checkver": {
    "url": "https://windows.php.net/download/",
    "regex": "<h3 id=\"php-[\\d.]+\".*?>.*?\\(([\\d.]+)\\)</h3>"
  },
  "autoupdate": {
    "architecture": {
      "64bit": {
        "url": "https://windows.php.net/downloads/releases/php-$version-nts-Win32-vs16-x64.zip"
      },
      "32bit": {
        "url": "https://windows.php.net/downloads/releases/php-$version-nts-Win32-vs16-x86.zip"
      }
    },
    "hash": {
      "url": "$baseurl/sha256sum.txt"
    }
  },
  "_from": "okibcn/ScoopMaster"
}