{
  "version": "1.1.1",
  "description": "PikPak is a private cloud drive that can save your favorite files at high speed.",
  "homepage": "https://mypikpak.com/",
  "license": "Proprietary",
  "url": "https://static.mypikpak.com/desktop/official_PikPak.exe#/dl.7z",
  "hash": "62a77779066dd851162a9e417afa86927a7332d30c6ad3b4ba5e4a6b1cef2e38",
  "pre_install": [
    "Expand-7zipArchive \"$dir\\`$PLUGINSDIR\\app-32.7z\" \"$dir\"",
    "Remove-Item \"$dir\\`$PLUGINSDIR\" -Force -Recurse"
  ],
  "installer": {
    "script": [
      "$runtimeCache = \"$env:APPDATA\\PikPak\"",
      "$runtimeCachePersist = \"$persist_dir\\Cache\"",
      "if (Test-Path $runtimeCachePersist) {",
      "    Remove-Item $runtimeCache -Force -Recurse -ErrorAction SilentlyContinue",
      "    New-Item -Type Junction -Path $runtimeCache -Target $runtimeCachePersist | Out-Null",
      "} else {",
      "    if (Test-Path $runtimeCache) {",
      "        Move-Item $runtimeCache $runtimeCachePersist -Force",
      "        New-Item -Type Junction -Path $runtimeCache -Target $runtimeCachePersist | Out-Null",
      "    }",
      "}"
    ]
  },
  "uninstaller": {
    "script": [
      "$runtimeCache = \"$env:APPDATA\\PikPak\"",
      "$runtimeCachePersist = \"$persist_dir\\Cache\"",
      "if (!(Test-Path $runtimeCachePersist)) {",
      "    Move-Item $runtimeCache $runtimeCachePersist -Force",
      "} else {",
      "    Remove-Item $runtimeCache -Force -Recurse -ErrorAction SilentlyContinue",
      "}"
    ]
  },
  "shortcuts": [
    [
      "PikPak.exe",
      "PikPak"
    ]
  ],
  "_from": "akirco/aki-apps"
}