{
  "version": "1.2.1",
  "description": "pinentry-w32, no characters garbled",
  "homepage": "https://github.com/iquiw/pinentry-w32-ncg-binary",
  "license": "GPL-2.0-or-later",
  "architecture": {
    "64bit": {
      "url": "https://ghproxy.com/https://github.com/iquiw/pinentry-w32-ncg-binary/releases/download/1.2.1/pinentry-w32-ncg-v1.2.1.zip",
      "hash": "cdbfb233483cf7d3361336a31b1ae21d614242da68762d971ffe611c57846d4d"
    }
  },
  "checkver": "github",
  "autoupdate": {
    "architecture": {
      "64bit": {
        "url": "https://ghproxy.com/https://github.com/iquiw/pinentry-w32-ncg-binary/releases/download/$version/pinentry-w32-ncg-v$version.zip"
      }
    },
    "hash": {
      "url": "$baseurl/sha256sum.txt"
    }
  },
  "_from": "iquiw/scoop-bucket"
}