{
    "autoupdate": {
        "notes": [
            "由于使用了 hanximeng/LanzouAPI 的 API 演示地址以获取蓝奏云直链，",
            "下载可能失败，请重试直至成功。或去 https://afdian.net/@LTCat 手动下载 zip 文件，",
            "改名为 plain-craft-launcher#$version#https_api.hanximeng.com_lanzou_url_https_$matchDomain_$matchUri_type_down_dl.zip",
            "放入 scoop 的 cache 路径再运行安装命令。"
        ],
        "url": "https://api.hanximeng.com/lanzou/?url=https://$matchDomain/$matchUri&type=down#/dl.zip"
    },
    "checkver": {
        "regex": "\\\\u6700\\\\u65b0\\\\u6b63\\\\u5f0f\\\\u7248 - ([\\d.]+).+https:\\\\/\\\\/(?<domain>[\\w\\d]+\\.lanzou\\w\\.com)\\\\/(?<uri>[\\w\\d]+)\\\\",
        "url": "https://afdian.net/api/post/get-detail?post_id=0164034c016c11ebafcb52540025c377"
    },
    "description": "新一代 Minecraft / 我的世界 启动器",
    "hash": "83348c219505d208937dbf8c425743af931cd5d3b3405f26f71372ecc7b43e73",
    "homepage": "https://afdian.net/@LTCat",
    "license": {
        "identifier": "Freeware",
        "url": "https://shimo.im/docs/rGrd8pY8xWkt6ryW/read"
    },
    "notes": [
        "由于使用了 hanximeng/LanzouAPI 的 API 演示地址以获取蓝奏云直链，",
        "下载可能失败，请重试直至成功。或去 https://afdian.net/@LTCat 手动下载 zip 文件，",
        "改名为 plain-craft-launcher#2.4.4#https_api.hanximeng.com_lanzou_url_https_ltcat.lanzoum.com_ipFqY0itprkf_type_down_dl.zip",
        "放入 scoop 的 cache 路径再运行安装命令。"
    ],
    "persist": [
        "PCL",
        ".minecraft"
    ],
    "pre_install": [
        "ensure \"$persist_dir\\PCL\" | Out-Null",
        "ensure \"$persist_dir\\.minecraft\" | Out-Null",
        "$conf = \"$persist_dir\\PCL\\Setup.ini\"",
        "if (!(Test-Path \"$conf\")) {",
        "    $content = \"LaunchFolderSelect:$persist_dir\\.minecraft\\\"",
        "    Add-Content \"$conf\" \"$content\"",
        "}"
    ],
    "shortcuts": [
        [
            "Plain Craft Launcher 2.exe",
            "Plain Craft Launcher"
        ]
    ],
    "url": "https://api.hanximeng.com/lanzou/?url=https://ltcat.lanzoum.com/ia4ff0rbi28h&type=down#/dl.zip",
    "version": "2.5.2"
}
