{
  "version": "1.0.1",
  "description": "A powerful screen capture tool for Windows",
  "homepage": "https://postimages.org/app",
  "license": "Unknown",
  "notes": [
    "Postimage is a very easy to use application that was especially designed to provide you with the means of taking snapshots of your entire desktop or a portion of it.",
    "You can manually set the area size and after the capture is made, the image can be saved or shared online directly. Postimage can also send the URL of a shared screen shot to the system clipboard, so you can save it easily.",
    "Please note that this application is under active development. If you have any suggestions or bug reports, please use out contact form to leave us a message."
  ],
  "architecture": {
    "64bit": {
      "url": "https://postimages.org/setup.zip",
      "extract_dir": "PostimagePortable"
    }
  },
  "bin": "postimage.exe",
  "shortcuts": [
    [
      "postimage.exe",
      "Postimage"
    ]
  ],
  "_from": "Weidows-projects/scoop-3rd"
}