{
    "version": "0.7.0",
    "description": "Ping with TCP, TLS and HTTP.",
    "homepage": "https://github.com/wzv5/pping",
    "license": "MIT",
    "architecture": {
        "64bit": {
            "url": "https://ghproxy.com/https://github.com/wzv5/pping/releases/download/v0.7.0/pping_0.7.0_Windows_x86_64.zip",
            "hash": "224f66dee6c5778269635b0096cdb41e79f30c022d1849b058284081a69e4d9a"
        },
        "32bit": {
            "url": "https://ghproxy.com/https://github.com/wzv5/pping/releases/download/v0.7.0/pping_0.7.0_Windows_i386.zip",
            "hash": "b2aaf0a201f40c8ada8ac3e5a860bf261c5cb5f3db4d020d5cf60df2a5fba68c"
        }
    },
    "bin": "pping.exe",
    "checkver": "github",
    "autoupdate": {
        "architecture": {
            "64bit": {
                "url": "https://ghproxy.com/https://github.com/wzv5/pping/releases/download/v$version/pping_$version_Windows_x86_64.zip"
            },
            "32bit": {
                "url": "https://ghproxy.com/https://github.com/wzv5/pping/releases/download/v$version/pping_$version_Windows_i386.zip"
            }
        },
        "hash": {
            "url": "$baseurl/checksums.txt"
        }
    },
    "_from": "wzv5/ScoopBucket"
}
