{
    "version": "4.0.71",
    "description": "PrivaZer. A PC cleaner & Privacy tool.",
    "homepage": "https://privazer.com",
    "license": "Freeware",
    "changelog": "https://privazer.com/changelog.php",
    "url": "https://privazer.com/PrivaZer.exe",
    "hash": "82f83bd0bb161eec2e974a792bf2956be1a0eaba6fa457183b29b0b0694d49b7",
    "pre_install": "if (!(Test-Path \"$persist_dir\\PrivaZer.ini\")) { Set-Content -Encoding ASCII -Path \"$dir\\PrivaZer.ini\" -Value $null }",
    "persist": "PrivaZer.ini",
    "bin": "PrivaZer.exe",
    "shortcuts": [
        [
            "PrivaZer.exe",
            "PrivaZer"
        ]
    ],
    "checkver": {
        "url": "https://privazer.com/changelog.php",
        "regex": "v([\\d.]+)</strong>"
    },
    "autoupdate": {
        "url": "https://privazer.com/PrivaZer.exe"
    }
}
