{
  "homepage": "https://github.com/Paerhati/proton-releases/",
  "license": "MIT",
  "version": "0.0.4",
  "url": "https://ghproxy.com/https://github.com/Paerhati/proton-releases/releases/download/0.0.4/proton.zip",
  "hash": "4e824f23b0c9f3c11610020cd0f8dc9a7efcfa953fa7ca5fe90dab7c3e7bc58f",
  "extract_dir": "proton-0.0.4-win32-x64",
  "bin": "proton-win32-x64\\proton.exe",
  "checkver": {
    "github": "https://github.com/Paerhati/proton-releases"
  },
  "autoupdate": {
    "url": "https://ghproxy.com/https://github.com/Paerhati/proton-releases/releases/download/$version/proton.zip",
    "extract_dir": "proton-$version-win32-x64"
  },
  "shortcuts": [
    [
      "proton-win32-x64\\proton.exe",
      "Proton Launcher"
    ]
  ],
  "_from": "kiennq/scoop-misc"
}