{
  "version": "0.5.5",
  "description": "A PowerShell module consisting of an assortment of useful scripts.",
  "homepage": "https://github.com/ralish/PSWinGlue",
  "license": "",
  "url": "https://ghproxy.com/https://github.com/ralish/PSWinGlue/archive/v0.5.5.zip",
  "extract_dir": "PSWinGlue-0.5.5",
  "psmodule": {
    "name": "PSWinGlue"
  },
  "checkver": "github",
  "autoupdate": {
    "url": "https://ghproxy.com/https://github.com/ralish/PSWinGlue/archive/v$version.zip",
    "extract_dir": "PSWinGlue-$version"
  },
  "_from": "yuusakuri/scoop-bucket"
}