{
    "homepage": "https://psysh.org/",
    "version": "0.11.16",
    "description": "PsySH is a runtime developer console, interactive debugger and REPL for PHP.",
    "license": {
        "identifier": "MIT",
        "url": "https://github.com/bobthecow/psysh/blob/master/LICENSE"
    },
    "url": "https://ghproxy.com/https://github.com/bobthecow/psysh/releases/download/v0.11.16/psysh-v0.11.16.tar.gz",
    "hash": "e0512332da7b3114e3a5d6f56692aa09ad1eaf1ad6f742721b2d5998c0557591",
    "depends": "php",
    "##": "Creates file named psysh.ps1 that calls php",
    "pre_install": "echo \"php `\"$dir\\psysh`\" @args\" | out-file \"$dir\\psysh.ps1\"",
    "bin": "psysh.ps1",
    "checkver": {
        "github": "https://github.com/bobthecow/psysh",
        "regex": "\\/releases\\/tag\\/v([\\d.]+)"
    },
    "autoupdate": {
        "url": "https://ghproxy.com/https://github.com/bobthecow/psysh/releases/download/v$version/psysh-v$version.tar.gz"
    },
    "_from": "okibcn/ScoopMaster"
}
