{
  "version": "1.3.2",
  "description": "A multi-platform GUI for pass, the standard unix password manager.",
  "homepage": "https://github.com/IJHack/QtPass",
  "license": "GPL-3.0-only",
  "url": "https://ghproxy.com/https://github.com/IJHack/QtPass/releases/download/v1.3.2/qtpass-1.3.2.exe",
  "hash": "0FB9E68CE7E52E614EBB29DD9FC0B06B24F4262E9509090853E2C2991C171E72",
  "innosetup": true,
  "shortcuts": [
    [
      "qtpass.exe",
      "QtPass"
    ]
  ],
  "checkver": "github",
  "autoupdate": {
    "url": "https://ghproxy.com/https://github.com/IJHack/QtPass/releases/download/v$version/qtpass-$version.exe"
  },
  "_from": "kidonng/sushi"
}