{
  "version": "3.0.2",
  "description": "Quake Command-Line Application",
  "homepage": "https://quake.360.cn",
  "license": "Apache-2.0",
  "notes": "https://github.com/ViCrack/scoop-bucket/blob/master/bucket/quake_rs.json",
  "architecture": {
    "64bit": {
      "url": "https://ghproxy.com/https://github.com/360quake/quake_rs/releases/download/v3.0.2/quake_rs-windows-x86_64.zip",
      "hash": "a04aaa090462c494b253efb60a61309a31fd1aa25da79064fcd2639fac52d16c"
    }
  },
  "bin": "quake.exe",
  "checkver": {
    "github": "https://github.com/360quake/quake_rs"
  },
  "autoupdate": {
    "architecture": {
      "64bit": {
        "url": "https://ghproxy.com/https://github.com/360quake/quake_rs/releases/download/v$version/quake_rs-windows-x86_64.zip"
      }
    }
  },
  "_from": "ViCrack/scoop-bucket"
}