{
    "version": "1.3.357",
    "description": "Quarto is an academic, scientific, and technical publishing system built on Pandoc.",
    "homepage": "https://github.com/quarto-dev/quarto-cli",
    "license": "GPL-2.0",
    "url": "https://github.com/quarto-dev/quarto-cli/releases/download/v1.3.357/quarto-1.3.357-win.zip",
    "hash": "a9b4c09ecd49d3ea407d99f6f7ad90eaf4574f1c893ab847bce80bc910d2533e",
    "bin": "bin\\quarto.exe",
    "checkver": "github",
    "autoupdate": {
        "url": "https://github.com/quarto-dev/quarto-cli/releases/download/v$version/quarto-$version-win.zip"
    },
    "post_install": [
        "if (Test-Path $(appdir quarto-prerelease)) { ",
        "Write-Host -ForegroundColor DarkGreen \"",
        "NOTES",
        "-----",
        "+ You already had a stable version of quarto installed with scoop.",
        "+ Following this installation, 'quarto' will point to the stable version",
        "  + Use 'scoop reset quarto-prerelease' to switch back to pre-release version.",
        "  + Use 'scoop reset quarto' after that to activate the stable version",
        "\"}"
    ]
}
