{
    "homepage": "https://cran.r-project.org/bin/windows/base/rdevel.html",
    "description": "A free software environment for statistical computing and graphics.",
    "version": "r84338",
    "license": "GPL-2.0-only",
    "url": "https://cloud.r-project.org/bin/windows/base/R-devel-win.exe",
    "hash": "md5:da1097cd72f514bf4f037948a7f7682f",
    "innosetup": true,
    "architecture": {
        "64bit": {
            "bin": [
                "bin\\x64\\R.exe",
                "bin\\x64\\Rcmd.exe",
                "bin\\x64\\Rgui.exe",
                "bin\\x64\\Rscript.exe",
                "bin\\x64\\Rterm.exe"
            ],
            "shortcuts": [
                [
                    "bin\\x64\\Rgui.exe",
                    "R-devel"
                ]
            ]
        }
    },
    "notes": [
        "For source packages installation, you will need to install Rtools if not already present, and add to PATH in your .Renviron: https://cran.r-project.org/bin/windows/Rtools",
        "",
        "You'll need to type 'r.ps1' or 'r.cmd' to run R, because in Powershell 'r' runs the last command. Alternatively 'rterm' can be used to start the interactive R terminal session.",
        "",
        "You can remove Powershell's 'r' command with:",
        "    rm alias:\\r",
        "",
        "... but this only affects your current session: if you'd like to remove it for all future sessions you need to add the command above to your Powershell profile.",
        "",
        "Annoying, right?! You might want to check out Pshazz (scoop install pshazz)--this has a plugin to remove some crazy aliases from Powershell, as well as many other improvements."
    ],
    "checkver": {
        "url": "https://cran.r-project.org/bin/windows/base/rdevel.html",
        "regex": "(r\\d+)"
    },
    "autoupdate": {
        "url": "https://cloud.r-project.org/bin/windows/base/R-devel-win.exe",
        "hash": {
            "url": "$baseurl/md5sum.R-devel.txt"
        }
    }
}
