{
    "version": "p20230425",
    "description": "An AV1 video encoder designed to eventually cover all use cases.",
    "homepage": "https://github.com/xiph/rav1e",
    "license": "BSD-2-Clause",
    "architecture": {
        "64bit": {
            "url": "https://ghproxy.com/https://github.com/xiph/rav1e/releases/download/p20230425/rav1e.exe",
            "hash": "8ae7fc83065a23ff331dc20212fa27ffc02d90e8beab634799cc30872801c206"
        }
    },
    "bin": "rav1e.exe",
    "checkver": {
        "url": "https://github.com/xiph/rav1e/releases",
        "regex": "tag/(?<version>p[\\d.]+)"
    },
    "autoupdate": {
        "architecture": {
            "64bit": {
                "url": "https://ghproxy.com/https://github.com/xiph/rav1e/releases/download/$version/rav1e.exe"
            }
        }
    },
    "_from": "okibcn/ScoopMaster"
}
