{
  "homepage": "https://www.netbsd.org/~martin/rawrite32/index.html",
  "description": "A tool to prepare disks or other removeable media, especially USB memory sticks",
  "license": "BSD-2-Clause",
  "version": "1.0.10.0",
  "url": "https://www.netbsd.org/~martin/download/rawrite-1.0.10.0.zip",
  "hash": "d3c2f7df9f3e704b8273bd839cb333723abd307d5ad1e841604ac2fcbc5548b8",
  "bin": "Rawrite32.exe",
  "checkver": {
    "url": "https://www.netbsd.org/~martin/rawrite32/download.html",
    "re": "\"\\.\\./download/rawrite-([\\d.]+).zip\""
  },
  "autoupdate": {
    "url": "https://www.netbsd.org/~martin/download/rawrite-$version.zip",
    "extract_dir": "rawrite32-$version"
  },
  "_from": "iquiw/scoop-bucket"
}