{
  "homepage": "https://github.com/Col-E/Recaf",
  "description": "A modern Java bytecode editor https://col-e.github.io/Recaf/",
  "version": "2.21.13",
  "license": "MIT",
  "hash": "9d6cff1f9d4a7363027f53f4e85c8b74e235a2884463b7475fc1b83aee2d000e",
  "url": "https://ghproxy.com/https://github.com/Col-E/Recaf/releases/download/2.21.13/recaf-2.21.13-J8-jar-with-dependencies.jar",
  "suggest": {
    "JDK": [
      "java/oraclejdk",
      "java/openjdk"
    ]
  },
  "checkver": "github",
  "autoupdate": {
    "url": "https://ghproxy.com/https://github.com/Col-E/Recaf/releases/download/$version/recaf-$version-J8-jar-with-dependencies.jar"
  },
  "bin": "recaf.bat",
  "pre_install": [
    "\"@echo off",
    "FOR /F %%I IN ('DIR /S /B \"\"$dir\\recaf*.jar\"\"') DO SET V=%%I",
    "start \"\"recaf\"\" /B javaw -jar \"\"%V%\"\" %*\" | out-file -en oem \"$dir\\recaf.bat\""
  ],
  "_from": "TheCjw/scoop-retools"
}