{
    "version": "1.334",
    "description": "RegCool. RegCool is a very flexible editor for the Windows registry.",
    "homepage": "https://kurtzimmermann.com/regcoolext_en.html",
    "license": "freeware",
    "architecture": {
        "64bit": {
            "url": "https://kurtzimmermann.com/files/RegCoolX64.zip",
            "hash": "e4450569e4f66bc27f762d6880bab706e14c896516b413cf5585e0162ca84e33"
        },
        "32bit": {
            "url": "https://kurtzimmermann.com/files/RegCoolX32.zip",
            "hash": "9cd82fed77519ba1062a0555d067a05ff843e14fd941d22cc0aaad4a0d8e5d32"
        }
    },
    "persist": "Settings",
    "shortcuts": [
        [
            "RegCool.exe",
            "RegCool"
        ]
    ],
    "checkver": {
        "url": "https://kurtzimmermann.com/regcoolversions_en.html",
        "regex": ">v([\\d.]+)"
    },
    "autoupdate": {
        "architecture": {
            "64bit": {
                "url": "https://kurtzimmermann.com/files/RegCoolX64.zip"
            },
            "32bit": {
                "url": "https://kurtzimmermann.com/files/RegCoolX32.zip"
            }
        }
    },
    "_from": "okibcn/ScoopMaster"
}
