{
    "homepage": "https://katahiromz.web.fc2.com/re/en",
    "version": "5.7.4",
    "license": "GPL-3.0-only",
    "url": "https://github.com/katahiromz/RisohEditor/releases/download/5.7.4/RisohEditor-5.7.4-portable.zip",
    "hash": "99445f91c3817c1d24e4fb035ca753f8b852a6b15267af454b2e4906b50bcce5",
    "extract_dir": "RisohEditor-5.7.4-portable",
    "bin": "RisohEditorPortable.exe",
    "shortcuts": [
        [
            "RisohEditorPortable.exe",
            "RisohEditor"
        ]
    ],
    "persist": "RisohEditorPortable.ini",
    "checkver": {
        "github": "https://github.com/katahiromz/RisohEditor"
    },
    "autoupdate": {
        "url": "https://github.com/katahiromz/RisohEditor/releases/download/$version/RisohEditor-$version-portable.zip",
        "extract_dir": "RisohEditor-$version-portable"
    }
}
