{
  "version": "nightly",
  "description": "入梦方舟小工具",
  "homepage": "https://github.com/weiyourumeng/RM-ARKtools",
  "license": "GPL-3.0",
  "architecture": {
    "64bit": {
      "url": "https://ghproxy.com/https://github.com/weiyourumeng/RM-ARKtools/archive/refs/heads/main.zip",
      "hash": "FD2ADE2D31258BBE9BBF7326284C84A981D79E3F769F4DCC21CBF610CA0DC9FA",
      "extract_dir": "RM-ARKtools-main/入梦方舟小工具/bin/入梦方舟小工具"
    }
  },
  "bin": "入梦方舟小工具.exe",
  "shortcuts": [
    [
      "入梦方舟小工具.exe",
      "入梦方舟小工具"
    ]
  ],
  "_from": "Weidows-projects/scoop-3rd"
}