{
    "version": "devbuild-55631b7e",
    "description": "(Development Builds) A simple, light and easy-to-use RSS/ATOM feed aggregator developed using Qt framework which supports online feed synchronization.",
    "homepage": "https://github.com/martinrotter/rssguard/releases/tag/devbuild",
    "license": "GPL-3.0-only",
    "architecture": {
        "64bit": {
            "url": "https://github.com/martinrotter/rssguard/releases/download/devbuild/rssguard-devbuild-55631b7e-win10.7z",
            "hash": "498c2911f3b9bd5ee2c2c0c723c6e8bd6bc40082ab7e5d964d206802de9bc492"
        }
    },
    "pre_install": "if (!(Test-Path \"$persist_dir\\data4\\\")) { New-Item -Path \"$dir\\data4\\\" -ItemType Directory | Out-Null }",
    "persist": "data4",
    "shortcuts": [
        [
            "rssguard.exe",
            "RSS Guard"
        ]
    ],
    "checkver": {
        "url": "https://github.com/martinrotter/rssguard/releases/expanded_assets/devbuild",
        "regex": "rssguard-(?<major>[\\d\\w.]+)-(?<commit>[\\d\\w.]+)-win10\\.7z",
        "replace": "${major}-${commit}"
    },
    "autoupdate": {
        "architecture": {
            "64bit": {
                "url": "https://github.com/martinrotter/rssguard/releases/download/devbuild/rssguard-$matchMajor-$matchCommit-win10.7z"
            }
        }
    }
}
