{
    "version": "2023.05.0+319-daily",
    "homepage": "https://www.rstudio.com/",
    "description": "An IDE for R, which includes a console, syntax-highlighting editor that supports direct code execution, as well as tools for plotting, history, debugging and workspace management.",
    "license": "AGPL-3.0-only",
    "architecture": {
        "64bit": {
            "url": "https://s3.amazonaws.com/rstudio-ide-build/electron/windows/RStudio-2023.05.0-daily-319.zip",
            "hash": "37808c44195b23bbfa1044225835061b551782940665b649fe640c6ea78a4ff1"
        }
    },
    "bin": [
        [
            "rstudio.exe",
            "rstudio-daily-electron"
        ]
    ],
    "shortcuts": [
        [
            "rstudio.exe",
            "RStudio Daily Electron"
        ]
    ],
    "checkver": {
        "url": "https://dailies.rstudio.com/rstudio/latest/index.json",
        "jsonpath": ".products.electron.platforms['windows-xcopy'].version",
        "regex": "(?<date>[\\d.]+)(?<type>-(daily|preview))?\\+(?<build>\\d+)",
        "replace": "${date}+${build}${type}"
    },
    "autoupdate": {
        "architecture": {
            "64bit": {
                "url": "https://s3.amazonaws.com/rstudio-ide-build/electron/windows/RStudio-$matchDate$matchType-$matchBuild.zip",
                "hash": {
                    "mode": "json",
                    "jsonpath": ".products.electron.platforms['windows-xcopy'].sha256",
                    "url": "https://dailies.rstudio.com/rstudio/latest/index.json"
                }
            }
        }
    }
}
