{
  "architecture": {
    "64bit": {
      "hash": "063acf3186ceeaa6cd9a7df5efce3a212d293e581f82e38ab9153f137b278bcc",
      "url": "https://ghproxy.com/https://github.com/aler9/rtsp-simple-server/releases/download/v0.21.5/rtsp-simple-server_v0.21.5_windows_amd64.zip"
    }
  },
  "autoupdate": {
    "architecture": {
      "64bit": {
        "url": "https://ghproxy.com/https://github.com/aler9/rtsp-simple-server/releases/download/v$version/rtsp-simple-server_v$version_windows_amd64.zip"
      }
    }
  },
  "bin": "rtsp-simple-server.exe",
  "checkver": "github",
  "description": "ready-to-use RTSP / RTMP / HLS server and proxy that allows to read, publish and proxy video and audio streams.",
  "homepage": "https://github.com/aler9/rtsp-simple-server",
  "license": "MIT",
  "persist": "rtsp-simple-server.yml",
  "version": "0.21.5"
}