{
    "version": "2.9.0",
    "homepage": "https://runjs.dev/",
    "license": "Freeware",
    "description": "A JavaScript playground that auto-evaluates as you type.",
    "url": "https://ghproxy.com/https://github.com/lukehaas/RunJS/releases/download/v2.9.0/RunJS-Setup-2.9.0.exe#/dl.7z",
    "hash": "9dff3dafe681410891a402b996f756ec6cc465fbe85002b2c9d40b684a7cad0b",
    "pre_install": [
        "Expand-7zipArchive \"$dir\\`$PLUGINSDIR\\app-64.7z\" \"$dir\" -Removal",
        "Remove-Item \"$dir\\`$*\", \"$dir\\Uninstall*\" -Recurse"
    ],
    "shortcuts": [
        [
            "RunJS.exe",
            "RunJS"
        ]
    ],
    "bin": "RunJS.exe",
    "checkver": {
        "github": "https://github.com/lukehaas/RunJS",
        "regex": "tag/v([\\w.-]+)"
    },
    "autoupdate": {
        "url": "https://ghproxy.com/https://github.com/lukehaas/RunJS/releases/download/v$version/RunJS-Setup-$version.exe#/dl.7z"
    },
    "_from": "akirco/aki-apps"
}
