{
    "version": "1.1.826",
    "description": "Nintendo Switch emulator",
    "homepage": "https://ryujinx.org/",
    "license": {
        "url": "https://github.com/Ryujinx/Ryujinx/blob/master/LICENSE.txt",
        "identifier": "MIT"
    },
    "architecture": {
        "64bit": {
            "url": "https://github.com/Ryujinx/release-channel-master/releases/download/1.1.826/ryujinx-1.1.826-win_x64.zip",
            "hash": "044b05c40e5530e17a13063871823f124175fb82c2c89e5a292f8389b71aef7b"
        }
    },
    "extract_dir": "publish",
    "pre_install": [
        "if (!(Test-Path \"$persist_dir\")) {",
        "   New-item \"$persist_dir\\portable\" -ItemType Directory | Out-Null",
        "   if (Test-Path \"$env:APPDATA\\Ryujinx\") {",
        "       Write-host \"Migrating AppData...\" -ForegroundColor yellow",
        "       Copy-Item -Path \"$env:APPDATA\\Ryujinx\\*\" -Destination \"$persist_dir\\portable\" -Recurse",
        "       Remove-Item -Path \"$env:APPDATA\\Ryujinx\" -Recurse",
        "   }",
        "}"
    ],
    "bin": "Ryujinx.exe",
    "shortcuts": [
        [
            "Ryujinx.exe",
            "Ryujinx"
        ]
    ],
    "persist": "portable",
    "checkver": {
        "github": "https://github.com/Ryujinx/release-channel-master"
    },
    "autoupdate": {
        "architecture": {
            "64bit": {
                "url": "https://github.com/Ryujinx/release-channel-master/releases/download/$version/ryujinx-$version-win_x64.zip"
            }
        }
    },
    "notes": [
        "ATTENTION: Ryujinx requires Nintendo Switch firmware and a prod.keys file to function.",
        "Learn more at https://github.com/Ryujinx/Ryujinx/wiki/Ryujinx-Setup-&-Configuration-Guide"
    ]
}
