{
    "version": "10.9.9",
    "description": "S3 Browser Freeware. Manage your Amazon S3 Buckets and Fikes with ease.",
    "homepage": "https://s3browser.com/",
    "license": {
        "identifier": "Freeware"
    },
    "url": "https://s3browser.com/download/s3browser-10-9-9.zip",
    "extract_dir": "S3 Browser",
    "hash": "813009d79f4af7cda43715180f386b237b6f46a58168d84efb214b05d53648d1",
    "bin": [
        [
            "s3browser-cli.exe",
            "s3browser"
        ]
    ],
    "shortcuts": [
        [
            "s3browser-win32.exe",
            "S3 Browser"
        ]
    ],
    "checkver": {
        "url": "https://s3browser.com/download.aspx",
        "regex": "s3browser-(?<major>\\d+)-(?<minor>\\d+)-(?<build>\\d+).zip",
        "replace": "${major}.${minor}.${build}"
    },
    "autoupdate": {
        "url": "https://s3browser.com/download/s3browser-$matchMajor-$matchMinor-$matchBuild.zip"
    },
    "_from": "scoopcn/scoopcn"
}
