{
    "version": "1.81.0",
    "description": "SAM-CLI",
    "homepage": "https://github.com/aws/aws-sam-cli/",
    "license": "Apache 2.0",
    "architecture": {
        "64bit": {
            "url": "https://ghproxy.com/https://github.com/aws/aws-sam-cli/releases/download/v1.81.0/AWS_SAM_CLI_64_PY3.msi",
            "hash": "ea74e364263fe3eeaa77d628c50dd3d867a30f29a3d2d61a6d2df2e07a0598fe"
        }
    },
    "bin": [
        [
            "Amazon\\AWSSAMCLI\\bin\\sam.cmd",
            "sam"
        ]
    ],
    "checkver": "github",
    "autoupdate": {
        "architecture": {
            "64bit": {
                "url": "https://ghproxy.com/https://github.com/aws/aws-sam-cli/releases/download/v$version/AWS_SAM_CLI_64_PY3.msi"
            }
        }
    },
    "_from": "okibcn/ScoopMaster"
}
