{
    "version": "0.40.6",
    "description": "This is SARASA GOTHIC, a CJK programming font based on Iosevka and Source Han Sans.",
    "homepage": "https://github.com/be5invis/Sarasa-Gothic",
    "url": [
        "https://ghproxy.com/https://github.com/be5invis/Sarasa-Gothic/releases/download/v0.40.6/sarasa-gothic-ttc-0.40.6.7z",
        "https://ghproxy.com/https://gist.githubusercontent.com/kltk/d3aa9225beecc508a098c6f4bc895420/raw/1ee0850c2c424fc90cb16875e86a57a0ee3a455f/font.ps1"
    ],
    "hash": [
        "007b250e2601417731a3c5d587518c64347c2c95efcc91e5e21ae2b1f865b443",
        "62d2901ee102e2210052b595d2a73caf322155f9833baba89227b2fe03cb5c52"
    ],
    "installer": {
        "script": "Invoke-Expression \"$dir/font.ps1 Add $dir\""
    },
    "uninstaller": {
        "script": [
            "Invoke-Expression \"$dir/font.ps1 Add $dir\"",
            "Write-Host \"The 'Sarasa-Gothic' Font family has been uninstalled and will not be present after restarting your computer.\" -Foreground Magenta"
        ]
    },
    "checkver": {
        "github": "https://github.com/be5invis/Sarasa-Gothic"
    },
    "autoupdate": {
        "url": "https://ghproxy.com/https://github.com/be5invis/Sarasa-Gothic/releases/download/v$version/sarasa-gothic-ttc-$version.7z"
    },
    "_from": "okibcn/ScoopMaster"
}
