{
    "version": "2.1.11",
    "description": "Image and Video screen capture",
    "homepage": "https://www.screenpresso.com/",
    "license": "Freeware",
    "url": "https://www.screenpresso.com/binaries/releases/stable/dotnet47/Screenpresso.exe",
    "hash": "a2f8a6fbcb0d51fdb18c3c274d3a995875552c6626075efc0d44e67f911988ac",
    "shortcuts": [
        [
            "Screenpresso.exe",
            "Screenpresso"
        ]
    ],
    "checkver": {
        "url": "https://www.screenpresso.com/download/",
        "regex": "Latest version .([\\d.]+)"
    },
    "autoupdate": {
        "url": "https://www.screenpresso.com/binaries/releases/stable/dotnet47/Screenpresso.exe"
    },
    "_from": "okibcn/ScoopMaster"
}
