{
    "version": "3.1",
    "description": "Google Hacking Diggity是一个利用搜索引擎（如 Google、Bing）快速识别系统弱点和敏感数据的工具集项目",
    "homepage": "https://resources.bishopfox.com/resources/tools/google-hacking-diggity/attack-tools/",
    "notes": "https://github.com/arch3rPro/scoop-bucket/blob/main/bucket/searchdiggity.json",
    "license": "MIT",
    "architecture": {
        "64bit": {
            "url": "https://resources.bishopfox.com/files/tools/googlediggity/searchdiggity/SearchDiggity_v3.1.0-MSI.zip",
            "hash": "4390c278da02269c20e657d97b2bb17040f72c9e5cb2003ee135eca42aca7dec"
        }
    },
    "bin": "SearchDiggity.exe",

}
