{
    "version": "67.7.2",
    "homepage": "https://github.com/pypa/setuptools",
    "description": "Library designed to facilitate packaging Python projects.",
    "license": "MIT",
    "depends": "python-bucket-utils",
    "url": "https://ghproxy.com/https://github.com/pypa/setuptools/archive/v67.7.2.zip",
    "hash": "f176d89e0ac721112142f5776a73c204e20afdfffdd27a4fd0bb8ea0aefcdbef",
    "extract_dir": "setuptools-67.7.2",
    "installer": {
        "script": [
            "if ($global) { install-python-package --global --quiet --dir $dir }",
            "else { install-python-package --quiet --dir $dir }",
            "if ($LASTEXITCODE) { exit 1 }"
        ]
    },
    "uninstaller": {
        "script": [
            "if ($global) { uninstall-python-package $app --global --dir $dir --match '.*' }",
            "else { uninstall-python-package $app --dir $dir --match '.*' }"
        ]
    },
    "checkver": {
        "url": "https://api.github.com/repos/pypa/setuptools/tags",
        "regex": "v([\\d.]+)"
    },
    "autoupdate": {
        "url": "https://ghproxy.com/https://github.com/pypa/setuptools/archive/v$version.zip",
        "extract_dir": "setuptools-$version"
    },
    "_from": "TheRandomLabs/Scoop-Python"
}
