{
  "version": "5.3.1.1",
  "description": "ShanaEncoder is audio/video encoding program based on FFmpeg.",
  "homepage": "https://shana.pe.kr",
  "license": {
    "identifier": "Freeware",
    "url": "https://shana.pe.kr/license"
  },
  "url": "https://www.videohelp.com/download/ShanaEncoder5.3.1.1.exe#/dl.7z",
  "hash": "d87f8df2777f52ec4e35b63f1d1a0611e3d17d00674e91f299a87fb7b4ed83ba",
  "shortcuts": [
    [
      "ShanaEncoder.exe",
      "ShanaEncoder"
    ]
  ],
  "post_install": "Remove-Item \"$dir\\`$PLUGINSDIR\" -Force -Recurse",
  "checkver": {
    "url": "https://www.videohelp.com/software/ShanaEncoder",
    "regex": "ShanaEncoder ([\\d.]+) Free Download"
  },
  "autoupdate": {
    "url": "https://www.videohelp.com/download/ShanaEncoder$version.exe#/dl.7z"
  },
  "_from": "ygguorun/scoop-bucket"
}