{
  "version": "0.0.2",
  "architecture": {
    "64bit": {
      "url": "https://ghproxy.com/https://github.com/bbkane/shovel/releases/download/v0.0.2/shovel_0.0.2_windows_amd64.tar.gz",
      "bin": [
        "shovel.exe"
      ],
      "hash": "b5604b69adc25c3af0a1ddcde1c299f9fe63d6bf2b013bef4564a8f2b2fffe8d"
    }
  },
  "homepage": "https://github.com/bbkane/shovel",
  "license": "MIT",
  "description": "Example Go CLI to model tooling"
}