{
  "version": "1.32.1",
  "description": "Cross-platform mind mapping tool",
  "homepage": "https://simplemind.eu",
  "license": {
    "identifier": "Proprietary"
  },
  "url": "https://simpleapps.eu/simplemind/SMP1_PZvgnDW8wg5Mc5XXQQq/SimpleMindPro1321b6247Setup.exe",
  "hash": "219aa4744497cb09b6b9042243956b6ea7a12a7bd1de2b05cfda944853d04813",
  "innosetup": true,
  "shortcuts": [
    [
      "SimpleMindPro.exe",
      "SimpleMind"
    ]
  ],
  "checkver": {
    "url": "https://simpleapps.eu/download/full-edition/simplemind-pro-windows/",
    "regex": "<b>Version: (?<version>[\\d.]+) (?<build>b[\\d]+)"
  },
  "autoupdate": {
    "url": "https://simpleapps.eu/simplemind/SMP1_PZvgnDW8wg5Mc5XXQQq/SimpleMindPro$cleanVersion$matchBuildSetup.exe"
  },
  "_from": "okibcn/ScoopMaster"
}