{
  "version": "1.9.0",
  "description": "Simple Golang SMTP relay/proxy server",
  "homepage": "https://github.com/decke/smtprelay",
  "license": "MIT",
  "architecture": {
    "64bit": {
      "url": "https://ghproxy.com/https://github.com/decke/smtprelay/releases/download/v1.9.0/smtprelay-v1.9.0-windows-amd64.zip",
      "hash": "md5:b505ac3de37b2e2cb17fde68227a004f"
    }
  },
  "bin": [
    [
      "smtprelay.exe",
      "smtprelay",
      "-config \"$dir\\smtprelay.ini\""
    ]
  ],
  "persist": "smtprelay.ini",
  "checkver": "github",
  "autoupdate": {
    "architecture": {
      "64bit": {
        "url": "https://ghproxy.com/https://github.com/decke/smtprelay/releases/download/v$version/smtprelay-v$version-windows-amd64.zip"
      }
    },
    "hash": {
      "url": "$url.md5"
    }
  },
  "_from": "iquiw/scoop-bucket"
}