{
  "version": "1.1.0",
  "description": "Custom app for Spicetify that adds a JQBX tab.",
  "homepage": "https://github.com/Kasama/spicetify-jqbx",
  "license": "Freeware",
  "depends": "spicetify-cli",
  "url": "https://ghproxy.com/https://github.com/Kasama/spicetify-jqbx/archive/v1.1.0.zip",
  "hash": "cadff6dbd8fc3e45afbbcb8d6a977adaac4c6c5eed3fa7ea5853b285e45eb894",
  "installer": {
    "script": [
      "if ($global) {",
      "    Write-Host \"$app cannot be installed globally.\" -Foreground Red",
      "    exit 1",
      "}",
      "",
      "$spotify_path = get-spotify-path",
      "",
      "if (-not (Test-Path $spotify_path)) {",
      "    Write-Host \"Spotify must be installed to install $app.\" -Foreground Red",
      "    exit 1",
      "}",
      "",
      "$spicetify_jqbx_dir = \"$env:USERPROFILE\\.spicetify\\CustomApps\\JQBX\"",
      "",
      "Remove-Item -ErrorAction Ignore -Recurse $spicetify_jqbx_dir",
      "Copy-Item -Force -Recurse \"$dir\\spicetify-jqbx-$version\" -Destination $spicetify_jqbx_dir",
      "",
      "$spotify_running = Get-Process -ErrorAction Ignore -Name Spotify",
      "init-spicetify-config",
      "spicetify config custom_apps JQBX --quiet",
      "spicetify-apply -quiet",
      "if ($spotify_running) { Start-Process $spotify_path }"
    ]
  },
  "uninstaller": {
    "script": [
      "Remove-Item -Recurse -ErrorAction Ignore \"$env:USERPROFILE\\.spicetify\\CustomApps\\spicetify-jqbx\"",
      "if (installed spicetify-cli) {",
      "    spicetify config custom_apps JQBX- --quiet",
      "    init-spicetify-config-and-apply",
      "}"
    ]
  },
  "checkver": "github",
  "autoupdate": {
    "url": "https://ghproxy.com/https://github.com/Kasama/spicetify-jqbx/archive/v$version.zip"
  },
  "_from": "TheRandomLabs/Scoop-Spotify"
}