{
  "version": "v1.0.0-beta.36",
  "url": "https://github.com/Floogen/Stardrop/releases/latest/download/Stardrop-win-x64.zip",
  "extract_dir": "stardrop",
  "bin": "Stardrop.exe",
  "shortcuts": [
    [
      "Stardrop.exe",
      "Stardrop"
    ]
  ]
}