{
  "version": "1.0.40",
  "description": "自动化学习强国,每日稳定45分，克隆自原作者johlanse的项目",
  "homepage": "https://github.com/sjkhsl/study_xxqg",
  "license": {
    "identifier": "AGPL-3.0 license",
    "url": "https://github.com/sjkhsl/study_xxqg/blob/main/LICENSE"
  },
  "notes": "文档地址: <https://github.com/sjkhsl/study_xxqg#windows使用教程>",
  "architecture": {
    "64bit": {
      "url": "https://ghproxy.com/https://github.com/sjkhsl/study_xxqg/releases/download/v1.0.40/study_xxqg_windows_amd64.zip",
      "hash": "1efd463a4be88d9c1ad0792ff3f7ad100aa48989850681adf65e0fd144144044"
    },
    "32bit": {
      "url": "https://ghproxy.com/https://github.com/sjkhsl/study_xxqg/releases/download/v1.0.40/study_xxqg_windows_386.zip",
      "hash": "72e3b860754157b190b0c438578b89f04c9e562ea2d853ebd702e28ea75e2b3e"
    }
  },
  "pre_install": "Get-ChildItem \"$dir\\study_xxqg*.exe\" | Rename-Item -NewName 'study_xxqg.exe'",
  "bin": "study_xxqg.exe",
  "shortcuts": [
    [
      "study_xxqg.exe",
      "study_xxqg"
    ]
  ],
  "persist": [
    "config",
    "tools"
  ],
  "checkver": {
    "url": "https://api.github.com/repos/sjkhsl/study_xxqg/releases",
    "regex": "(?sm)browser_download_url.*?releases/download/v([\\d.]+)/(?<x86>(?:study_xxqg_)?windows_386\\.zip).*?(?<x64>(?:study_xxqg_)?windows_amd64\\.zip)"
  },
  "autoupdate": {
    "architecture": {
      "64bit": {
        "url": "https://ghproxy.com/https://github.com/sjkhsl/study_xxqg/releases/download/v$version/$matchX64"
      },
      "32bit": {
        "url": "https://ghproxy.com/https://github.com/sjkhsl/study_xxqg/releases/download/v$version/$matchX86"
      }
    }
  }
}