{
    "version": "0.7.0-r1279",
    "description": "A manga reader compatible with Tachiyomi extensions and backups",
    "homepage": "https://github.com/Suwayomi/Tachidesk-Server",
    "license": {
        "identifier": "MPL-2.0",
        "url": "https://github.com/Suwayomi/Tachidesk-Server/blob/master/LICENSE"
    },
    "architecture": {
        "64bit": {
            "url": "https://github.com/Suwayomi/Tachidesk-Server-preview/releases/download/v0.7.0-r1279/Tachidesk-Server-v0.7.0-r1279-windows-x64.zip",
            "hash": "f21646dc2f5c648f6f14988cceccb6f3d1478a4b177257442aecae41aeb117e3",
            "extract_dir": "Tachidesk-Server-v0.7.0-r1279-windows-x64"
        },
        "32bit": {
            "url": "https://github.com/Suwayomi/Tachidesk-Server-preview/releases/download/v0.7.0-r1279/Tachidesk-Server-v0.7.0-r1279-windows-x86.zip",
            "hash": "a27e4998314b4384a1e9b9fdf6cddf9bb5fe0faf0f44565b9499dd3d840cfbcb",
            "extract_dir": "Tachidesk-Server-v0.7.0-r1279-windows-x86"
        }
    },
    "pre_install": "Copy-Item \"$bucketsdir\\versions\\scripts\\tachidesk-server-preview\\tachidesk*.ps1\" -Destination \"$dir\"",
    "bin": [
        "tachidesk.ps1",
        "tachidesk-electron.ps1",
        "tachidesk-debug.ps1"
    ],
    "checkver": {
        "github": "https://github.com/Suwayomi/Tachidesk-Server-preview",
        "regex": "v([\\d.]+-r[\\d]+)"
    },
    "autoupdate": {
        "architecture": {
            "64bit": {
                "url": "https://github.com/Suwayomi/Tachidesk-Server-preview/releases/download/v$version/Tachidesk-Server-v$version-windows-x64.zip",
                "extract_dir": "Tachidesk-Server-v$version-windows-x64"
            },
            "32bit": {
                "url": "https://github.com/Suwayomi/Tachidesk-Server-preview/releases/download/v$version/Tachidesk-Server-v$version-windows-x86.zip",
                "extract_dir": "Tachidesk-Server-v$version-windows-x86"
            }
        }
    }
}
