{
    "version": "1.40.0",
    "description": "Tailscale. a WireGuard based mesh VPN, used to connect your computers and other devices together securely without proxies.",
    "homepage": "https://tailscale.com",
    "license": "BSD-3-Clause",
    "changelog": "https://tailscale.com/changelog/",
    "notes": [
        "Start Tailscale with Windows by running:",
        "reg import \"$dir\\add-startup.reg\""
    ],
    "architecture": {
        "64bit": {
            "url": "https://pkgs.tailscale.com/stable/tailscale-setup-1.40.0-amd64.msi",
            "hash": "1a87465347e1d32cd6dda6e660653ec03f944cac69f50e35670183e87e394d80"
        },
        "32bit": {
            "url": "https://pkgs.tailscale.com/stable/tailscale-setup-1.40.0-x86.msi",
            "hash": "67501c884b93715506d35362d2cf1b645f8bd65c6f411aee3c9818819efe4002"
        },
        "arm64": {
            "url": "https://pkgs.tailscale.com/stable/tailscale-setup-1.40.0-arm64.msi",
            "hash": "f5de3388fae970ab1aa3f4e02ccce60a44e4546f926584b03264b9f432682f0c"
        }
    },
    "pre_install": "if (!(is_admin)) {error 'This package requires admin rights to install'; break}",
    "post_install": [
        "tailscale-ipn.exe /install",
        "$dirpath = $dir.Replace('\\', '\\\\')",
        "'add-startup.reg', 'remove-startup.reg' | ForEach-Object {",
        "    if (Test-Path \"$bucketsdir\\extras\\scripts\\$app\\$_\") {",
        "        $content = Get-Content \"$bucketsdir\\extras\\scripts\\$app\\$_\"",
        "        $content = $content.Replace('$dir', $dirpath)",
        "        if ($global) { $content = $content.Replace('HKEY_CURRENT_USER', 'HKEY_LOCAL_MACHINE') }",
        "        $content | Set-Content -Path \"$dir\\$_\"",
        "    }",
        "}"
    ],
    "pre_uninstall": [
        "if (!(is_admin)) { error 'Admin rights are required to uninstall'; break }",
        "Stop-Process -Name 'tailscale-ipn' -Force -ErrorAction SilentlyContinue | Out-Null",
        "Stop-Service -Name 'Tailscale' -Force -ErrorAction SilentlyContinue | Out-Null"
    ],
    "uninstaller": {
        "script": [
            "tailscale-ipn.exe /uninstall",
            "if ($cmd -eq 'uninstall') { reg import \"$dir\\remove-startup.reg\" }"
        ]
    },
    "extract_dir": "Tailscale",
    "bin": [
        "tailscale.exe",
        "tailscale-ipn.exe",
        "tailscaled.exe"
    ],
    "shortcuts": [
        [
            "tailscale-ipn.exe",
            "Tailscale"
        ]
    ],
    "checkver": {
        "url": "https://pkgs.tailscale.com/stable/",
        "regex": "tailscale-setup-([\\d.]+)-amd64\\.msi"
    },
    "autoupdate": {
        "architecture": {
            "64bit": {
                "url": "https://pkgs.tailscale.com/stable/tailscale-setup-$version-amd64.msi"
            },
            "32bit": {
                "url": "https://pkgs.tailscale.com/stable/tailscale-setup-$version-x86.msi"
            },
            "arm64": {
                "url": "https://pkgs.tailscale.com/stable/tailscale-setup-$version-arm64.msi"
            }
        },
        "hash": {
            "url": "$url.sha256"
        }
    }
}
