{
    "architecture": {
        "64bit": {
            "hash": "sha512:fe71eb9f32f3fbab515b71d2d10c36e4b6246e2100bcf639b66b2df5629167549d5ab3ff68ff57d2990dfc16d5f9fce6a233f525582291f4fa08bf90a671d1e5",
            "url": "https://ghproxy.com/https://github.com/siderolabs/talos/releases/download/v1.4.0/talosctl-windows-amd64.exe#/talosctl.exe"
        }
    },
    "autoupdate": {
        "architecture": {
            "64bit": {
                "url": "https://ghproxy.com/https://github.com/siderolabs/talos/releases/download/v$version/talosctl-windows-amd64.exe#/talosctl.exe"
            }
        },
        "hash": {
            "url": "$baseurl/sha512sum.txt"
        }
    },
    "bin": "talosctl.exe",
    "checkver": {
        "github": "https://github.com/siderolabs/talos"
    },
    "description": "talosctl is a CLI tool which interfaces with the Talos API in an easy manner.",
    "homepage": "https://www.talos.dev",
    "license": "MPL-2.0",
    "version": "1.4.0"
}
