{
  "version": "2020.05",
  "description": "TBToolbox - the purest hardware toolbox",
  "homepage": "https://www.tbtool.cn/",
  "license": {
    "identifier": "Freeware"
  },
  "url": "https://list.nb.gl/OD_scoop/apt-cdn/TBToolBox/2020.05/tbtool.7z",
  "hash": "8a9044a4459bd6187df9ade725ac8e5db706882cdea04f3eec3bc03a19c3a21f",
  "shortcuts": [
    [
      "tbTools.bat",
      "Open tb-ToolBox folder"
    ]
  ],
  "checkver": {
    "url": "http://www.weidown.com/xiazai/1437.html",
    "regex": "(\\d{4}\\.\\d{2})"
  },
  "_from": "Paxxs/Cluttered-bucket"
}