{
    "version": "15.41.8",
    "description": "TeamViewer. Software for remote control, desktop sharing, online meetings, web conferencing and file transfer between computers.",
    "homepage": "https://www.teamviewer.com",
    "license": {
        "identifier": "Shareware",
        "url": "https://www.teamviewer.com/en/eula/"
    },
    "changelog": "https://community.teamviewer.com/English/categories/change-logs-en",
    "url": "https://download.teamviewer.com/download/version_15x/TeamViewerPortable.zip",
    "hash": "51f9dd7780d7698834348de6b9cc60dbc3759eddf3289ea6ff78b969f26416c3",
    "shortcuts": [
        [
            "TeamViewer.exe",
            "TeamViewer"
        ]
    ],
    "persist": "teamviewer.ini",
    "checkver": {
        "url": "https://www.teamviewer.com/en/download/windows/",
        "regex": "Current version:.*?([\\d.]+)"
    },
    "autoupdate": {
        "url": "https://download.teamviewer.com/download/version_$majorVersionx/TeamViewerPortable.zip"
    }
}
