{
    "version": "4.8.1",
    "description": "Telegram. A messaging app with a focus on speed and security",
    "homepage": "https://telegram.org",
    "license": "GPL-3.0-only",
    "changelog": "https://github.com/telegramdesktop/tdesktop/releases",
    "architecture": {
        "64bit": {
            "url": "https://updates.tdesktop.com/tx64/tportable-x64.4.8.1.zip",
            "hash": "8ab19cd165ca34320b58eee4e7b171814dce143a43b2de2770e04f974e0198e7"
        },
        "32bit": {
            "url": "https://updates.tdesktop.com/tsetup/tportable.4.8.1.zip",
            "hash": "3a072889a6953fb12031994ac37b80377a8206afd7d3bb89bd72fa5980171e5a"
        }
    },
    "extract_dir": "Telegram",
    "bin": "telegram.exe",
    "persist": "tdata",
    "shortcuts": [
        [
            "Telegram.exe",
            "Telegram"
        ]
    ],
    "checkver": {
        "github": "https://github.com/telegramdesktop/tdesktop"
    },
    "autoupdate": {
        "architecture": {
            "64bit": {
                "url": "https://updates.tdesktop.com/tx64/tportable-x64.$version.zip"
            },
            "32bit": {
                "url": "https://updates.tdesktop.com/tsetup/tportable.$version.zip"
            }
        }
    }
}
