{
    "homepage": "https://im.qq.com/pcqq",
    "description": "QQ by Tencent",
    "license": "Commercial",
    "version": "9.7.6.28997",
    "url": "https://dldir1.qq.com/qqfile/qq/PCQQ9.7.6/QQ9.7.6.28997.exe",
    "hash": "9b8d489a299fb8527600fa6843e83ca3a81ea7c2395d8907c9ecdf95e6d7a665",
    "installer": {
        "script": "Start-Process -FilePath \"$dir\\$fname\" -Verb RunAs | Wait-Process"
    },
    "checkver": {
        "url": "https://im.qq.com/pcqq",
        "regex": "QQ([\\d.]+)\\.exe"
    },
    "autoupdate": {
        "url": "https://dldir1.qq.com/qqfile/qq/PCQQ$majorVersion.$minorVersion.$patchVersion/QQ$version.exe"
    },
    "_from": "okibcn/ScoopMaster"
}
