{
  "version": "3.15.6.407",
  "description": "腾讯会议是腾讯云旗下的一款音视频会议软件",
  "homepage": "https://meeting.tencent.com",
  "license": "BSD-3-Clause",
  "url": "https://updatecdn.meeting.qq.com/cos/390914479e76106f863d8089d0f11049/TencentMeeting_0300000000_3.15.6.407.publish.officialwebsite.exe#/dl.7z",
  "installer": {
    "script": [
      "Rename-Item \"$dir\\`$_10_\" \"$dir\\$version\"",
      "Remove-Item \"$dir\\wemeetapp_new.exe\" -Force",
      "Remove-Item \"$dir\\`$TEMP\", \"$dir\\`$WINDIR\", \"$dir\\`$PLUGINSDIR\" -Force -Recurse"
    ]
  },
  "shortcuts": [
    [
      "wemeetapp.exe",
      "腾讯会议"
    ]
  ],
  "ext": {
    "url": "https://meeting.tencent.com/download/"
  }
}