{
  "version": "6.6",
  "description": "一款AI智能创新摸鱼神器",
  "homepage": "https://thief.im/",
  "architecture": {
    "64bit": {
      "url": "https://assets.5a8.org/thief/download/thief-pro-6.6-win64.zip",
      "hash": "3ffda9e4c03c995fd95d65b03e70842a6b4dbf0aef55f4e2c9a4543c13ff0adc"
    },
    "32bit": {
      "url": "https://assets.5a8.org/thief/download/thief-pro-6.6-win32.zip",
      "hash": "bb3347bd0198103f552e0651508492b2bb41531e2803b8166b14794b1612df63"
    }
  },
  "extract_dir": "thief",
  "bin": [
    [
      "thief.exe",
      "thief"
    ]
  ],
  "shortcuts": [
    [
      "thief.exe",
      "Thief Pro"
    ]
  ],
  "checkver": {
    "url": "https://thief.im/",
    "regex": "版本号：v(\\d\\.\\d)"
  },
  "autoupdate": {
    "architecture": {
      "64bit": {
        "url": "https://assets.5a8.org/thief/download/thief-pro-$version-win64.zip"
      },
      "32bit": {
        "url": "https://assets.5a8.org/thief/download/thief-pro-$version-win32.zip"
      },
      "hash": {
        "mode": "download"
      }
    }
  },
  "_from": "Weidows-projects/scoop-3rd"
}