{
    "homepage": "https://www.thunderbird.net/",
    "description": "A free email application that's easy to set up and customize.",
    "license": "MPL-2.0",
    "version": "102.11.1",
    "architecture": {
        "64bit": {
            "url": "https://download-installer.cdn.mozilla.net/pub/thunderbird/releases/102.11.1/win64/zh-CN/Thunderbird%20Setup%20102.11.1.exe#/dl.7z",
            "hash": "99abf8bc2278c8d3cbb7fec4bf7f7af873ffc4b9e085d691bc2fb0478a3c9454"
        },
        "32bit": {
            "url": "https://download-installer.cdn.mozilla.net/pub/thunderbird/releases/102.11.1/win32/zh-CN/Thunderbird%20Setup%20102.11.1.exe#/dl.7z",
            "hash": "5666cc005fc5cd079267772f12cfe095007d2479928c468191a05f3b6d8d0934"
        }
    },
    "extract_dir": "core",
    "shortcuts": [
        [
            "thunderbird.exe",
            "Thunderbird Simplified Chinese Edition"
        ]
    ],
    "checkver": {
        "url": "https://www.thunderbird.net/en-US/",
        "regex": "itemprop=\"softwareVersion\" content=\"([\\d.]+?)\""
    },
    "autoupdate": {
        "architecture": {
            "64bit": {
                "url": "https://download-installer.cdn.mozilla.net/pub/thunderbird/releases/$version/win64/zh-CN/Thunderbird%20Setup%20$version.exe#/dl.7z",
                "hash": {
                    "url": "https://download-installer.cdn.mozilla.net/pub/thunderbird/releases/$version/SHA256SUMS",
                    "regex": "$sha256\\s+win64/zh-CN/$basename"
                }
            },
            "32bit": {
                "url": "https://download-installer.cdn.mozilla.net/pub/thunderbird/releases/$version/win32/zh-CN/Thunderbird%20Setup%20$version.exe#/dl.7z",
                "hash": {
                    "url": "https://download-installer.cdn.mozilla.net/pub/thunderbird/releases/$version/SHA256SUMS",
                    "regex": "$sha256\\s+win32/zh-CN/$basename"
                }
            }
        }
    }
}
