{
    "homepage": "https://tinkerwell.app",
    "version": "3.23.0",
    "license": "Proprietary",
    "url": "https://tinkerwell.fra1.digitaloceanspaces.com/tinkerwell/Tinkerwell%20Setup%203.23.0.exe#/dl.7z",
    "hash": "3da2b124b078ed561fb8d11c732495cee175fd3669c79bb82c522a1d15cc0953",
    "extract_dir": "$PLUGINSDIR",
    "installer": {
        "script": "Expand-7zipArchive \"$dir\\app-64.7z\" \"$dir\""
    },
    "shortcuts": [
        [
            "Tinkerwell.exe",
            "Tinkerwell"
        ]
    ],
    "checkver": {
        "url": "https://tinkerwell.fra1.digitaloceanspaces.com/tinkerwell/latest.yml",
        "regex": "path: Tinkerwell Setup ([0-9.]+).exe"
    },
    "autoupdate": {
        "url": "https://tinkerwell.fra1.digitaloceanspaces.com/tinkerwell/Tinkerwell%20Setup%20$version.exe#/dl.7z"
    },
    "notes": "The built-in autoupdate process may cause duplicate installations.",
    "_from": "okibcn/ScoopMaster"
}
