{
  "version": "0.4.17",
  "description": "集合多个API的大文件传输工具",
  "homepage": "https://github.com/Mikubill/transfer",
  "license": "MIT",
  "architecture": {
    "32bit": {
      "url": "https://ghproxy.com/https://github.com/Mikubill/transfer/releases/download/v0.4.17/transfer_0.4.17_windows_386.zip",
      "hash": "ada3587ca95ebf691d7f0398aba5f5cbb73129dbf16761330a2a8ec870361256"
    },
    "64bit": {
      "url": "https://ghproxy.com/https://github.com/Mikubill/transfer/releases/download/v0.4.17/transfer_0.4.17_windows_amd64.zip",
      "hash": "b4cbeb4dcc8e0b583bc5425ee767ded321c46894b154a12a15abf7121e4ac36b"
    }
  },
  "bin": "transfer.exe",
  "checkver": "github",
  "autoupdate": {
    "architecture": {
      "32bit": {
        "url": "https://ghproxy.com/https://github.com/Mikubill/transfer/releases/download/v$version/transfer_$version_windows_386.zip"
      },
      "64bit": {
        "url": "https://ghproxy.com/https://github.com/Mikubill/transfer/releases/download/v$version/transfer_$version_windows_amd64.zip"
      }
    }
  },
  "_from": "ViCrack/scoop-bucket"
}