{
  "version": "1.0",
  "description": "ttc, ttf, otf 字体文件属性修改工具",
  "license": "Unknown",
  "url": "https://od.233366.xyz/api/raw/?path=/Download/software/ttfname3.exe",
  "hash": "68e69d9399e9edfec9d869fb406604b0e1b00c1b988c86e8d75a00ab98470d53",
  "bin": "ttfname3.exe",
  "_from": "ygguorun/scoop-bucket"
}