{
    "version": "1.2.1",
    "description": "Nerd Fonts patched 'UDEVGothic' Font family. (Normal version, Nerd Fonts Symbol/Icon could be 1 or 2 cell wide)",
    "homepage": "https://github.com/yuru7/udev-gothic",
    "license": "OFL-1.1",
    "url": "https://ghproxy.com/https://github.com/yuru7/udev-gothic/releases/download/v1.2.1/UDEVGothic_NF_v1.2.1.zip",
    "hash": "5b65e4b0d45ef2f928c2b7a76c2c50aede1f581dbbb9f2f5e9af1533fa939ad0",
    "installer": {
        "script": [
            "$currentBuildNumber = [int] (Get-ItemProperty \"HKLM:\\SOFTWARE\\Microsoft\\Windows NT\\CurrentVersion\").CurrentBuildNumber",
            "$windows11Version22H2BuildNumber = 22621",
            "$doesPerUserFontInstallationHaveIssue = $currentBuildNumber -ge $windows11Version22H2BuildNumber",
            "if ($doesPerUserFontInstallationHaveIssue -and !$global) {",
            "    scoop uninstall $app",
            "    Write-Host \"\"",
            "    Write-Host \"Currently, on Windows 11 Version 22H2 (OS Build 22621) or later,\" -Foreground DarkRed",
            "    Write-Host \"Font installation only works when installing font for all users.\" -Foreground DarkRed",
            "    Write-Host \"\"",
            "    Write-Host \"Please use following commands to install '$app' Font for all users.\" -Foreground DarkRed",
            "    Write-Host \"\"",
            "    Write-Host \"        scoop install sudo\"",
            "    Write-Host \"        sudo scoop install -g $app\"",
            "    Write-Host \"\"",
            "    Write-Host \"See https://github.com/matthewjberger/scoop-nerd-fonts/issues/198 for more details.\" -Foreground Magenta",
            "    exit 1",
            "}",
            "$windows10Version1809BuildNumber = 17763",
            "$isPerUserFontInstallationSupported = $currentBuildNumber -ge $windows10Version1809BuildNumber",
            "if (!$isPerUserFontInstallationSupported -and !$global) {",
            "    scoop uninstall $app",
            "    Write-Host \"\"",
            "    Write-Host \"For Windows version before Windows 10 Version 1809 (OS Build 17763),\" -Foreground DarkRed",
            "    Write-Host \"Font can only be installed for all users.\" -Foreground DarkRed",
            "    Write-Host \"\"",
            "    Write-Host \"Please use following commands to install '$app' Font for all users.\" -Foreground DarkRed",
            "    Write-Host \"\"",
            "    Write-Host \"        scoop install sudo\"",
            "    Write-Host \"        sudo scoop install -g $app\"",
            "    Write-Host \"\"",
            "    exit 1",
            "}",
            "$fontInstallDir = if ($global) { \"$env:windir\\Fonts\" } else { \"$env:LOCALAPPDATA\\Microsoft\\Windows\\Fonts\" }",
            "$registryRoot = if ($global) { \"HKLM\" } else { \"HKCU\" }",
            "$registryKey = \"${registryRoot}:\\SOFTWARE\\Microsoft\\Windows NT\\CurrentVersion\\Fonts\"",
            "New-Item $fontInstallDir -ItemType Directory -ErrorAction SilentlyContinue | Out-Null",
            "Get-ChildItem $dir -Filter '*.ttf' -Recurse | ForEach-Object {",
            "    $value = if ($global) { $_.Name } else { \"$fontInstallDir\\$($_.Name)\" }",
            "    New-ItemProperty -Path $registryKey -Name $_.Name.Replace($_.Extension, ' (TrueType)') -Value $value -Force | Out-Null",
            "    Copy-Item $_.FullName -Destination $fontInstallDir",
            "}"
        ]
    },
    "uninstaller": {
        "script": [
            "$fontInstallDir = if ($global) { \"$env:windir\\Fonts\" } else { \"$env:LOCALAPPDATA\\Microsoft\\Windows\\Fonts\" }",
            "$registryRoot = if ($global) { \"HKLM\" } else { \"HKCU\" }",
            "$registryKey = \"${registryRoot}:\\SOFTWARE\\Microsoft\\Windows NT\\CurrentVersion\\Fonts\"",
            "Get-ChildItem $dir -Filter '*Complete Windows Compatible.*' | ForEach-Object {",
            "    Remove-ItemProperty -Path $registryKey -Name $_.Name.Replace($_.Extension, ' (TrueType)') -Force -ErrorAction SilentlyContinue",
            "    Remove-Item \"$fontInstallDir\\$($_.Name)\" -Force -ErrorAction SilentlyContinue",
            "}",
            "if ($cmd -eq \"uninstall\") {",
            "    Write-Host \"The '$($app.Replace('-NF', ''))' Font family has been uninstalled and will not be present after restarting your computer.\" -Foreground Magenta",
            "}"
        ]
    },
    "checkver": "github",
    "autoupdate": {
        "url": "https://ghproxy.com/https://github.com/yuru7/udev-gothic/releases/download/v$version/UDEVGothic_NF_v$version.zip"
    }
}
