{
  "version": "0.3.9",
  "description": "Updated Git: A powerful PowerShell wrapper for git that lets you extend git, automate multiple repos, and output git as objects.REST API.",
  "homepage": "https://github.com/StartAutomating/ugit",
  "license": "MIT",
  "url": "https://codeload.github.com/StartAutomating/ugit/zip/refs/tags/v0.3.9",
  "hash": "7e17ae740e1ffe53f12798fb355ca3e847642cddf666e9e7ca5dd949fa5d49f4",
  "extract_dir": "ugit-0.3.9",
  "psmodule": {
    "name": "ugit"
  },
  "checkver": "github",
  "autoupdate": {
    "url": "https://codeload.github.com/StartAutomating/ugit/zip/refs/tags/v$version",
    "extract_dir": "ugit-$version"
  }
}