{
  "homepage": "https://github.com/updatecli/updatecli/",
  "description": "updatecli: Automatically open a PR on your GitOps repository when a third party service publishes an update",
  "license": "Apache-2.0",
  "version": "0.49.2",
  "architecture": {
    "64bit": {
      "hash": "a0eacaeba339f94a589ab2eb3c2b358f058a9292f89194138204a9b8de99879c",
      "url": "https://ghproxy.net/https://github.com/updatecli/updatecli/releases/download/v0.49.2/updatecli_Windows_x86_64.zip"
    }
  },
  "env_add_path": ".",
  "checkver": {
    "github": "https://github.com/updatecli/updatecli/"
  },
  "autoupdate": {
    "architecture": {
      "64bit": {
        "url": "https://ghproxy.net/https://github.com/updatecli/updatecli/releases/download/v$version/updatecli_Windows_x86_64.zip"
      }
    }
  }
}