{
  "version": "1.0.5",
  "description": "super resolution",
  "homepage": "https://github.com/akirco/upscaler",
  "license": "ISC",
  "architecture": {
    "64bit": {
      "url": "https://ghproxy.com/https://github.com/akirco/upscaler/releases/download/v1.0.5/upscaler-1.0.5-setup.exe#/dl.7z",
      "hash": "0dde72cfd3ac97c7939e3e9fad9c2f3151acc7b959d6a1a2ae5c8dc128425c57"
    }
  },
  "pre_install": [
    "Expand-7zipArchive \"$dir\\`$PLUGINSDIR\\app-64.7z\" \"$dir\"",
    "Move-Item -Path \"$dir\\`$R0\\Uninstall upscaler.exe\" -Destination \"$dir\"",
    "Remove-Item \"$dir\\`$PLUGINSDIR\"  -Force -Recurse",
    "Remove-Item \"$dir\\`$R0\" -Force -Recurse"
  ],
  "shortcuts": [
    [
      "upscaler.exe",
      "upscaler"
    ]
  ],
  "persist": "images",
  "checkver": "github",
  "autoupdate": {
    "architecture": {
      "64bit": {
        "url": "https://ghproxy.com/https://github.com/akirco/upscaler/releases/download/v$version/upscaler-$version-setup.exe#/dl.7z"
      }
    }
  },
  "_from": "akirco/aki-apps"
}