{
    "version": "8.12",
    "description": "HW encoder (VCE) of AMD",
    "homepage": "https://github.com/rigaya/VCEEnc",
    "license": "MIT",
    "architecture": {
        "64bit": {
            "url": "https://github.com/rigaya/VCEEnc/releases/download/8.12/VCEEncC_8.12_x64.7z",
            "hash": "e7e84d50c35484c3885eae3fc5d92933ced373a91b130e0403079d50b44c0eff",
            "bin": "VCEEncC64.exe"
        },
        "32bit": {
            "url": "https://github.com/rigaya/VCEEnc/releases/download/8.12/VCEEncC_8.12_Win32.7z",
            "hash": "69afd46e8bac352d5fe4e3df37dfe8d0e7b15a832cd841724ef90e59626a2e35",
            "bin": "VCEEncC.exe"
        }
    },
    "checkver": "github",
    "autoupdate": {
        "architecture": {
            "64bit": {
                "url": "https://github.com/rigaya/VCEEnc/releases/download/$version/VCEEncC_$version_x64.7z"
            },
            "32bit": {
                "url": "https://github.com/rigaya/VCEEnc/releases/download/$version/VCEEncC_$version_Win32.7z"
            }
        }
    }
}
