{
  "autoupdate": {
    "hash": {
      "mode": "metalink"
    },
    "url": "https://ghproxy.com/https://github.com/defold/defold/releases/download/$version/Defold-x86_64-win32.zip"
  },
  "bin": "Defold/Defold.exe",
  "description": " An integrated, end-to-end solution for developers looking for high productivity and seamless coordination across teams of any size.",
  "hash": "bb05eddd16871f1dffb8ef09ed44d23689a85a814fcfc8155f5ae0d16044bdc0",
  "homepage": "https://visualstudio.microsoft.com/",
  "license": "https://visualstudio.microsoft.com/license-terms/",
  "url": " https://aka.ms/vs/17/release/vs_buildtools.exe",
  "version": "17"
}