{
  "version": "2.1.0",
  "description": "开源、轻量、快速、跨平台 的网站漏洞扫描工具，帮助您快速检测网站安全隐患。功能 端口扫描(port scan) 指纹识别(fingerprint) 漏洞检测(nday check) 智能爆破 (admin brute) 敏感文件扫描(file fuzz)",
  "homepage": "https://github.com/veo/vscan",
  "license": "BSD-3-Clause",
  "architecture": {
    "64bit": {
      "url": "https://ghproxy.com/https://github.com/veo/vscan/releases/download/v2.1.0/vscan_2.1.0_windows_amd64.zip",
      "hash": "90db18cfe97547c4bd41e8e4450e8a58e7cd6307c89d14147f0e03e97c7c4257",
      "bin": "vscan.exe"
    }
  },
  "checkver": "github",
  "autoupdate": {
    "architecture": {
      "64bit": {
        "url": "https://ghproxy.com/https://github.com/veo/vscan/releases/download/v$version/vscan_$version_windows_amd64.zip"
      }
    }
  },
  "_from": "ViCrack/scoop-bucket"
}