{
  "version": "0.11.0",
  "homepage": "https://rustwasm.github.io/wasm-pack/",
  "license": "Apache-2.0",
  "depends": "",
  "url": "https://ghproxy.com/https://github.com/rustwasm/wasm-pack/releases/download/v0.11.0/wasm-pack-init.exe",
  "hash": "dd27567eda1be53f72953a1e6148ed07919c2344f84d315f02c4256bf29af3ef",
  "bin": "wasm-pack-init.exe",
  "extract_dir": "",
  "checkver": {
    "github": "https://github.com/rustwasm/wasm-pack"
  },
  "autoupdate": {
    "url": "https://ghproxy.com/https://github.com/rustwasm/wasm-pack/releases/download/v$version/wasm-pack-init.exe"
  },
  "_from": "okibcn/ScoopMaster"
}