{
  "architecture": {
    "64bit": {
      "hash": "dfed7e23cd6c9a7f5136a60224c03438ed201f901a8e07f2e94f0f8489f8a8f8",
      "url": "https://tuf.werf.io/targets/releases/1.2.224/windows-amd64/bin/werf.exe"
    }
  },
  "autoupdate": {
    "architecture": {
      "64bit": {
        "url": "https://tuf.werf.io/targets/releases/$version/windows-amd64/bin/werf.exe"
      }
    }
  },
  "bin": "werf.exe",
  "checkver": {
    "github": "https://github.com/werf/werf"
  },
  "description": "The CLI tool gluing Git, Docker, Helm, and Kubernetes with any CI system to implement CI/CD and Giterminism.",
  "homepage": "https://werf.io/",
  "license": "Apache-2.0",
  "version": "1.2.224"
}