{
  "version": "2.0.1",
  "description": "An advanced utility that lets you explore the Windows Object Manager namespace",
  "homepage": "https://github.com/hfiref0x/WinObjEx64",
  "license": "BSD-2-Clause",
  "url": "https://ghproxy.com/https://github.com/hfiref0x/WinObjEx64/releases/download/v2.0.1/WinObjEx64_2.0.1.zip",
  "hash": "454ef634eae3c176af41c8b26b0b2dda56b0eee39bfd4d584d431412be5fd4af",
  "shortcuts": [
    [
      "WinObjEx64.exe",
      "WinObjEx64"
    ]
  ],
  "checkver": "github",
  "autoupdate": {
    "url": "https://ghproxy.com/https://github.com/hfiref0x/WinObjEx64/releases/download/v$version/WinObjEx64_$version.zip"
  },
  "_from": "wzv5/ScoopBucket"
}