{
    "version": "5.21.8",
    "description": "WinSCP. Copy files between a local computer and remote servers using FTP, FTPS, SCP, SFTP, WebDAV or S3 file transfer protocols.",
    "homepage": "https://winscp.net",
    "license": "GPL-3.0-or-later",
    "changelog": "https://winscp.net/eng/docs/history",
    "url": "https://downloads.sourceforge.net/project/winscp/WinSCP/5.21.8/WinSCP-5.21.8-Portable.zip",
    "hash": "a2fe8fab9ad3c6d640de407234c6949d9c3c39d7b775827abcc91a13b5d02504",
    "pre_install": [
        "if (!(Test-Path \"$persist_dir\\winscp.ini\")) {",
        "    @(",
        "        '[Configuration\\Interface]'",
        "        'RandomSeedFile=.\\winscp.rnd'",
        "    ) | Add-Content -Path \"$dir\\winscp.ini\" -Encoding ASCII -Force",
        "}"
    ],
    "bin": [
        "WinSCP.exe",
        [
            "WinSCP.com",
            "WinSCP-cli"
        ]
    ],
    "shortcuts": [
        [
            "WinSCP.exe",
            "WinSCP"
        ]
    ],
    "persist": "winscp.ini",
    "checkver": {
        "url": "https://winscp.net/eng/downloads.php",
        "regex": "WinSCP-([\\d.]+)-Portable\\.zip"
    },
    "autoupdate": {
        "url": "https://downloads.sourceforge.net/project/winscp/WinSCP/$version/WinSCP-$version-Portable.zip",
        "hash": {
            "url": "https://winscp.net/download/WinSCP-$version-ReadMe.txt",
            "regex": "(?sm)$basename.*?SHA-256: $sha256"
        }
    }
}
