{
    "version": "6.0.6",
    "description": "WinSnap is a fast and user-friendly utility for taking and editing screenshots.",
    "homepage": "https://www.ntwind.com/software/winsnap.html",
    "url": "https://www.ntwind.com/files/WinSnap_6.0.6-setup.exe#/dl.7z",
    "hash": "1e20b819376cacc7511c27ac614c828341f1480d6635bd86756f76bb32fa4275",
    "checkver": {
        "url": "https://www.ntwind.com/software/winsnap.html",
        "regex": "WinSnap_(\\d+.\\d+.\\d+)-setup.exe"
    },
    "autoupdate": {
        "url": "https://www.ntwind.com/files/WinSnap_$version-setup.exe#/dl.7z"
    },
    "post_install": [
        "Remove-Item \"$dir\\`$PLUGINSDIR\" -Recurse",
        "Remove-Item \"$dir\\`$TEMP\" -Recurse",
        "Remove-Item \"$dir\\`$2.nsis\" -Recurse"
    ],
    "shortcuts": [
        [
            "WinSnap64.exe",
            "WinSnap"
        ]
    ]
}
