{
  "homepage": "https://www.wireguard.com/",
  "version": "0.5.3",
  "description": "WireGuard® is an extremely simple yet fast and modern VPN that utilizes state-of-the-art cryptography. It aims to be faster, simpler, leaner, and more useful than IPsec, while avoiding the massive headache. It intends to be considerably more performant than OpenVPN. WireGuard is designed as a general purpose VPN for running on embedded interfaces and super computers alike, fit for many different circumstances. Initially released for the Linux kernel, it is now cross-platform (Windows, macOS, BSD, iOS, Android) and widely deployable. It is currently under heavy development, but already it might be regarded as the most secure, easiest to use, and simplest VPN solution in the industry. Config file at C:/Windows/System32/config/systemprofile/AppData/Local/WireGuard/Configurations/revomatico.conf.dpapi",
  "license": "The kernel components are released under the GPLv2, as is the Linux kernel itself. Other projects are licensed under MIT, BSD, Apache 2.0, or GPL, depending on context.",
  "architecture": {
    "64bit": {
      "url": "https://download.wireguard.com/windows-client/wireguard-amd64-0.5.3.msi",
      "hash": "76fcec042c5989c5b816cd32eaed1e5b1c3b998a4b1c9eca55f299e3314ef7e4"
    },
    "32bit": {
      "url": "https://download.wireguard.com/windows-client/wireguard-x86-0.5.3.msi",
      "hash": "ad1af1ae3474ef35de3809979aee98758430881b270e47e89e027b3490791d0d"
    }
  },
  "extract_dir": "WireGuard",
  "bin": "wireguard.exe",
  "shortcuts": [
    [
      "wireguard.exe",
      "WireGuard"
    ]
  ],
  "checkver": {
    "url": "https://build.wireguard.com/distros.json",
    "jp": "$.windowsdl-win.version"
  },
  "autoupdate": {
    "architecture": {
      "64bit": {
        "url": "https://download.wireguard.com/windows-client/wireguard-amd64-$version.msi"
      },
      "32bit": {
        "url": "https://download.wireguard.com/windows-client/wireguard-x86-$version.msi"
      }
    }
  },
  "_from": "okibcn/ScoopMaster"
}