{
  "version": "2022.1.3",
  "description": "轻量而好用的IDE",
  "homepage": "https://x-studio.net/",
  "license": "Unknown",
  "architecture": {
    "64bit": {
      "url": "https://ghproxy.com/https://github.com/simdsoft/x-studio.github.io/releases/download/v2022.1.3/x-studio_2022.1.3_9900.13.exe#/dl.7z",
      "hash": "md5:7e4323de834e87836c4478b2fdd9c1e5"
    }
  },
  "bin": [
    "lua.exe",
    "x-studio.exe"
  ],
  "shortcuts": [
    [
      "x-studio.exe",
      "x-studio"
    ]
  ],
  "checkver": {
    "github": "https://github.com/simdsoft/x-studio.github.io"
  },
  "autoupdate": {
    "url": "https://ghproxy.com/https://github.com/simdsoft/x-studio.github.io/releases/download/v$version/x-studio_$version_9900.13.exe#/dl.7z",
    "hash": {
      "mode": "extract",
      "url": "https://github.com/simdsoft/x-studio.github.io/releases/tag/v$version",
      "regex": "<p>$md5"
    }
  },
  "_from": "Weidows-projects/scoop-3rd"
}