{
    "version": "0.3.3",
    "description": "Custom Caddy Builder",
    "homepage": "https://github.com/caddyserver/xcaddy",
    "license": "Apache-2.0",
    "architecture": {
        "64bit": {
            "url": "https://ghproxy.com/https://github.com/caddyserver/xcaddy/releases/download/v0.3.3/xcaddy_0.3.3_windows_amd64.zip",
            "hash": "5f12a0689d96905dde76213b09d5ed5bd5c73356260f11bf784d061ecbbf219e"
        }
    },
    "bin": "xcaddy.exe",
    "checkver": "github",
    "autoupdate": {
        "architecture": {
            "64bit": {
                "url": "https://ghproxy.com/https://github.com/caddyserver/xcaddy/releases/download/v$version/xcaddy_$version_windows_amd64.zip"
            },
            "hash": {
                "url": "$baseurl/xcaddy_$version_checksums.txt"
            }
        }
    },
    "_from": "okibcn/ScoopMaster"
}
