{
  "version": "7.0.0088",
  "description": "Effortless File Transfers Over A Network(Portable Edition).",
  "homepage": "https://www.netsarang.com/en/xftp",
  "license": {
    "identifier": "NetSarang Computer Software License",
    "url": "https://www.netsarang.com/docs/ver6_free_eula.pdf"
  },
  "notes": [
    "资源均来源于网络，仅供用户交流学习与研究使用，版权归属原版权方所有。",
    "用户下载后不能用作商业或非法用途，需在 24 小时之内删除，否则后果均由用户承担责任。"
  ],
  "url": [
    "https://pan.jiemi.workers.dev/?file=/scoop/Xshell/Xftp_v7.0.0088.7z",
    "https://ghproxy.net/https://raw.githubusercontent.com/JaimeZeng/scoop-apps/main/scripts/xftp/install.bat",
    "https://ghproxy.net/https://raw.githubusercontent.com/JaimeZeng/scoop-apps/main/scripts/xftp/uninstall.bat"
  ],
  "hash": [
    "4414c93ba8d8901d7ff9b03f68f5943872ee1b589b4e4e2243c4d3c3b25898b0",
    "83bffc456dc055eb56109e684d8dd8ad94c51f76850478f9dc50a66c48e7a1fa",
    "f58c671dd5c988ca27289d2e92cc1760ba464dbb50e58288d4a929decefe7a0c"
  ],
  "extract_dir": "Xftp",
  "installer": {
    "script": "Start-Process \"$dir\\install.bat\" -Verb RunAs"
  },
  "uninstaller": {
    "script": [
      "Start-Process \"$dir\\uninstall.bat\" -Verb RunAs",
      "Write-Host \"The '$app' has been uninstalled.\" -Foreground Magenta"
    ]
  },
  "bin": [
    [
      "Xftp.exe",
      "xftp"
    ]
  ],
  "shortcuts": [
    [
      "Xftp.exe",
      "Xftp"
    ]
  ],
  "checkver": {
    "url": "https://ghproxy.net/https://raw.githubusercontent.com/JaimeZeng/scoop-apps/main/version/XShell",
    "regex": "(?<filename>Xftp_v(?<version>[\\d.]+)\\.(?:zip|7z))"
  },
  "autoupdate": {
    "url": "https://pan.jiemi.workers.dev/?file=/scoop/XShell/$matchFilename",
    "hash": {
      "url": "https://ghproxy.net/https://raw.githubusercontent.com/JaimeZeng/scoop-apps/main/version/XShell",
      "mode": "extract",
      "regex": "^$sha256([\\s]+)$basename"
    }
  }
}