{
  "version": "nightly",
  "description": "XT800服务端（运维人员/服务人员专用）",
  "homepage": "http://www.xt800.cn/",
  "license": "Freeware",
  "url": "http://files.xt800.cn/agent/XT800Agent_Setup.exe#/dl.7z",
  "pre_install": "Remove-Item -R -Path \"$dir\\`$PLUGINSDIR\",\"$dir\\卸载.exe.nsis\"",
  "shortcuts": [
    [
      "XT800.exe",
      "XT800服务端"
    ]
  ],
  "_from": "scoopcn/scoopcn"
}