{
    "version": "2.7.26",
    "description": "焰火十二卷（实时色彩工具箱）是一款免费且实用的色彩编辑器",
    "homepage": "https://eigenmiao.com/yanhuo/",
    "license": "GPL-3.0-only",
    "architecture": {
        "64bit": {
            "url": "https://github.com/eigenmiao/Rickrack/releases/download/v2.7.26/Rickrack_v2.7.26_zh_windows_AMD64.exe#/dl.7z",
            "hash": "1080bf1d9bdf2399c5a1dfe3a55890e29aec045623759942e4bcce484938afeb"
        }
    },
    "post_install": "Remove-Item \"$dir\\`$PLUGINSDIR\", \"$dir\\uninst*\" -Force -Recurse",
    "shortcuts": [
        [
            "Rickrack.exe",
            "焰火十二卷"
        ]
    ],
    "checkver": {
        "github": "https://github.com/eigenmiao/Rickrack"
    },
    "autoupdate": {
        "architecture": {
            "64bit": {
                "url": "https://github.com/eigenmiao/Rickrack/releases/download/v$version/Rickrack_v$version_zh_windows_AMD64.exe#/dl.7z"
            }
        }
    }
}
