{
    "version": "2.3.0",
    "description": "Windows graphical interface for yt-dlp, designed as a simple YouTube downloader",
    "homepage": "https://github.com/ErrorFlynn/ytdlp-interface",
    "license": "MIT",
    "architecture": {
        "64bit": {
            "url": "https://github.com/ErrorFlynn/ytdlp-interface/releases/download/v2.3.0/ytdlp-interface.7z",
            "hash": "f3bef861975991ef641f3dff18226d1320cdc0748c33ba0dd594e89c545aa71a",
            "pre_install": "if (!(Test-Path \"$persist_dir\\ytdlp-interface.json\")) { Set-Content \"$dir\\ytdlp-interface.json\" '{}' -Encoding Ascii }",
            "shortcuts": [
                [
                    "ytdlp-interface.exe",
                    "ytdlp-interface"
                ]
            ]
        }
    },
    "persist": "ytdlp-interface.json",
    "checkver": "github",
    "autoupdate": {
        "architecture": {
            "64bit": {
                "url": "https://github.com/ErrorFlynn/ytdlp-interface/releases/download/v$version/ytdlp-interface.7z"
            }
        }
    }
}
