{
  "$schema": "https://ghproxy.com/https://raw.githubusercontent.com/ScoopInstaller/Scoop/master/schema.json",
  "homepage": "https://github.com/amakvana/YuzuModDownloader",
  "version": "1.3.1.0",
  "license": "GPL-3.0",
  "architecture": {
    "64bit": {
      "url": "https://ghproxy.com/https://github.com/amakvana/YuzuModDownloader/releases/download/v1.3.1.0/YuzuModDownloader.zip",
      "hash": "b6dce8188d3604e081a2efaa268324525507f0635b3de51c361f51dc5189d1e4"
    }
  },
  "depends": "yuzu",
  "installer": {
    "script": [
      "Copy-Item \"$dir\\YuzuModDownloader.exe\" \"$(versiondir 'yuzu' 'current' $global)\"",
      "Copy-Item \"$dir\\HtmlAgilityPack.dll\" \"$(versiondir 'yuzu' 'current' $global)\""
    ]
  },
  "uninstaller": {
    "script": [
      "Remove-Item \"$(versiondir 'yuzu' 'current' $global)\\YuzuModDownloader.exe\"",
      "Remove-Item \"$(versiondir 'yuzu' 'current' $global)\\HtmlAgilityPack.dll\""
    ]
  },
  "checkver": {
    "github": "https://github.com/amakvana/YuzuModDownloader"
  },
  "autoupdate": {
    "architecture": {
      "64bit": {
        "url": "https://ghproxy.com/https://github.com/amakvana/YuzuModDownloader/releases/download/v$version/YuzuModDownloader.zip"
      }
    }
  },
  "_from": "kiennq/scoop-misc"
}