{
  "version": "0.10.7",
  "description": "Dialog boxes for the command-line",
  "homepage": "https://pkg.go.dev/github.com/ncruces/zenity",
  "license": "MIT",
  "architecture": {
    "64bit": {
      "url": "https://ghproxy.com/https://github.com/ncruces/zenity/releases/download/v0.10.7/zenity_win64.zip",
      "hash": "b644523cf936dfe33ddd2cf49157bfaaf4c975615c1d5434440f3512e632c5b1"
    },
    "32bit": {
      "url": "https://ghproxy.com/https://github.com/ncruces/zenity/releases/download/v0.10.7/zenity_win32.zip",
      "hash": "f979e301a4f720c7569a3110e58c6aab2a0e26c672cede6a10e6f8e7b53dfa98"
    }
  },
  "env_add_path": "."
}